(kicad_sch (version 20211123) (generator eeschema)

  (uuid 70032097-9ebd-4b53-aafd-1777fcf209b8)

  (paper "A4")

  (lib_symbols
    (symbol "Connectors:DF57H-3P-1.2V_21_" (pin_names (offset 0.762)) (in_bom yes) (on_board yes)
      (property "Reference" "J" (id 0) (at 19.05 7.62 0)
        (effects (font (size 1.27 1.27)) (justify left))
      )
      (property "Value" "DF57H-3P-1.2V_21_" (id 1) (at 19.05 5.08 0)
        (effects (font (size 1.27 1.27)) (justify left))
      )
      (property "Footprint" "DF57H3P12V21" (id 2) (at 19.05 2.54 0)
        (effects (font (size 1.27 1.27)) (justify left) hide)
      )
      (property "Datasheet" "https://datasheet.datasheetarchive.com/originals/distributors/Datasheets-DGA21/2082773.pdf" (id 3) (at 19.05 0 0)
        (effects (font (size 1.27 1.27)) (justify left) hide)
      )
      (property "Description" "HIROSE(HRS) - DF57H-3P-1.2V(21) - CONNECTOR, HEADER, 3POS, 1ROW, 1.2MM" (id 4) (at 19.05 -2.54 0)
        (effects (font (size 1.27 1.27)) (justify left) hide)
      )
      (property "Height" "1.55" (id 5) (at 19.05 -5.08 0)
        (effects (font (size 1.27 1.27)) (justify left) hide)
      )
      (property "Manufacturer_Name" "Hirose" (id 6) (at 19.05 -7.62 0)
        (effects (font (size 1.27 1.27)) (justify left) hide)
      )
      (property "Manufacturer_Part_Number" "DF57H-3P-1.2V(21)" (id 7) (at 19.05 -10.16 0)
        (effects (font (size 1.27 1.27)) (justify left) hide)
      )
      (property "Mouser Part Number" "798-DF57H-3P-1.2V21" (id 8) (at 19.05 -12.7 0)
        (effects (font (size 1.27 1.27)) (justify left) hide)
      )
      (property "Mouser Price/Stock" "https://www.mouser.co.uk/ProductDetail/Hirose-Connector/DF57H-3P-12V21?qs=Gufeu08L%2Fl2PQI%252ByibwXvg%3D%3D" (id 9) (at 19.05 -15.24 0)
        (effects (font (size 1.27 1.27)) (justify left) hide)
      )
      (property "Arrow Part Number" "" (id 10) (at 19.05 -17.78 0)
        (effects (font (size 1.27 1.27)) (justify left) hide)
      )
      (property "Arrow Price/Stock" "" (id 11) (at 19.05 -20.32 0)
        (effects (font (size 1.27 1.27)) (justify left) hide)
      )
      (property "ki_description" "HIROSE(HRS) - DF57H-3P-1.2V(21) - CONNECTOR, HEADER, 3POS, 1ROW, 1.2MM" (id 12) (at 0 0 0)
        (effects (font (size 1.27 1.27)) hide)
      )
      (symbol "DF57H-3P-1.2V_21__0_0"
        (pin passive line (at 22.86 0 180) (length 5.08)
          (name "1" (effects (font (size 1.27 1.27))))
          (number "1" (effects (font (size 1.27 1.27))))
        )
        (pin passive line (at 22.86 -2.54 180) (length 5.08)
          (name "2" (effects (font (size 1.27 1.27))))
          (number "2" (effects (font (size 1.27 1.27))))
        )
        (pin passive line (at 22.86 -5.08 180) (length 5.08)
          (name "3" (effects (font (size 1.27 1.27))))
          (number "3" (effects (font (size 1.27 1.27))))
        )
        (pin passive line (at 0 0 0) (length 5.08)
          (name "MP1" (effects (font (size 1.27 1.27))))
          (number "MP1" (effects (font (size 1.27 1.27))))
        )
        (pin passive line (at 0 -2.54 0) (length 5.08)
          (name "MP2" (effects (font (size 1.27 1.27))))
          (number "MP2" (effects (font (size 1.27 1.27))))
        )
      )
      (symbol "DF57H-3P-1.2V_21__0_1"
        (polyline
          (pts
            (xy 5.08 2.54)
            (xy 17.78 2.54)
            (xy 17.78 -7.62)
            (xy 5.08 -7.62)
            (xy 5.08 2.54)
          )
          (stroke (width 0.1524) (type default) (color 0 0 0 0))
          (fill (type none))
        )
      )
    )
    (symbol "Connectors:DF58-4P-1.2V_21_" (pin_names (offset 0.762)) (in_bom yes) (on_board yes)
      (property "Reference" "J" (id 0) (at 16.51 7.62 0)
        (effects (font (size 1.27 1.27)) (justify left))
      )
      (property "Value" "DF58-4P-1.2V_21_" (id 1) (at 16.51 5.08 0)
        (effects (font (size 1.27 1.27)) (justify left))
      )
      (property "Footprint" "DF584P12V21" (id 2) (at 16.51 2.54 0)
        (effects (font (size 1.27 1.27)) (justify left) hide)
      )
      (property "Datasheet" "https://datasheet.datasheetarchive.com/originals/distributors/DKDS-30/591775.pdf" (id 3) (at 16.51 0 0)
        (effects (font (size 1.27 1.27)) (justify left) hide)
      )
      (property "Description" "Hirose DF58 58, 1.2mm Pitch, 4 Way, 1 Row, Straight PCB Header, Surface Mount" (id 4) (at 16.51 -2.54 0)
        (effects (font (size 1.27 1.27)) (justify left) hide)
      )
      (property "Height" "1.1" (id 5) (at 16.51 -5.08 0)
        (effects (font (size 1.27 1.27)) (justify left) hide)
      )
      (property "Manufacturer_Name" "Hirose" (id 6) (at 16.51 -7.62 0)
        (effects (font (size 1.27 1.27)) (justify left) hide)
      )
      (property "Manufacturer_Part_Number" "DF58-4P-1.2V(21)" (id 7) (at 16.51 -10.16 0)
        (effects (font (size 1.27 1.27)) (justify left) hide)
      )
      (property "Mouser Part Number" "798-DF58-4P-1.2V21" (id 8) (at 16.51 -12.7 0)
        (effects (font (size 1.27 1.27)) (justify left) hide)
      )
      (property "Mouser Price/Stock" "https://www.mouser.co.uk/ProductDetail/Hirose-Connector/DF58-4P-12V21?qs=7bTaA%2FLYtSZD8VmLOAYe3A%3D%3D" (id 9) (at 16.51 -15.24 0)
        (effects (font (size 1.27 1.27)) (justify left) hide)
      )
      (property "Arrow Part Number" "" (id 10) (at 16.51 -17.78 0)
        (effects (font (size 1.27 1.27)) (justify left) hide)
      )
      (property "Arrow Price/Stock" "" (id 11) (at 16.51 -20.32 0)
        (effects (font (size 1.27 1.27)) (justify left) hide)
      )
      (property "ki_description" "Hirose DF58 58, 1.2mm Pitch, 4 Way, 1 Row, Straight PCB Header, Surface Mount" (id 12) (at 0 0 0)
        (effects (font (size 1.27 1.27)) hide)
      )
      (symbol "DF58-4P-1.2V_21__0_0"
        (pin passive line (at 20.32 0 180) (length 5.08)
          (name "1" (effects (font (size 1.27 1.27))))
          (number "1" (effects (font (size 1.27 1.27))))
        )
        (pin passive line (at 20.32 -2.54 180) (length 5.08)
          (name "2" (effects (font (size 1.27 1.27))))
          (number "2" (effects (font (size 1.27 1.27))))
        )
        (pin passive line (at 20.32 -5.08 180) (length 5.08)
          (name "3" (effects (font (size 1.27 1.27))))
          (number "3" (effects (font (size 1.27 1.27))))
        )
        (pin passive line (at 20.32 -7.62 180) (length 5.08)
          (name "4" (effects (font (size 1.27 1.27))))
          (number "4" (effects (font (size 1.27 1.27))))
        )
        (pin passive line (at 0 0 0) (length 5.08)
          (name "5" (effects (font (size 1.27 1.27))))
          (number "5" (effects (font (size 1.27 1.27))))
        )
        (pin passive line (at 0 -2.54 0) (length 5.08)
          (name "6" (effects (font (size 1.27 1.27))))
          (number "6" (effects (font (size 1.27 1.27))))
        )
      )
      (symbol "DF58-4P-1.2V_21__0_1"
        (polyline
          (pts
            (xy 5.08 2.54)
            (xy 15.24 2.54)
            (xy 15.24 -10.16)
            (xy 5.08 -10.16)
            (xy 5.08 2.54)
          )
          (stroke (width 0.1524) (type default) (color 0 0 0 0))
          (fill (type none))
        )
      )
    )
    (symbol "Connectors:DF58-6P-1.2V_21_" (pin_names (offset 0.762)) (in_bom yes) (on_board yes)
      (property "Reference" "J" (id 0) (at 19.05 7.62 0)
        (effects (font (size 1.27 1.27)) (justify left))
      )
      (property "Value" "DF58-6P-1.2V_21_" (id 1) (at 19.05 5.08 0)
        (effects (font (size 1.27 1.27)) (justify left))
      )
      (property "Footprint" "DF586P12V21" (id 2) (at 19.05 2.54 0)
        (effects (font (size 1.27 1.27)) (justify left) hide)
      )
      (property "Datasheet" "https://datasheet.datasheetarchive.com/originals/distributors/DKDS-30/591777.pdf" (id 3) (at 19.05 0 0)
        (effects (font (size 1.27 1.27)) (justify left) hide)
      )
      (property "Description" "Hirose DF58 58, 1.2mm Pitch, 6 Way, 1 Row, Straight PCB Header, Surface Mount" (id 4) (at 19.05 -2.54 0)
        (effects (font (size 1.27 1.27)) (justify left) hide)
      )
      (property "Height" "1.1" (id 5) (at 19.05 -5.08 0)
        (effects (font (size 1.27 1.27)) (justify left) hide)
      )
      (property "Manufacturer_Name" "Hirose" (id 6) (at 19.05 -7.62 0)
        (effects (font (size 1.27 1.27)) (justify left) hide)
      )
      (property "Manufacturer_Part_Number" "DF58-6P-1.2V(21)" (id 7) (at 19.05 -10.16 0)
        (effects (font (size 1.27 1.27)) (justify left) hide)
      )
      (property "Mouser Part Number" "798-DF58-6P-1.2V21" (id 8) (at 19.05 -12.7 0)
        (effects (font (size 1.27 1.27)) (justify left) hide)
      )
      (property "Mouser Price/Stock" "https://www.mouser.co.uk/ProductDetail/Hirose-Connector/DF58-6P-12V21?qs=vcbW%252B4%252BSTIrEQpN%252BCejfnQ%3D%3D" (id 9) (at 19.05 -15.24 0)
        (effects (font (size 1.27 1.27)) (justify left) hide)
      )
      (property "Arrow Part Number" "" (id 10) (at 19.05 -17.78 0)
        (effects (font (size 1.27 1.27)) (justify left) hide)
      )
      (property "Arrow Price/Stock" "" (id 11) (at 19.05 -20.32 0)
        (effects (font (size 1.27 1.27)) (justify left) hide)
      )
      (property "ki_description" "Hirose DF58 58, 1.2mm Pitch, 6 Way, 1 Row, Straight PCB Header, Surface Mount" (id 12) (at 0 0 0)
        (effects (font (size 1.27 1.27)) hide)
      )
      (symbol "DF58-6P-1.2V_21__0_0"
        (pin passive line (at 22.86 0 180) (length 5.08)
          (name "1" (effects (font (size 1.27 1.27))))
          (number "1" (effects (font (size 1.27 1.27))))
        )
        (pin passive line (at 22.86 -2.54 180) (length 5.08)
          (name "2" (effects (font (size 1.27 1.27))))
          (number "2" (effects (font (size 1.27 1.27))))
        )
        (pin passive line (at 22.86 -5.08 180) (length 5.08)
          (name "3" (effects (font (size 1.27 1.27))))
          (number "3" (effects (font (size 1.27 1.27))))
        )
        (pin passive line (at 22.86 -7.62 180) (length 5.08)
          (name "4" (effects (font (size 1.27 1.27))))
          (number "4" (effects (font (size 1.27 1.27))))
        )
        (pin passive line (at 22.86 -10.16 180) (length 5.08)
          (name "5" (effects (font (size 1.27 1.27))))
          (number "5" (effects (font (size 1.27 1.27))))
        )
        (pin passive line (at 22.86 -12.7 180) (length 5.08)
          (name "6" (effects (font (size 1.27 1.27))))
          (number "6" (effects (font (size 1.27 1.27))))
        )
        (pin passive line (at 0 -2.54 0) (length 5.08)
          (name "MP1" (effects (font (size 1.27 1.27))))
          (number "MP1" (effects (font (size 1.27 1.27))))
        )
        (pin passive line (at 0 0 0) (length 5.08)
          (name "MP2" (effects (font (size 1.27 1.27))))
          (number "MP2" (effects (font (size 1.27 1.27))))
        )
      )
      (symbol "DF58-6P-1.2V_21__0_1"
        (polyline
          (pts
            (xy 5.08 2.54)
            (xy 17.78 2.54)
            (xy 17.78 -15.24)
            (xy 5.08 -15.24)
            (xy 5.08 2.54)
          )
          (stroke (width 0.1524) (type default) (color 0 0 0 0))
          (fill (type none))
        )
      )
    )
    (symbol "Connectors:M80-6661022" (pin_names (offset 0.762)) (in_bom yes) (on_board yes)
      (property "Reference" "J" (id 0) (at 19.05 7.62 0)
        (effects (font (size 1.27 1.27)) (justify left))
      )
      (property "Value" "M80-6661022" (id 1) (at 19.05 5.08 0)
        (effects (font (size 1.27 1.27)) (justify left))
      )
      (property "Footprint" "M80-66610YY" (id 2) (at 19.05 2.54 0)
        (effects (font (size 1.27 1.27)) (justify left) hide)
      )
      (property "Datasheet" "https://cdn.harwin.com/pdfs/M80-666.pdf" (id 3) (at 19.05 0 0)
        (effects (font (size 1.27 1.27)) (justify left) hide)
      )
      (property "Description" "10 Pos. Male DIL Horizontal SMT Conn. Latches, 2.00mm Pitch High-Reliability Connector - Datamate L-Tek" (id 4) (at 19.05 -2.54 0)
        (effects (font (size 1.27 1.27)) (justify left) hide)
      )
      (property "Height" "" (id 5) (at 19.05 -5.08 0)
        (effects (font (size 1.27 1.27)) (justify left) hide)
      )
      (property "Manufacturer_Name" "Harwin" (id 6) (at 19.05 -7.62 0)
        (effects (font (size 1.27 1.27)) (justify left) hide)
      )
      (property "Manufacturer_Part_Number" "M80-6661022" (id 7) (at 19.05 -10.16 0)
        (effects (font (size 1.27 1.27)) (justify left) hide)
      )
      (property "Mouser Part Number" "855-M80-6661022" (id 8) (at 19.05 -12.7 0)
        (effects (font (size 1.27 1.27)) (justify left) hide)
      )
      (property "Mouser Price/Stock" "https://www.mouser.co.uk/ProductDetail/Harwin/M80-6661022?qs=IQR8xM2KsGgh%252BokSH0w3Qw%3D%3D" (id 9) (at 19.05 -15.24 0)
        (effects (font (size 1.27 1.27)) (justify left) hide)
      )
      (property "Arrow Part Number" "" (id 10) (at 19.05 -17.78 0)
        (effects (font (size 1.27 1.27)) (justify left) hide)
      )
      (property "Arrow Price/Stock" "" (id 11) (at 19.05 -20.32 0)
        (effects (font (size 1.27 1.27)) (justify left) hide)
      )
      (property "ki_description" "10 Pos. Male DIL Horizontal SMT Conn. Latches, 2.00mm Pitch High-Reliability Connector - Datamate L-Tek" (id 12) (at 0 0 0)
        (effects (font (size 1.27 1.27)) hide)
      )
      (symbol "M80-6661022_0_0"
        (pin passive line (at 22.86 -10.16 180) (length 5.08)
          (name "1" (effects (font (size 1.27 1.27))))
          (number "1" (effects (font (size 1.27 1.27))))
        )
        (pin passive line (at 0 0 0) (length 5.08)
          (name "10" (effects (font (size 1.27 1.27))))
          (number "10" (effects (font (size 1.27 1.27))))
        )
        (pin passive line (at 22.86 -7.62 180) (length 5.08)
          (name "2" (effects (font (size 1.27 1.27))))
          (number "2" (effects (font (size 1.27 1.27))))
        )
        (pin passive line (at 22.86 -5.08 180) (length 5.08)
          (name "3" (effects (font (size 1.27 1.27))))
          (number "3" (effects (font (size 1.27 1.27))))
        )
        (pin passive line (at 22.86 -2.54 180) (length 5.08)
          (name "4" (effects (font (size 1.27 1.27))))
          (number "4" (effects (font (size 1.27 1.27))))
        )
        (pin passive line (at 22.86 0 180) (length 5.08)
          (name "5" (effects (font (size 1.27 1.27))))
          (number "5" (effects (font (size 1.27 1.27))))
        )
        (pin passive line (at 0 -10.16 0) (length 5.08)
          (name "6" (effects (font (size 1.27 1.27))))
          (number "6" (effects (font (size 1.27 1.27))))
        )
        (pin passive line (at 0 -7.62 0) (length 5.08)
          (name "7" (effects (font (size 1.27 1.27))))
          (number "7" (effects (font (size 1.27 1.27))))
        )
        (pin passive line (at 0 -5.08 0) (length 5.08)
          (name "8" (effects (font (size 1.27 1.27))))
          (number "8" (effects (font (size 1.27 1.27))))
        )
        (pin passive line (at 0 -2.54 0) (length 5.08)
          (name "9" (effects (font (size 1.27 1.27))))
          (number "9" (effects (font (size 1.27 1.27))))
        )
      )
      (symbol "M80-6661022_0_1"
        (polyline
          (pts
            (xy 5.08 2.54)
            (xy 17.78 2.54)
            (xy 17.78 -12.7)
            (xy 5.08 -12.7)
            (xy 5.08 2.54)
          )
          (stroke (width 0.1524) (type default) (color 0 0 0 0))
          (fill (type none))
        )
      )
    )
    (symbol "Connectors:M80-6661222" (pin_names (offset 0.762)) (in_bom yes) (on_board yes)
      (property "Reference" "J" (id 0) (at 19.05 7.62 0)
        (effects (font (size 1.27 1.27)) (justify left))
      )
      (property "Value" "M80-6661222" (id 1) (at 19.05 5.08 0)
        (effects (font (size 1.27 1.27)) (justify left))
      )
      (property "Footprint" "M80-66612YY" (id 2) (at 19.05 2.54 0)
        (effects (font (size 1.27 1.27)) (justify left) hide)
      )
      (property "Datasheet" "https://cdn.harwin.com/pdfs/M80-666.pdf" (id 3) (at 19.05 0 0)
        (effects (font (size 1.27 1.27)) (justify left) hide)
      )
      (property "Description" "12 Pos. Male DIL Horizontal SMT Conn. Latches, 2.00mm Pitch High-Reliability Connector - Datamate L-Tek" (id 4) (at 19.05 -2.54 0)
        (effects (font (size 1.27 1.27)) (justify left) hide)
      )
      (property "Height" "" (id 5) (at 19.05 -5.08 0)
        (effects (font (size 1.27 1.27)) (justify left) hide)
      )
      (property "Manufacturer_Name" "Harwin" (id 6) (at 19.05 -7.62 0)
        (effects (font (size 1.27 1.27)) (justify left) hide)
      )
      (property "Manufacturer_Part_Number" "M80-6661222" (id 7) (at 19.05 -10.16 0)
        (effects (font (size 1.27 1.27)) (justify left) hide)
      )
      (property "Mouser Part Number" "" (id 8) (at 19.05 -12.7 0)
        (effects (font (size 1.27 1.27)) (justify left) hide)
      )
      (property "Mouser Price/Stock" "" (id 9) (at 19.05 -15.24 0)
        (effects (font (size 1.27 1.27)) (justify left) hide)
      )
      (property "Arrow Part Number" "" (id 10) (at 19.05 -17.78 0)
        (effects (font (size 1.27 1.27)) (justify left) hide)
      )
      (property "Arrow Price/Stock" "" (id 11) (at 19.05 -20.32 0)
        (effects (font (size 1.27 1.27)) (justify left) hide)
      )
      (property "ki_description" "12 Pos. Male DIL Horizontal SMT Conn. Latches, 2.00mm Pitch High-Reliability Connector - Datamate L-Tek" (id 12) (at 0 0 0)
        (effects (font (size 1.27 1.27)) hide)
      )
      (symbol "M80-6661222_0_0"
        (pin passive line (at 22.86 -12.7 180) (length 5.08)
          (name "1" (effects (font (size 1.27 1.27))))
          (number "1" (effects (font (size 1.27 1.27))))
        )
        (pin passive line (at 0 -5.08 0) (length 5.08)
          (name "10" (effects (font (size 1.27 1.27))))
          (number "10" (effects (font (size 1.27 1.27))))
        )
        (pin passive line (at 0 -2.54 0) (length 5.08)
          (name "11" (effects (font (size 1.27 1.27))))
          (number "11" (effects (font (size 1.27 1.27))))
        )
        (pin passive line (at 0 0 0) (length 5.08)
          (name "12" (effects (font (size 1.27 1.27))))
          (number "12" (effects (font (size 1.27 1.27))))
        )
        (pin passive line (at 22.86 -10.16 180) (length 5.08)
          (name "2" (effects (font (size 1.27 1.27))))
          (number "2" (effects (font (size 1.27 1.27))))
        )
        (pin passive line (at 22.86 -7.62 180) (length 5.08)
          (name "3" (effects (font (size 1.27 1.27))))
          (number "3" (effects (font (size 1.27 1.27))))
        )
        (pin passive line (at 22.86 -5.08 180) (length 5.08)
          (name "4" (effects (font (size 1.27 1.27))))
          (number "4" (effects (font (size 1.27 1.27))))
        )
        (pin passive line (at 22.86 -2.54 180) (length 5.08)
          (name "5" (effects (font (size 1.27 1.27))))
          (number "5" (effects (font (size 1.27 1.27))))
        )
        (pin passive line (at 22.86 0 180) (length 5.08)
          (name "6" (effects (font (size 1.27 1.27))))
          (number "6" (effects (font (size 1.27 1.27))))
        )
        (pin passive line (at 0 -12.7 0) (length 5.08)
          (name "7" (effects (font (size 1.27 1.27))))
          (number "7" (effects (font (size 1.27 1.27))))
        )
        (pin passive line (at 0 -10.16 0) (length 5.08)
          (name "8" (effects (font (size 1.27 1.27))))
          (number "8" (effects (font (size 1.27 1.27))))
        )
        (pin passive line (at 0 -7.62 0) (length 5.08)
          (name "9" (effects (font (size 1.27 1.27))))
          (number "9" (effects (font (size 1.27 1.27))))
        )
      )
      (symbol "M80-6661222_0_1"
        (polyline
          (pts
            (xy 5.08 2.54)
            (xy 17.78 2.54)
            (xy 17.78 -15.24)
            (xy 5.08 -15.24)
            (xy 5.08 2.54)
          )
          (stroke (width 0.1524) (type default) (color 0 0 0 0))
          (fill (type none))
        )
      )
    )
    (symbol "Connectors:TFML-110-02-L-D-LC-TR" (pin_names (offset 1.016)) (in_bom yes) (on_board yes)
      (property "Reference" "J" (id 0) (at -8.128 15.24 0)
        (effects (font (size 1.27 1.27)) (justify left bottom))
      )
      (property "Value" "TFML-110-02-L-D-LC-TR" (id 1) (at -7.62 -15.24 0)
        (effects (font (size 1.27 1.27)) (justify left bottom))
      )
      (property "Footprint" "SAMTEC_TFML-110-02-L-D-LC-TR" (id 2) (at 0 0 0)
        (effects (font (size 1.27 1.27)) (justify left bottom) hide)
      )
      (property "Datasheet" "" (id 3) (at 0 0 0)
        (effects (font (size 1.27 1.27)) (justify left bottom) hide)
      )
      (property "MANUFACTURER" "Samtec" (id 4) (at 0 0 0)
        (effects (font (size 1.27 1.27)) (justify left bottom) hide)
      )
      (property "PARTREV" "R" (id 5) (at 0 0 0)
        (effects (font (size 1.27 1.27)) (justify left bottom) hide)
      )
      (property "STANDARD" "Manufacturer Recommendations" (id 6) (at 0 0 0)
        (effects (font (size 1.27 1.27)) (justify left bottom) hide)
      )
      (property "ki_locked" "" (id 7) (at 0 0 0)
        (effects (font (size 1.27 1.27)))
      )
      (symbol "TFML-110-02-L-D-LC-TR_0_0"
        (rectangle (start -7.62 -12.7) (end 7.62 15.24)
          (stroke (width 0.254) (type default) (color 0 0 0 0))
          (fill (type background))
        )
        (pin passive line (at -12.7 12.7 0) (length 5.08)
          (name "01" (effects (font (size 1.016 1.016))))
          (number "01" (effects (font (size 1.016 1.016))))
        )
        (pin passive line (at 12.7 12.7 180) (length 5.08)
          (name "02" (effects (font (size 1.016 1.016))))
          (number "02" (effects (font (size 1.016 1.016))))
        )
        (pin passive line (at -12.7 10.16 0) (length 5.08)
          (name "03" (effects (font (size 1.016 1.016))))
          (number "03" (effects (font (size 1.016 1.016))))
        )
        (pin passive line (at 12.7 10.16 180) (length 5.08)
          (name "04" (effects (font (size 1.016 1.016))))
          (number "04" (effects (font (size 1.016 1.016))))
        )
        (pin passive line (at -12.7 7.62 0) (length 5.08)
          (name "05" (effects (font (size 1.016 1.016))))
          (number "05" (effects (font (size 1.016 1.016))))
        )
        (pin passive line (at 12.7 7.62 180) (length 5.08)
          (name "06" (effects (font (size 1.016 1.016))))
          (number "06" (effects (font (size 1.016 1.016))))
        )
        (pin passive line (at -12.7 5.08 0) (length 5.08)
          (name "07" (effects (font (size 1.016 1.016))))
          (number "07" (effects (font (size 1.016 1.016))))
        )
        (pin passive line (at 12.7 5.08 180) (length 5.08)
          (name "08" (effects (font (size 1.016 1.016))))
          (number "08" (effects (font (size 1.016 1.016))))
        )
        (pin passive line (at -12.7 2.54 0) (length 5.08)
          (name "09" (effects (font (size 1.016 1.016))))
          (number "09" (effects (font (size 1.016 1.016))))
        )
        (pin passive line (at 12.7 2.54 180) (length 5.08)
          (name "10" (effects (font (size 1.016 1.016))))
          (number "10" (effects (font (size 1.016 1.016))))
        )
        (pin passive line (at -12.7 0 0) (length 5.08)
          (name "11" (effects (font (size 1.016 1.016))))
          (number "11" (effects (font (size 1.016 1.016))))
        )
        (pin passive line (at 12.7 0 180) (length 5.08)
          (name "12" (effects (font (size 1.016 1.016))))
          (number "12" (effects (font (size 1.016 1.016))))
        )
        (pin passive line (at -12.7 -2.54 0) (length 5.08)
          (name "13" (effects (font (size 1.016 1.016))))
          (number "13" (effects (font (size 1.016 1.016))))
        )
        (pin passive line (at 12.7 -2.54 180) (length 5.08)
          (name "14" (effects (font (size 1.016 1.016))))
          (number "14" (effects (font (size 1.016 1.016))))
        )
        (pin passive line (at -12.7 -5.08 0) (length 5.08)
          (name "15" (effects (font (size 1.016 1.016))))
          (number "15" (effects (font (size 1.016 1.016))))
        )
        (pin passive line (at 12.7 -5.08 180) (length 5.08)
          (name "16" (effects (font (size 1.016 1.016))))
          (number "16" (effects (font (size 1.016 1.016))))
        )
        (pin passive line (at -12.7 -7.62 0) (length 5.08)
          (name "17" (effects (font (size 1.016 1.016))))
          (number "17" (effects (font (size 1.016 1.016))))
        )
        (pin passive line (at 12.7 -7.62 180) (length 5.08)
          (name "18" (effects (font (size 1.016 1.016))))
          (number "18" (effects (font (size 1.016 1.016))))
        )
        (pin passive line (at -12.7 -10.16 0) (length 5.08)
          (name "19" (effects (font (size 1.016 1.016))))
          (number "19" (effects (font (size 1.016 1.016))))
        )
        (pin passive line (at 12.7 -10.16 180) (length 5.08)
          (name "20" (effects (font (size 1.016 1.016))))
          (number "20" (effects (font (size 1.016 1.016))))
        )
      )
    )
    (symbol "Device:R" (pin_numbers hide) (pin_names (offset 0)) (in_bom yes) (on_board yes)
      (property "Reference" "R" (id 0) (at 2.032 0 90)
        (effects (font (size 1.27 1.27)))
      )
      (property "Value" "R" (id 1) (at 0 0 90)
        (effects (font (size 1.27 1.27)))
      )
      (property "Footprint" "" (id 2) (at -1.778 0 90)
        (effects (font (size 1.27 1.27)) hide)
      )
      (property "Datasheet" "~" (id 3) (at 0 0 0)
        (effects (font (size 1.27 1.27)) hide)
      )
      (property "ki_keywords" "R res resistor" (id 4) (at 0 0 0)
        (effects (font (size 1.27 1.27)) hide)
      )
      (property "ki_description" "Resistor" (id 5) (at 0 0 0)
        (effects (font (size 1.27 1.27)) hide)
      )
      (property "ki_fp_filters" "R_*" (id 6) (at 0 0 0)
        (effects (font (size 1.27 1.27)) hide)
      )
      (symbol "R_0_1"
        (rectangle (start -1.016 -2.54) (end 1.016 2.54)
          (stroke (width 0.254) (type default) (color 0 0 0 0))
          (fill (type none))
        )
      )
      (symbol "R_1_1"
        (pin passive line (at 0 3.81 270) (length 1.27)
          (name "~" (effects (font (size 1.27 1.27))))
          (number "1" (effects (font (size 1.27 1.27))))
        )
        (pin passive line (at 0 -3.81 90) (length 1.27)
          (name "~" (effects (font (size 1.27 1.27))))
          (number "2" (effects (font (size 1.27 1.27))))
        )
      )
    )
    (symbol "power:GND" (power) (pin_names (offset 0)) (in_bom yes) (on_board yes)
      (property "Reference" "#PWR" (id 0) (at 0 -6.35 0)
        (effects (font (size 1.27 1.27)) hide)
      )
      (property "Value" "GND" (id 1) (at 0 -3.81 0)
        (effects (font (size 1.27 1.27)))
      )
      (property "Footprint" "" (id 2) (at 0 0 0)
        (effects (font (size 1.27 1.27)) hide)
      )
      (property "Datasheet" "" (id 3) (at 0 0 0)
        (effects (font (size 1.27 1.27)) hide)
      )
      (property "ki_keywords" "power-flag" (id 4) (at 0 0 0)
        (effects (font (size 1.27 1.27)) hide)
      )
      (property "ki_description" "Power symbol creates a global label with name \"GND\" , ground" (id 5) (at 0 0 0)
        (effects (font (size 1.27 1.27)) hide)
      )
      (symbol "GND_0_1"
        (polyline
          (pts
            (xy 0 0)
            (xy 0 -1.27)
            (xy 1.27 -1.27)
            (xy 0 -2.54)
            (xy -1.27 -1.27)
            (xy 0 -1.27)
          )
          (stroke (width 0) (type default) (color 0 0 0 0))
          (fill (type none))
        )
      )
      (symbol "GND_1_1"
        (pin power_in line (at 0 0 270) (length 0) hide
          (name "GND" (effects (font (size 1.27 1.27))))
          (number "1" (effects (font (size 1.27 1.27))))
        )
      )
    )
  )


  (no_connect (at 72.39 148.59) (uuid 2a8f1b56-96a2-40a5-9839-4a5f60e72721))
  (no_connect (at 22.86 132.08) (uuid 4b15721a-8f6b-40c6-8976-be8f20b9fbfb))
  (no_connect (at 22.86 134.62) (uuid 4b15721a-8f6b-40c6-8976-be8f20b9fbfc))
  (no_connect (at 21.59 162.56) (uuid 4b15721a-8f6b-40c6-8976-be8f20b9fbfd))
  (no_connect (at 80.01 115.57) (uuid 60019ba6-a4e0-4a2a-a3f7-9596edd88c10))
  (no_connect (at 80.01 118.11) (uuid 60019ba6-a4e0-4a2a-a3f7-9596edd88c11))
  (no_connect (at 21.59 71.12) (uuid 7149c19c-4c89-4bac-8f0b-5b7970415adb))
  (no_connect (at 21.59 73.66) (uuid 7149c19c-4c89-4bac-8f0b-5b7970415adc))
  (no_connect (at 21.59 101.6) (uuid 7149c19c-4c89-4bac-8f0b-5b7970415add))
  (no_connect (at 21.59 104.14) (uuid 7149c19c-4c89-4bac-8f0b-5b7970415ade))
  (no_connect (at 189.23 30.48) (uuid 76d57bb0-88ee-4905-b5c1-a136e34ec8df))
  (no_connect (at 72.39 146.05) (uuid ae261dc8-92f5-4c58-9791-d5ed9a84f56f))
  (no_connect (at 80.01 71.12) (uuid b51f6905-f0f0-49b3-a468-eb199d0e4a0a))
  (no_connect (at 80.01 73.66) (uuid b51f6905-f0f0-49b3-a468-eb199d0e4a0b))
  (no_connect (at 189.23 33.02) (uuid b684b0bb-a591-4310-aa03-d546b1c703a7))
  (no_connect (at 44.45 34.29) (uuid ccc98ec8-fd90-4bfd-9b63-cee12fe5cd43))
  (no_connect (at 21.59 165.1) (uuid e5a15562-d711-41ec-a475-3a3003857dfb))
  (no_connect (at 80.01 93.98) (uuid ef0c4af3-9ebc-4316-812a-90a9b346d459))
  (no_connect (at 80.01 96.52) (uuid ef0c4af3-9ebc-4316-812a-90a9b346d45a))
  (no_connect (at 140.97 73.66) (uuid ef0c4af3-9ebc-4316-812a-90a9b346d45b))
  (no_connect (at 140.97 71.12) (uuid ef0c4af3-9ebc-4316-812a-90a9b346d45d))

  (wire (pts (xy 124.714 41.656) (xy 131.064 41.656))
    (stroke (width 0) (type default) (color 0 0 0 0))
    (uuid 004aba9d-aad4-46f1-b56c-38cbe50e0876)
  )
  (polyline (pts (xy 107.696 14.986) (xy 15.24 15.24))
    (stroke (width 0) (type default) (color 0 0 0 0))
    (uuid 00ae079e-9cc8-469a-9dd3-eb064cf84d0c)
  )
  (polyline (pts (xy 188.468 52.07) (xy 60.198 52.07))
    (stroke (width 0) (type default) (color 0 0 0 0))
    (uuid 05233a9f-b9ec-4bfd-bb0b-b71e04d206d4)
  )

  (wire (pts (xy 104.648 123.19) (xy 100.33 123.19))
    (stroke (width 0) (type default) (color 0 0 0 0))
    (uuid 08081d66-5fc2-4872-af43-f3b0805789a3)
  )
  (polyline (pts (xy 190.5 97.79) (xy 281.94 97.79))
    (stroke (width 0) (type default) (color 0 0 0 0))
    (uuid 0845006c-7f64-4e65-893e-79699febbdc4)
  )

  (wire (pts (xy 165.608 78.74) (xy 161.29 78.74))
    (stroke (width 0) (type default) (color 0 0 0 0))
    (uuid 0dae9ab1-9cfc-46b4-b1be-1654c9a4a8a5)
  )
  (wire (pts (xy 104.648 78.74) (xy 100.33 78.74))
    (stroke (width 0) (type default) (color 0 0 0 0))
    (uuid 12033dee-39b3-4b7f-99b8-da05789278c5)
  )
  (polyline (pts (xy 58.42 52.07) (xy 58.42 55.88))
    (stroke (width 0) (type default) (color 0 0 0 0))
    (uuid 13ed6d6d-29d8-4d95-a52a-3b5a09f954cc)
  )
  (polyline (pts (xy 60.198 130.81) (xy 188.468 130.81))
    (stroke (width 0) (type default) (color 0 0 0 0))
    (uuid 1477f4f2-045d-4153-a7d3-6243d9f1df7c)
  )
  (polyline (pts (xy 108.458 14.986) (xy 170.18 15.24))
    (stroke (width 0) (type default) (color 0 0 0 0))
    (uuid 15143602-2583-4b03-bf24-a135c51b5ee8)
  )
  (polyline (pts (xy 15.24 86.36) (xy 58.42 86.36))
    (stroke (width 0) (type default) (color 0 0 0 0))
    (uuid 19e4617c-731f-4add-a19e-5a920ebfadd4)
  )

  (wire (pts (xy 67.31 36.83) (xy 85.09 36.83))
    (stroke (width 0) (type default) (color 0 0 0 0))
    (uuid 21e80533-2717-4978-b63c-7d3a9da43489)
  )
  (wire (pts (xy 153.924 28.956) (xy 159.004 28.956))
    (stroke (width 0) (type default) (color 0 0 0 0))
    (uuid 22d9c291-8b74-4399-a1d1-98b9b0868bf8)
  )
  (polyline (pts (xy 58.42 177.8) (xy 58.42 147.32))
    (stroke (width 0) (type default) (color 0 0 0 0))
    (uuid 2599b4e0-cf41-4cde-980d-e17e7e59e580)
  )
  (polyline (pts (xy 58.42 116.84) (xy 58.42 86.36))
    (stroke (width 0) (type default) (color 0 0 0 0))
    (uuid 277ec0c8-b4c4-4286-92d8-8c62e1c7d963)
  )
  (polyline (pts (xy 188.468 130.81) (xy 188.468 52.07))
    (stroke (width 0) (type default) (color 0 0 0 0))
    (uuid 27d00172-b36e-40c9-a69f-9487ae1bbc88)
  )
  (polyline (pts (xy 171.45 15.24) (xy 171.45 50.8))
    (stroke (width 0) (type default) (color 0 0 0 0))
    (uuid 28046f64-631d-439f-bf53-b84c48bb386e)
  )
  (polyline (pts (xy 190.5 52.07) (xy 190.5 97.79))
    (stroke (width 0) (type default) (color 0 0 0 0))
    (uuid 2e2f8469-6400-405e-8723-eaea046520ec)
  )

  (wire (pts (xy 125.984 28.956) (xy 131.064 28.956))
    (stroke (width 0) (type default) (color 0 0 0 0))
    (uuid 2e71ea2d-8f92-4751-830c-15305132d5e2)
  )
  (wire (pts (xy 165.608 73.66) (xy 161.29 73.66))
    (stroke (width 0) (type default) (color 0 0 0 0))
    (uuid 3102ea44-62db-4eb4-9eaa-69b3c706a5ec)
  )
  (wire (pts (xy 153.924 31.496) (xy 159.004 31.496))
    (stroke (width 0) (type default) (color 0 0 0 0))
    (uuid 323d8f0b-e055-456e-b202-90a5b676e1fb)
  )
  (polyline (pts (xy 281.94 52.07) (xy 190.5 52.07))
    (stroke (width 0) (type default) (color 0 0 0 0))
    (uuid 35e5d0ed-728b-4125-8af9-82efb8e83f30)
  )

  (wire (pts (xy 104.648 96.52) (xy 100.33 96.52))
    (stroke (width 0) (type default) (color 0 0 0 0))
    (uuid 3834258f-b930-4b8c-9ee1-c70e3d8fea9a)
  )
  (wire (pts (xy 104.648 101.6) (xy 100.33 101.6))
    (stroke (width 0) (type default) (color 0 0 0 0))
    (uuid 3a24a529-0f0c-4a91-a85e-9fdf09cc83a9)
  )
  (wire (pts (xy 165.608 76.2) (xy 161.29 76.2))
    (stroke (width 0) (type default) (color 0 0 0 0))
    (uuid 3ccae8f6-f9c2-44f2-8e53-1adcc6108889)
  )
  (polyline (pts (xy 15.24 86.36) (xy 15.24 116.84))
    (stroke (width 0) (type default) (color 0 0 0 0))
    (uuid 3cef7b15-7cd5-41e2-a8aa-436a79d45b9f)
  )
  (polyline (pts (xy 15.24 50.8) (xy 107.696 50.546))
    (stroke (width 0) (type default) (color 0 0 0 0))
    (uuid 4905fab8-95b9-4f52-82e0-49605ee7a4cc)
  )

  (wire (pts (xy 125.984 34.036) (xy 131.064 34.036))
    (stroke (width 0) (type default) (color 0 0 0 0))
    (uuid 4996b981-3f6e-4612-8ae5-9e7ed48861a4)
  )
  (polyline (pts (xy 15.24 52.07) (xy 58.42 52.07))
    (stroke (width 0) (type default) (color 0 0 0 0))
    (uuid 4bc5854d-e5ab-449c-b55b-a8dfac3a3297)
  )

  (wire (pts (xy 104.648 76.2) (xy 100.33 76.2))
    (stroke (width 0) (type default) (color 0 0 0 0))
    (uuid 50932a4b-3f2b-4c52-a3e7-b73088b1425b)
  )
  (polyline (pts (xy 58.42 86.36) (xy 58.42 55.88))
    (stroke (width 0) (type default) (color 0 0 0 0))
    (uuid 516a7d4e-681d-4f99-a563-af1711a6f414)
  )
  (polyline (pts (xy 108.458 50.546) (xy 170.18 50.8))
    (stroke (width 0) (type default) (color 0 0 0 0))
    (uuid 557126f4-56a4-4610-b41d-8c208015f300)
  )
  (polyline (pts (xy 15.24 177.8) (xy 58.42 177.8))
    (stroke (width 0) (type default) (color 0 0 0 0))
    (uuid 5b8330c6-72aa-4625-a65f-d4d55ae3e3e8)
  )

  (wire (pts (xy 158.75 39.116) (xy 153.924 39.116))
    (stroke (width 0) (type default) (color 0 0 0 0))
    (uuid 5bfd442b-850c-4a50-9a10-c8c51946cc44)
  )
  (wire (pts (xy 104.394 71.12) (xy 100.33 71.12))
    (stroke (width 0) (type default) (color 0 0 0 0))
    (uuid 5eebc951-6279-42ca-8eac-6e894af34cea)
  )
  (polyline (pts (xy 108.458 14.986) (xy 108.458 50.546))
    (stroke (width 0) (type default) (color 0 0 0 0))
    (uuid 62278ce1-c66b-499c-a9f4-163f8e4f1314)
  )
  (polyline (pts (xy 59.69 132.08) (xy 59.69 162.56))
    (stroke (width 0) (type default) (color 0 0 0 0))
    (uuid 667a2737-0cfd-4a8c-8c9d-330b021fc82e)
  )
  (polyline (pts (xy 15.24 116.84) (xy 58.42 116.84))
    (stroke (width 0) (type default) (color 0 0 0 0))
    (uuid 67c7b52f-7316-4e9b-a642-20f8d3301f1c)
  )
  (polyline (pts (xy 15.24 147.32) (xy 15.24 177.8))
    (stroke (width 0) (type default) (color 0 0 0 0))
    (uuid 71fae289-9bee-4621-b0eb-6a837eeadcd7)
  )

  (wire (pts (xy 104.648 120.65) (xy 100.33 120.65))
    (stroke (width 0) (type default) (color 0 0 0 0))
    (uuid 746f1bc4-0ca0-4e51-8404-8d1b3144ceb8)
  )
  (polyline (pts (xy 118.11 162.56) (xy 118.11 132.08))
    (stroke (width 0) (type default) (color 0 0 0 0))
    (uuid 759ff92b-b49f-4a10-b668-cc27f69bde7b)
  )
  (polyline (pts (xy 15.24 55.88) (xy 15.24 86.36))
    (stroke (width 0) (type default) (color 0 0 0 0))
    (uuid 78e305c9-3d1c-4c7c-891e-7f577df6dd02)
  )
  (polyline (pts (xy 15.24 116.84) (xy 15.24 147.32))
    (stroke (width 0) (type default) (color 0 0 0 0))
    (uuid 7e291381-f9bf-4570-96b3-a92dcf2f3afa)
  )
  (polyline (pts (xy 171.45 15.24) (xy 234.95 15.24))
    (stroke (width 0) (type default) (color 0 0 0 0))
    (uuid 80e0d948-a583-47f7-996a-0089deb03068)
  )
  (polyline (pts (xy 15.24 116.84) (xy 58.42 116.84))
    (stroke (width 0) (type default) (color 0 0 0 0))
    (uuid 812363b1-561b-4c60-b6d6-3ca21e93bc16)
  )

  (wire (pts (xy 104.648 118.11) (xy 100.33 118.11))
    (stroke (width 0) (type default) (color 0 0 0 0))
    (uuid 81283b71-1425-44f9-8b65-fedf2a2d993b)
  )
  (wire (pts (xy 125.984 36.576) (xy 131.064 36.576))
    (stroke (width 0) (type default) (color 0 0 0 0))
    (uuid 82265198-648e-407f-854f-0e18e35af95b)
  )
  (wire (pts (xy 153.924 36.576) (xy 157.734 36.576))
    (stroke (width 0) (type default) (color 0 0 0 0))
    (uuid 95961c64-2eb6-4ef7-a220-4c86828a2a9c)
  )
  (wire (pts (xy 67.31 34.29) (xy 85.09 34.29))
    (stroke (width 0) (type default) (color 0 0 0 0))
    (uuid 9b8003aa-592d-4865-909d-2c373b7f8856)
  )
  (polyline (pts (xy 15.24 147.32) (xy 58.42 147.32))
    (stroke (width 0) (type default) (color 0 0 0 0))
    (uuid 9bba8999-c578-4d62-bbe9-e3da94796aab)
  )
  (polyline (pts (xy 281.94 97.79) (xy 281.94 52.07))
    (stroke (width 0) (type default) (color 0 0 0 0))
    (uuid a28bef57-3656-42a8-abdd-f13228ec892f)
  )
  (polyline (pts (xy 15.24 86.36) (xy 58.42 86.36))
    (stroke (width 0) (type default) (color 0 0 0 0))
    (uuid a2f0d04a-24ea-43d0-9afe-23e03116d4d0)
  )

  (wire (pts (xy 153.924 41.656) (xy 159.004 41.656))
    (stroke (width 0) (type default) (color 0 0 0 0))
    (uuid a3f97c79-77ce-4ee9-b4f3-f528226df592)
  )
  (polyline (pts (xy 107.696 50.546) (xy 107.696 14.986))
    (stroke (width 0) (type default) (color 0 0 0 0))
    (uuid a7f14925-4c08-4e98-b5ec-b2568b2d1748)
  )

  (wire (pts (xy 104.394 115.57) (xy 100.33 115.57))
    (stroke (width 0) (type default) (color 0 0 0 0))
    (uuid b0196688-d0cc-4e84-9330-64485e434a63)
  )
  (wire (pts (xy 104.394 93.98) (xy 100.33 93.98))
    (stroke (width 0) (type default) (color 0 0 0 0))
    (uuid b80d25ec-2a36-4d93-99c4-9e41e50bb4d0)
  )
  (wire (pts (xy 104.648 99.06) (xy 100.33 99.06))
    (stroke (width 0) (type default) (color 0 0 0 0))
    (uuid b84eba0d-1adc-4485-8430-04061188bb3f)
  )
  (polyline (pts (xy 15.24 15.24) (xy 15.24 50.8))
    (stroke (width 0) (type default) (color 0 0 0 0))
    (uuid bb660aa8-5f13-45fa-bee5-1770bd4e0f6c)
  )
  (polyline (pts (xy 170.18 50.8) (xy 170.18 15.24))
    (stroke (width 0) (type default) (color 0 0 0 0))
    (uuid c4849b93-03d3-490b-8416-8cee56b1805c)
  )
  (polyline (pts (xy 15.24 55.88) (xy 58.42 55.88))
    (stroke (width 0) (type default) (color 0 0 0 0))
    (uuid ca9a1f54-877f-4e78-bb6b-ac628fd7281a)
  )
  (polyline (pts (xy 234.95 50.8) (xy 171.45 50.8))
    (stroke (width 0) (type default) (color 0 0 0 0))
    (uuid cb98c994-e375-461c-a8cd-eb467640485e)
  )
  (polyline (pts (xy 234.95 15.24) (xy 234.95 50.8))
    (stroke (width 0) (type default) (color 0 0 0 0))
    (uuid cce584e5-1850-4194-8fd8-33e35c0d08ee)
  )

  (wire (pts (xy 125.984 31.496) (xy 131.064 31.496))
    (stroke (width 0) (type default) (color 0 0 0 0))
    (uuid d26d4c42-9d67-4254-a7e8-2d1a87bb9362)
  )
  (wire (pts (xy 125.984 39.116) (xy 131.064 39.116))
    (stroke (width 0) (type default) (color 0 0 0 0))
    (uuid d97839d9-5d41-46e3-9d6c-78674c291d5b)
  )
  (wire (pts (xy 153.924 34.036) (xy 159.004 34.036))
    (stroke (width 0) (type default) (color 0 0 0 0))
    (uuid ddd5a71e-514a-4e2c-890a-e65822be5eeb)
  )
  (polyline (pts (xy 58.42 147.32) (xy 58.42 116.84))
    (stroke (width 0) (type default) (color 0 0 0 0))
    (uuid e66abdbe-a566-4fd9-aba6-7832d3fa65c1)
  )
  (polyline (pts (xy 59.69 162.56) (xy 118.11 162.56))
    (stroke (width 0) (type default) (color 0 0 0 0))
    (uuid e71b38a0-c5d2-4124-b323-39d39489a667)
  )
  (polyline (pts (xy 15.24 55.88) (xy 15.24 52.07))
    (stroke (width 0) (type default) (color 0 0 0 0))
    (uuid ed3a5f52-3749-4a10-8a10-dbf6849c917e)
  )
  (polyline (pts (xy 59.69 132.08) (xy 118.11 132.08))
    (stroke (width 0) (type default) (color 0 0 0 0))
    (uuid ed5bd48a-dbb0-45e4-9abd-6a77c5829dc0)
  )
  (polyline (pts (xy 15.24 147.32) (xy 58.42 147.32))
    (stroke (width 0) (type default) (color 0 0 0 0))
    (uuid ee157e10-0762-4f35-adb0-2414a5c28b39)
  )

  (wire (pts (xy 104.648 73.66) (xy 100.33 73.66))
    (stroke (width 0) (type default) (color 0 0 0 0))
    (uuid efd15ad8-c9ef-420a-8e01-0c5ccafa2aa2)
  )
  (wire (pts (xy 165.354 71.12) (xy 161.29 71.12))
    (stroke (width 0) (type default) (color 0 0 0 0))
    (uuid f3006f37-6d4e-457f-a424-4492b0613cad)
  )
  (polyline (pts (xy 60.198 52.07) (xy 60.198 130.81))
    (stroke (width 0) (type default) (color 0 0 0 0))
    (uuid fc2b02db-3d9d-4cf4-888e-e631de1dd938)
  )

  (text "Environmental tests \nUmbilical pin-out (TVAC)" (at 194.31 59.69 0)
    (effects (font (size 1.27 1.27)) (justify left bottom))
    (uuid 0153d6ea-ad48-4b96-b40e-56e740afbdfb)
  )
  (text "Note: raw ADCS and OBC are the power supllies\nprovided inside the cleanroom"
    (at 233.68 58.42 0)
    (effects (font (size 1.27 1.27)) (justify left bottom))
    (uuid 072e887a-75c7-4ba1-bf1b-ae6c54b44eb9)
  )
  (text "MCU Trace Connector" (at 173.99 19.05 0)
    (effects (font (size 1.27 1.27)) (justify left bottom))
    (uuid 09ffb225-e6b9-4f65-9691-314c45dc9d9b)
  )
  (text "Note: +Y Panel" (at 16.51 151.13 0)
    (effects (font (size 1.27 1.27)) (justify left bottom))
    (uuid 19b35027-46db-4500-a2a7-64f6044ff72f)
  )
  (text "OBC-Panels Connectors" (at 65.278 57.15 0)
    (effects (font (size 1.27 1.27)) (justify left bottom))
    (uuid 1d35714e-beeb-430d-b5a2-da6a280475d6)
  )
  (text "Note: -Z Panel" (at 16.51 90.17 0)
    (effects (font (size 1.27 1.27)) (justify left bottom))
    (uuid 6611e713-63bc-4bc7-808c-4f93add2df3d)
  )
  (text "Connectors for Functional Tests\n" (at 16.51 54.61 0)
    (effects (font (size 1.27 1.27)) (justify left bottom))
    (uuid 8bbcdeb4-f8a5-4aab-b72f-28b6eec9d1bd)
  )
  (text "Note: The equivalent connector on the COMMS board \nis a 12pin connector"
    (at 63.5 161.29 0)
    (effects (font (size 1.27 1.27)) (justify left bottom))
    (uuid 98ae5260-66c8-4119-b4fc-25dd11d93cca)
  )
  (text "Note: -Y Panel" (at 16.51 120.65 0)
    (effects (font (size 1.27 1.27)) (justify left bottom))
    (uuid b64a92a7-5038-4f35-af94-adad64fb40f3)
  )
  (text "OBC-COMMS debugging Connector" (at 63.5 135.89 0)
    (effects (font (size 1.27 1.27)) (justify left bottom))
    (uuid b7af7e85-978a-4bd8-ae90-2c5de218343e)
  )
  (text "Note: -X Panel" (at 16.51 59.69 0)
    (effects (font (size 1.27 1.27)) (justify left bottom))
    (uuid dc21c0f4-8b01-4712-ba89-82c566ef627d)
  )
  (text "OBC-SU Connector" (at 109.474 20.066 0)
    (effects (font (size 1.27 1.27)) (justify left bottom))
    (uuid ec4b20f7-8599-4a25-97f7-78d7f37c3ac5)
  )
  (text "OBC-ADM Connector" (at 16.51 19.05 0)
    (effects (font (size 1.27 1.27)) (justify left bottom))
    (uuid edaf39f2-96ae-42d2-98c1-2cb10b7dfd12)
  )

  (label "COMMS_SWCLK" (at 41.91 165.1 0)
    (effects (font (size 1.27 1.27)) (justify left bottom))
    (uuid 2c532812-0f2c-4c37-80af-ea32f237287b)
  )
  (label "SU_SWDIO" (at 41.91 109.22 0)
    (effects (font (size 1.27 1.27)) (justify left bottom))
    (uuid 45969c1f-77d8-492b-a355-8c619e2cefb9)
  )
  (label "COMMS_SWDIO" (at 95.25 151.13 0)
    (effects (font (size 1.27 1.27)) (justify left bottom))
    (uuid 59c2a695-9136-4d02-b173-7375d5ec88b5)
  )
  (label "SU_SWDIO" (at 125.984 28.956 180)
    (effects (font (size 1.27 1.27)) (justify right bottom))
    (uuid 7c2b1fe6-2768-4a41-ad58-deae8c1ca1f6)
  )
  (label "SU_SWCLK" (at 41.91 71.12 0)
    (effects (font (size 1.27 1.27)) (justify left bottom))
    (uuid 84aee2b4-4a77-4abd-a646-cfa5ffaedc90)
  )
  (label "SU_SWCLK" (at 125.984 31.496 180)
    (effects (font (size 1.27 1.27)) (justify right bottom))
    (uuid 86b593a7-a7ce-4f0a-9cb7-969d38a16cfa)
  )
  (label "COMMS_SWCLK" (at 95.25 148.59 0)
    (effects (font (size 1.27 1.27)) (justify left bottom))
    (uuid ab61176a-261c-4ee2-8697-e86e6b799617)
  )
  (label "COMMS_SWDIO" (at 41.91 162.56 0)
    (effects (font (size 1.27 1.27)) (justify left bottom))
    (uuid f327713a-1034-41ae-a18c-f38e04233917)
  )

  (global_label "CAN1+" (shape input) (at 41.91 76.2 0) (fields_autoplaced)
    (effects (font (size 1.27 1.27)) (justify left))
    (uuid 00f7ae88-4974-4853-b7e7-2a1e58b6ae8c)
    (property "Intersheet References" "${INTERSHEET_REFS}" (id 0) (at 50.7052 76.1206 0)
      (effects (font (size 1.27 1.27)) (justify left) hide)
    )
  )
  (global_label "CAN2+" (shape input) (at 41.91 104.14 0) (fields_autoplaced)
    (effects (font (size 1.27 1.27)) (justify left))
    (uuid 12d7553e-00e6-478f-a56c-a8cca2994add)
    (property "Intersheet References" "${INTERSHEET_REFS}" (id 0) (at 50.7052 104.0606 0)
      (effects (font (size 1.27 1.27)) (justify left) hide)
    )
  )
  (global_label "CAN1-" (shape input) (at 248.92 78.74 0) (fields_autoplaced)
    (effects (font (size 1.27 1.27)) (justify left))
    (uuid 468fddba-896a-455d-bbe0-c3952c51f80b)
    (property "Intersheet References" "${INTERSHEET_REFS}" (id 0) (at 257.7152 78.6606 0)
      (effects (font (size 1.27 1.27)) (justify left) hide)
    )
  )
  (global_label "CAN1+" (shape bidirectional) (at 159.004 28.956 0) (fields_autoplaced)
    (effects (font (size 1.27 1.27)) (justify left))
    (uuid 64227d66-1dba-4646-bce9-4be84033d092)
    (property "Intersheet References" "${INTERSHEET_REFS}" (id 0) (at 167.7992 29.0354 0)
      (effects (font (size 1.27 1.27)) (justify left) hide)
    )
  )
  (global_label "CAN2+" (shape input) (at 223.52 81.28 180) (fields_autoplaced)
    (effects (font (size 1.27 1.27)) (justify right))
    (uuid 6d4f86ff-c26a-4a14-ba14-ef670caa179f)
    (property "Intersheet References" "${INTERSHEET_REFS}" (id 0) (at 214.7248 81.2006 0)
      (effects (font (size 1.27 1.27)) (justify right) hide)
    )
  )
  (global_label "CAN2+" (shape bidirectional) (at 159.004 34.036 0) (fields_autoplaced)
    (effects (font (size 1.27 1.27)) (justify left))
    (uuid 7c51168b-2579-4a59-a888-2810cced9266)
    (property "Intersheet References" "${INTERSHEET_REFS}" (id 0) (at 167.7992 34.1154 0)
      (effects (font (size 1.27 1.27)) (justify left) hide)
    )
  )
  (global_label "CAN1+" (shape input) (at 248.92 81.28 0) (fields_autoplaced)
    (effects (font (size 1.27 1.27)) (justify left))
    (uuid 812735fd-f634-4a64-8f41-db7aee6015f7)
    (property "Intersheet References" "${INTERSHEET_REFS}" (id 0) (at 257.7152 81.2006 0)
      (effects (font (size 1.27 1.27)) (justify left) hide)
    )
  )
  (global_label "CAN2-" (shape bidirectional) (at 125.984 34.036 180) (fields_autoplaced)
    (effects (font (size 1.27 1.27)) (justify right))
    (uuid 85cfeb1a-bf37-4808-a748-9565fc1c7347)
    (property "Intersheet References" "${INTERSHEET_REFS}" (id 0) (at 117.1888 33.9566 0)
      (effects (font (size 1.27 1.27)) (justify right) hide)
    )
  )
  (global_label "CAN1-" (shape bidirectional) (at 159.004 31.496 0) (fields_autoplaced)
    (effects (font (size 1.27 1.27)) (justify left))
    (uuid a7114575-3bb8-4194-acf3-2824a62bf737)
    (property "Intersheet References" "${INTERSHEET_REFS}" (id 0) (at 167.7992 31.4166 0)
      (effects (font (size 1.27 1.27)) (justify left) hide)
    )
  )
  (global_label "CAN2-" (shape input) (at 41.91 106.68 0) (fields_autoplaced)
    (effects (font (size 1.27 1.27)) (justify left))
    (uuid af6c905d-5688-4319-b66b-a9a1c110cef6)
    (property "Intersheet References" "${INTERSHEET_REFS}" (id 0) (at 50.7052 106.6006 0)
      (effects (font (size 1.27 1.27)) (justify left) hide)
    )
  )
  (global_label "CAN1-" (shape input) (at 41.91 73.66 0) (fields_autoplaced)
    (effects (font (size 1.27 1.27)) (justify left))
    (uuid c1fe39a2-2c76-40d7-afda-2a62c9ba1cc2)
    (property "Intersheet References" "${INTERSHEET_REFS}" (id 0) (at 50.7052 73.5806 0)
      (effects (font (size 1.27 1.27)) (justify left) hide)
    )
  )
  (global_label "ADM_PD" (shape bidirectional) (at 67.31 39.37 0) (fields_autoplaced)
    (effects (font (size 1.27 1.27)) (justify left))
    (uuid dca8a48a-6798-42a9-9d17-95d2f84c41fa)
    (property "Intersheet References" "${INTERSHEET_REFS}" (id 0) (at 76.9518 39.4494 0)
      (effects (font (size 1.27 1.27)) (justify left) hide)
    )
  )
  (global_label "CAN2-" (shape input) (at 223.52 78.74 180) (fields_autoplaced)
    (effects (font (size 1.27 1.27)) (justify right))
    (uuid fe96dd37-5a0e-4320-8cc8-d9c060e17dfd)
    (property "Intersheet References" "${INTERSHEET_REFS}" (id 0) (at 214.7248 78.6606 0)
      (effects (font (size 1.27 1.27)) (justify right) hide)
    )
  )

  (hierarchical_label "MCU_TRACED_0" (shape input) (at 212.09 40.64 0)
    (effects (font (size 1.27 1.27)) (justify left))
    (uuid 009a4696-d9e4-4686-8def-6abbe9b0381c)
  )
  (hierarchical_label "OBC_UART_TX" (shape input) (at 223.52 83.82 180)
    (effects (font (size 1.27 1.27)) (justify right))
    (uuid 0bd152d8-36b6-4b5d-b49e-c4756c9621bd)
  )
  (hierarchical_label "SU_12V" (shape input) (at 125.984 36.576 180)
    (effects (font (size 1.27 1.27)) (justify right))
    (uuid 1044b7d8-0c17-4b6c-984f-e15b6a6a9b57)
  )
  (hierarchical_label "I2C_SDA_PANELS" (shape bidirectional) (at 165.608 73.66 0)
    (effects (font (size 1.27 1.27)) (justify left))
    (uuid 15abd2cc-e902-4c01-8f73-18f982509a50)
  )
  (hierarchical_label "ADCS_UART_RX" (shape input) (at 248.92 83.82 0)
    (effects (font (size 1.27 1.27)) (justify left))
    (uuid 190bccbf-efcb-4894-bbed-8990a15a0c8b)
  )
  (hierarchical_label "PANELS_5V" (shape input) (at 165.608 78.74 0)
    (effects (font (size 1.27 1.27)) (justify left))
    (uuid 22995a30-d619-46c1-895b-1cb5d8fef605)
  )
  (hierarchical_label "I2C_SDA_PANELS" (shape bidirectional) (at 104.648 118.11 0)
    (effects (font (size 1.27 1.27)) (justify left))
    (uuid 236ecf08-6f60-4b42-8acf-dedf2f398646)
  )
  (hierarchical_label "I2C_SDA_PANELS" (shape bidirectional) (at 104.648 73.66 0)
    (effects (font (size 1.27 1.27)) (justify left))
    (uuid 243e7235-57d7-4a7c-9dc9-a7a3bf4ec37c)
  )
  (hierarchical_label "ADCS_SWDIO" (shape bidirectional) (at 41.91 167.64 0)
    (effects (font (size 1.27 1.27)) (justify left))
    (uuid 2a16437a-4664-4590-b565-ec35638d0ac7)
  )
  (hierarchical_label "MCU_TRACECLK" (shape input) (at 212.09 30.48 0)
    (effects (font (size 1.27 1.27)) (justify left))
    (uuid 2a5c5d85-6fdb-4218-a880-b28157c1c119)
  )
  (hierarchical_label "I2C_SDA_PANELS" (shape bidirectional) (at 104.648 96.52 0)
    (effects (font (size 1.27 1.27)) (justify left))
    (uuid 2f76ed6b-e643-4ba8-a62e-4749537a4549)
  )
  (hierarchical_label "I2C_SCK_PANELS" (shape bidirectional) (at 104.648 99.06 0)
    (effects (font (size 1.27 1.27)) (justify left))
    (uuid 2fcbacd4-222f-4cca-be17-bc1cc3395c90)
  )
  (hierarchical_label "TVAC_3V3_ADCS" (shape output) (at 223.52 68.58 180)
    (effects (font (size 1.27 1.27)) (justify right))
    (uuid 301d6d84-9a96-4e10-a2e0-4b6e84adc8f9)
  )
  (hierarchical_label "ADCS_SWDIO" (shape bidirectional) (at 248.92 91.44 0)
    (effects (font (size 1.27 1.27)) (justify left))
    (uuid 37a6689f-a266-44e1-ad7e-4636ddf01063)
  )
  (hierarchical_label "OBC_DEBUGGER_VREF" (shape input) (at 85.09 44.45 0)
    (effects (font (size 1.27 1.27)) (justify left))
    (uuid 3cbf358e-7b63-4b4f-830f-0ceaf53fb98c)
  )
  (hierarchical_label "ADM_DEPLOY_2" (shape input) (at 67.31 31.75 0)
    (effects (font (size 1.27 1.27)) (justify left))
    (uuid 400369fa-88b3-4e0f-88ab-de5a87f1b887)
  )
  (hierarchical_label "PANELS_5V" (shape input) (at 104.648 101.6 0)
    (effects (font (size 1.27 1.27)) (justify left))
    (uuid 46d5f8b9-bd7f-4c34-81d9-2d7dadd93d7c)
  )
  (hierarchical_label "ADM_DEPLOY_4" (shape input) (at 44.45 31.75 180)
    (effects (font (size 1.27 1.27)) (justify right))
    (uuid 4d565aa3-b7e9-4f13-911a-eef47c3c86f5)
  )
  (hierarchical_label "MCU_SWCLK" (shape output) (at 43.18 134.62 0)
    (effects (font (size 1.27 1.27)) (justify left))
    (uuid 548b8a94-8299-4d6b-974d-bd89268ddaf5)
  )
  (hierarchical_label "ADM_DEPLOY_1" (shape input) (at 67.31 29.21 0)
    (effects (font (size 1.27 1.27)) (justify left))
    (uuid 5988bb57-96c8-44b3-bf4e-123d45b7e3df)
  )
  (hierarchical_label "I2C_SCK_PANELS" (shape bidirectional) (at 165.608 76.2 0)
    (effects (font (size 1.27 1.27)) (justify left))
    (uuid 59feeaa0-bc10-4107-9f4c-6e316be0c28c)
  )
  (hierarchical_label "MCU_TRACED_3" (shape input) (at 212.09 33.02 0)
    (effects (font (size 1.27 1.27)) (justify left))
    (uuid 698728a0-20cc-4537-92ca-f229bf061742)
  )
  (hierarchical_label "I2C_SCK_PANELS" (shape bidirectional) (at 104.648 76.2 0)
    (effects (font (size 1.27 1.27)) (justify left))
    (uuid 74a2826d-04b1-4d37-9638-fcc7ae36edae)
  )
  (hierarchical_label "ADM_ENABLE_2" (shape input) (at 85.09 34.29 0)
    (effects (font (size 1.27 1.27)) (justify left))
    (uuid 815be5c2-d1c6-4e2f-9849-f2366938612b)
  )
  (hierarchical_label "ADCS_UART_TX" (shape input) (at 248.92 86.36 0)
    (effects (font (size 1.27 1.27)) (justify left))
    (uuid 854287fb-475b-4f9c-a48e-76c256c65473)
  )
  (hierarchical_label "PANELS_5V" (shape input) (at 104.648 78.74 0)
    (effects (font (size 1.27 1.27)) (justify left))
    (uuid 8570a94b-da51-4bb8-8f0f-536f2f242e19)
  )
  (hierarchical_label "ADCS_DEBUGGER_VREF" (shape input) (at 223.52 73.66 180)
    (effects (font (size 1.27 1.27)) (justify right))
    (uuid 8b212ace-7b46-45c2-bc6e-d05c90dadd83)
  )
  (hierarchical_label "SU_5V" (shape input) (at 124.714 41.656 180)
    (effects (font (size 1.27 1.27)) (justify right))
    (uuid 8e7b14c6-d823-4abd-949f-bf0a6e09cf47)
  )
  (hierarchical_label "MCU_SWDIO" (shape bidirectional) (at 223.52 91.44 180)
    (effects (font (size 1.27 1.27)) (justify right))
    (uuid 94937b27-a161-4c0b-8ed6-4f10524ff081)
  )
  (hierarchical_label "MCU_SWCLK" (shape output) (at 223.52 88.9 180)
    (effects (font (size 1.27 1.27)) (justify right))
    (uuid 988fd129-bf25-42c7-9297-e387296d4d74)
  )
  (hierarchical_label "MCU_TRACED_1" (shape input) (at 212.09 38.1 0)
    (effects (font (size 1.27 1.27)) (justify left))
    (uuid a33a5938-59c3-495b-a6ae-7bfb28967a0d)
  )
  (hierarchical_label "MCU_SWDIO" (shape bidirectional) (at 43.18 132.08 0)
    (effects (font (size 1.27 1.27)) (justify left))
    (uuid a5e6a01e-3215-4286-a0dd-c6e51bc08399)
  )
  (hierarchical_label "SU_3V3" (shape input) (at 159.004 41.656 0)
    (effects (font (size 1.27 1.27)) (justify left))
    (uuid ab4fac68-e151-4e8f-a058-fddccd17d9e6)
  )
  (hierarchical_label "ADCS_SWCLK" (shape output) (at 43.18 137.16 0)
    (effects (font (size 1.27 1.27)) (justify left))
    (uuid ad8169ce-5295-4b25-8c67-dc1316861c21)
  )
  (hierarchical_label "ADM_ENABLE_1" (shape input) (at 85.09 36.83 0)
    (effects (font (size 1.27 1.27)) (justify left))
    (uuid b32ddf6e-0c16-4bbf-aed4-1fd2daf34231)
  )
  (hierarchical_label "PANELS_5V" (shape input) (at 104.648 123.19 0)
    (effects (font (size 1.27 1.27)) (justify left))
    (uuid b79e9777-85bf-4f06-8012-3bbd9f2a2fac)
  )
  (hierarchical_label "ADM_VDD" (shape input) (at 44.45 39.37 180)
    (effects (font (size 1.27 1.27)) (justify right))
    (uuid bc88f321-fc4d-41ea-a4ff-176653f1519a)
  )
  (hierarchical_label "ADCS_SWCLK" (shape output) (at 248.92 88.9 0)
    (effects (font (size 1.27 1.27)) (justify left))
    (uuid be88aa52-a624-49db-9070-c75b29b9f4de)
  )
  (hierarchical_label "MCU_TRACED_2" (shape input) (at 212.09 35.56 0)
    (effects (font (size 1.27 1.27)) (justify left))
    (uuid c00a35a0-6762-4e11-a187-468e58f38412)
  )
  (hierarchical_label "I2C_SCK_PANELS" (shape bidirectional) (at 104.648 120.65 0)
    (effects (font (size 1.27 1.27)) (justify left))
    (uuid c90cbd00-1c2e-4c80-9604-c92d7c876159)
  )
  (hierarchical_label "OBC_DEBUGGER_VREF" (shape input) (at 248.92 73.66 0)
    (effects (font (size 1.27 1.27)) (justify left))
    (uuid c9336e8f-5a4e-4ec4-a5dc-beff46e9ce99)
  )
  (hierarchical_label "OBC_DEBUGGER_VREF" (shape input) (at 85.09 26.67 0)
    (effects (font (size 1.27 1.27)) (justify left))
    (uuid d4c56a2b-ce10-4654-8d9d-6c3ef9377692)
  )
  (hierarchical_label "OBC_UART_RX" (shape input) (at 223.52 86.36 180)
    (effects (font (size 1.27 1.27)) (justify right))
    (uuid d82a69bb-887b-416d-80c7-f12d8b2e7559)
  )
  (hierarchical_label "ADM_DEPLOY_3" (shape input) (at 44.45 29.21 180)
    (effects (font (size 1.27 1.27)) (justify right))
    (uuid dda7bdbb-bece-4408-b855-65fefaa1154c)
  )
  (hierarchical_label "TVAC_3V3_OBC" (shape output) (at 248.92 68.58 0)
    (effects (font (size 1.27 1.27)) (justify left))
    (uuid e269f6bd-36c9-4494-a223-1dd627f8eb99)
  )
  (hierarchical_label "NRST_OBC" (shape output) (at 248.92 76.2 0)
    (effects (font (size 1.27 1.27)) (justify left))
    (uuid fa6a5f61-eca8-434b-beea-561ca5d7a047)
  )
  (hierarchical_label "NRST_ADCS" (shape output) (at 223.52 76.2 180)
    (effects (font (size 1.27 1.27)) (justify right))
    (uuid fb9ac7fc-127d-4939-b6bc-9525f8a97f39)
  )

  (symbol (lib_id "power:GND") (at 104.394 71.12 90) (mirror x) (unit 1)
    (in_bom yes) (on_board yes)
    (uuid 117220d8-1eda-4411-8de6-6fd335b3f132)
    (property "Reference" "#PWR0234" (id 0) (at 110.744 71.12 0)
      (effects (font (size 1.27 1.27)) hide)
    )
    (property "Value" "GND" (id 1) (at 108.7882 71.247 0))
    (property "Footprint" "" (id 2) (at 104.394 71.12 0)
      (effects (font (size 1.27 1.27)) hide)
    )
    (property "Datasheet" "" (id 3) (at 104.394 71.12 0)
      (effects (font (size 1.27 1.27)) hide)
    )
    (pin "1" (uuid 3ca85377-ef64-4aa4-850b-29ac7d9ca1ef))
  )

  (symbol (lib_id "power:GND") (at 43.18 139.7 0) (unit 1)
    (in_bom yes) (on_board yes) (fields_autoplaced)
    (uuid 1bd543bf-a433-4702-9ba7-070dde49eeed)
    (property "Reference" "#PWR0238" (id 0) (at 43.18 146.05 0)
      (effects (font (size 1.27 1.27)) hide)
    )
    (property "Value" "GND" (id 1) (at 43.18 144.78 0))
    (property "Footprint" "" (id 2) (at 43.18 139.7 0)
      (effects (font (size 1.27 1.27)) hide)
    )
    (property "Datasheet" "" (id 3) (at 43.18 139.7 0)
      (effects (font (size 1.27 1.27)) hide)
    )
    (pin "1" (uuid e0714923-b998-4788-8d04-7a8125c9c282))
  )

  (symbol (lib_id "Connectors:DF58-6P-1.2V_21_") (at 189.23 30.48 0) (unit 1)
    (in_bom yes) (on_board yes) (fields_autoplaced)
    (uuid 1cdc8524-db91-4cf3-b0a0-18b124b68fce)
    (property "Reference" "J16" (id 0) (at 200.66 22.86 0))
    (property "Value" "DF58-6P-1.2V_21_" (id 1) (at 200.66 25.4 0))
    (property "Footprint" "Connectors:DF586P12V21" (id 2) (at 208.28 27.94 0)
      (effects (font (size 1.27 1.27)) (justify left) hide)
    )
    (property "Datasheet" "https://datasheet.datasheetarchive.com/originals/distributors/DKDS-30/591777.pdf" (id 3) (at 208.28 30.48 0)
      (effects (font (size 1.27 1.27)) (justify left) hide)
    )
    (property "Description" "Hirose DF58 58, 1.2mm Pitch, 6 Way, 1 Row, Straight PCB Header, Surface Mount" (id 4) (at 208.28 33.02 0)
      (effects (font (size 1.27 1.27)) (justify left) hide)
    )
    (property "Height" "1.1" (id 5) (at 208.28 35.56 0)
      (effects (font (size 1.27 1.27)) (justify left) hide)
    )
    (property "Manufacturer_Name" "Hirose" (id 6) (at 208.28 38.1 0)
      (effects (font (size 1.27 1.27)) (justify left) hide)
    )
    (property "Manufacturer_Part_Number" "DF58-6P-1.2V(21)" (id 7) (at 208.28 40.64 0)
      (effects (font (size 1.27 1.27)) (justify left) hide)
    )
    (property "Mouser Part Number" "798-DF58-6P-1.2V21" (id 8) (at 208.28 43.18 0)
      (effects (font (size 1.27 1.27)) (justify left) hide)
    )
    (property "Mouser Price/Stock" "https://www.mouser.co.uk/ProductDetail/Hirose-Connector/DF58-6P-12V21?qs=vcbW%252B4%252BSTIrEQpN%252BCejfnQ%3D%3D" (id 9) (at 208.28 45.72 0)
      (effects (font (size 1.27 1.27)) (justify left) hide)
    )
    (property "Arrow Part Number" "" (id 10) (at 208.28 48.26 0)
      (effects (font (size 1.27 1.27)) (justify left) hide)
    )
    (property "Arrow Price/Stock" "" (id 11) (at 208.28 50.8 0)
      (effects (font (size 1.27 1.27)) (justify left) hide)
    )
    (pin "1" (uuid 6b9fbd15-ecbc-4142-8503-c3a0e69c513b))
    (pin "2" (uuid b6944859-24bc-4b12-9c2e-3a013f121182))
    (pin "3" (uuid e4e7a4f1-57ea-4cdf-87d1-dfc4b547ed47))
    (pin "4" (uuid 7857a9f6-014e-4c4a-b697-6888c4847511))
    (pin "5" (uuid a9b894b2-b825-4abf-8b37-e792156956dc))
    (pin "6" (uuid fd8f7afe-24d0-4f48-8194-c1985c7cf0c8))
    (pin "MP1" (uuid 9e1ddf51-2411-48a7-93f3-fc3b162090a1))
    (pin "MP2" (uuid b87ea51b-d547-4f62-a750-67428f5da787))
  )

  (symbol (lib_id "power:GND") (at 41.91 78.74 90) (unit 1)
    (in_bom yes) (on_board yes) (fields_autoplaced)
    (uuid 2b40942f-06d8-4d1b-966c-8cb730097cc5)
    (property "Reference" "#PWR0239" (id 0) (at 48.26 78.74 0)
      (effects (font (size 1.27 1.27)) hide)
    )
    (property "Value" "GND" (id 1) (at 45.72 78.7399 90)
      (effects (font (size 1.27 1.27)) (justify right))
    )
    (property "Footprint" "" (id 2) (at 41.91 78.74 0)
      (effects (font (size 1.27 1.27)) hide)
    )
    (property "Datasheet" "" (id 3) (at 41.91 78.74 0)
      (effects (font (size 1.27 1.27)) hide)
    )
    (pin "1" (uuid e654206c-8f3d-4df1-90d2-5f298e5584f3))
  )

  (symbol (lib_id "Connectors:DF58-4P-1.2V_21_") (at 140.97 71.12 0) (unit 1)
    (in_bom yes) (on_board yes) (fields_autoplaced)
    (uuid 2cfcfd89-1898-4d9f-885c-fe1d30f1479f)
    (property "Reference" "J14" (id 0) (at 151.13 63.246 0))
    (property "Value" "DF58-4P-1.2V_21_" (id 1) (at 151.13 65.786 0))
    (property "Footprint" "Connectors:DF584P12V21" (id 2) (at 157.48 68.58 0)
      (effects (font (size 1.27 1.27)) (justify left) hide)
    )
    (property "Datasheet" "https://datasheet.datasheetarchive.com/originals/distributors/DKDS-30/591775.pdf" (id 3) (at 157.48 71.12 0)
      (effects (font (size 1.27 1.27)) (justify left) hide)
    )
    (property "Description" "Hirose DF58 58, 1.2mm Pitch, 4 Way, 1 Row, Straight PCB Header, Surface Mount" (id 4) (at 157.48 73.66 0)
      (effects (font (size 1.27 1.27)) (justify left) hide)
    )
    (property "Height" "1.1" (id 5) (at 157.48 76.2 0)
      (effects (font (size 1.27 1.27)) (justify left) hide)
    )
    (property "Manufacturer_Name" "Hirose" (id 6) (at 157.48 78.74 0)
      (effects (font (size 1.27 1.27)) (justify left) hide)
    )
    (property "Manufacturer_Part_Number" "DF58-4P-1.2V(21)" (id 7) (at 157.48 81.28 0)
      (effects (font (size 1.27 1.27)) (justify left) hide)
    )
    (property "Mouser Part Number" "798-DF58-4P-1.2V21" (id 8) (at 157.48 83.82 0)
      (effects (font (size 1.27 1.27)) (justify left) hide)
    )
    (property "Mouser Price/Stock" "https://www.mouser.co.uk/ProductDetail/Hirose-Connector/DF58-4P-12V21?qs=7bTaA%2FLYtSZD8VmLOAYe3A%3D%3D" (id 9) (at 157.48 86.36 0)
      (effects (font (size 1.27 1.27)) (justify left) hide)
    )
    (property "Arrow Part Number" "" (id 10) (at 157.48 88.9 0)
      (effects (font (size 1.27 1.27)) (justify left) hide)
    )
    (property "Arrow Price/Stock" "" (id 11) (at 157.48 91.44 0)
      (effects (font (size 1.27 1.27)) (justify left) hide)
    )
    (pin "1" (uuid f2494a51-e2f9-4521-aae1-6601373316e6))
    (pin "2" (uuid bde70986-0380-49b1-bc3a-46b4d987ea62))
    (pin "3" (uuid fce0ba8d-1e56-44e3-99fc-4fdebaa48745))
    (pin "4" (uuid 55ebd323-8707-4904-86ca-e41f0ef1b687))
    (pin "5" (uuid 1638cfe5-721c-4226-a10d-171415642ced))
    (pin "6" (uuid 02503af9-2bef-44ae-bb96-37f19bb8e930))
  )

  (symbol (lib_id "power:GND") (at 41.91 101.6 90) (unit 1)
    (in_bom yes) (on_board yes) (fields_autoplaced)
    (uuid 32652824-969b-4094-8654-4cc68b56e1e9)
    (property "Reference" "#PWR0240" (id 0) (at 48.26 101.6 0)
      (effects (font (size 1.27 1.27)) hide)
    )
    (property "Value" "GND" (id 1) (at 45.72 101.5999 90)
      (effects (font (size 1.27 1.27)) (justify right))
    )
    (property "Footprint" "" (id 2) (at 41.91 101.6 0)
      (effects (font (size 1.27 1.27)) hide)
    )
    (property "Datasheet" "" (id 3) (at 41.91 101.6 0)
      (effects (font (size 1.27 1.27)) hide)
    )
    (pin "1" (uuid 75159713-fe0a-4710-abeb-8c79600f941c))
  )

  (symbol (lib_id "Connectors:DF58-4P-1.2V_21_") (at 80.01 71.12 0) (unit 1)
    (in_bom yes) (on_board yes) (fields_autoplaced)
    (uuid 3b055303-f3e3-4018-8f97-a48744158535)
    (property "Reference" "J9" (id 0) (at 90.17 63.246 0))
    (property "Value" "DF58-4P-1.2V_21_" (id 1) (at 90.17 65.786 0))
    (property "Footprint" "Connectors:DF584P12V21" (id 2) (at 96.52 68.58 0)
      (effects (font (size 1.27 1.27)) (justify left) hide)
    )
    (property "Datasheet" "https://datasheet.datasheetarchive.com/originals/distributors/DKDS-30/591775.pdf" (id 3) (at 96.52 71.12 0)
      (effects (font (size 1.27 1.27)) (justify left) hide)
    )
    (property "Description" "Hirose DF58 58, 1.2mm Pitch, 4 Way, 1 Row, Straight PCB Header, Surface Mount" (id 4) (at 96.52 73.66 0)
      (effects (font (size 1.27 1.27)) (justify left) hide)
    )
    (property "Height" "1.1" (id 5) (at 96.52 76.2 0)
      (effects (font (size 1.27 1.27)) (justify left) hide)
    )
    (property "Manufacturer_Name" "Hirose" (id 6) (at 96.52 78.74 0)
      (effects (font (size 1.27 1.27)) (justify left) hide)
    )
    (property "Manufacturer_Part_Number" "DF58-4P-1.2V(21)" (id 7) (at 96.52 81.28 0)
      (effects (font (size 1.27 1.27)) (justify left) hide)
    )
    (property "Mouser Part Number" "798-DF58-4P-1.2V21" (id 8) (at 96.52 83.82 0)
      (effects (font (size 1.27 1.27)) (justify left) hide)
    )
    (property "Mouser Price/Stock" "https://www.mouser.co.uk/ProductDetail/Hirose-Connector/DF58-4P-12V21?qs=7bTaA%2FLYtSZD8VmLOAYe3A%3D%3D" (id 9) (at 96.52 86.36 0)
      (effects (font (size 1.27 1.27)) (justify left) hide)
    )
    (property "Arrow Part Number" "" (id 10) (at 96.52 88.9 0)
      (effects (font (size 1.27 1.27)) (justify left) hide)
    )
    (property "Arrow Price/Stock" "" (id 11) (at 96.52 91.44 0)
      (effects (font (size 1.27 1.27)) (justify left) hide)
    )
    (pin "1" (uuid c871b116-d8cb-4714-aceb-659422cb51e1))
    (pin "2" (uuid c3cda6f4-3310-42ec-befb-1a75f9ec6159))
    (pin "3" (uuid c7bee8fc-ef12-4c35-8b75-9c4662bce921))
    (pin "4" (uuid b35544b9-836d-461d-b301-4508000b6e01))
    (pin "5" (uuid dd3d6ad3-dea4-4896-80ef-e345599902a1))
    (pin "6" (uuid 68c5dd1b-115c-48d6-ae98-5e7c75386e12))
  )

  (symbol (lib_id "power:GND") (at 104.394 115.57 90) (mirror x) (unit 1)
    (in_bom yes) (on_board yes)
    (uuid 3b5ce5c7-64ae-4040-9699-1e526fc6f317)
    (property "Reference" "#PWR0227" (id 0) (at 110.744 115.57 0)
      (effects (font (size 1.27 1.27)) hide)
    )
    (property "Value" "GND" (id 1) (at 108.7882 115.697 0))
    (property "Footprint" "" (id 2) (at 104.394 115.57 0)
      (effects (font (size 1.27 1.27)) hide)
    )
    (property "Datasheet" "" (id 3) (at 104.394 115.57 0)
      (effects (font (size 1.27 1.27)) hide)
    )
    (pin "1" (uuid 9c3c947d-1f22-4cbe-900e-bee81cd993d6))
  )

  (symbol (lib_id "Connectors:M80-6661222") (at 131.064 28.956 0) (unit 1)
    (in_bom yes) (on_board yes) (fields_autoplaced)
    (uuid 3b9ffd6d-411b-4257-a0b3-d5939c7ae6e8)
    (property "Reference" "J12" (id 0) (at 142.494 21.082 0))
    (property "Value" "M80-6661222" (id 1) (at 142.494 23.622 0))
    (property "Footprint" "Connectors:M80-66612YY" (id 2) (at 150.114 26.416 0)
      (effects (font (size 1.27 1.27)) (justify left) hide)
    )
    (property "Datasheet" "https://cdn.harwin.com/pdfs/M80-666.pdf" (id 3) (at 150.114 28.956 0)
      (effects (font (size 1.27 1.27)) (justify left) hide)
    )
    (property "Description" "12 Pos. Male DIL Horizontal SMT Conn. Latches, 2.00mm Pitch High-Reliability Connector - Datamate L-Tek" (id 4) (at 150.114 31.496 0)
      (effects (font (size 1.27 1.27)) (justify left) hide)
    )
    (property "Height" "" (id 5) (at 150.114 34.036 0)
      (effects (font (size 1.27 1.27)) (justify left) hide)
    )
    (property "Manufacturer_Name" "Harwin" (id 6) (at 150.114 36.576 0)
      (effects (font (size 1.27 1.27)) (justify left) hide)
    )
    (property "Manufacturer_Part_Number" "M80-6661222" (id 7) (at 150.114 39.116 0)
      (effects (font (size 1.27 1.27)) (justify left) hide)
    )
    (property "Mouser Part Number" "" (id 8) (at 150.114 41.656 0)
      (effects (font (size 1.27 1.27)) (justify left) hide)
    )
    (property "Mouser Price/Stock" "" (id 9) (at 150.114 44.196 0)
      (effects (font (size 1.27 1.27)) (justify left) hide)
    )
    (property "Arrow Part Number" "" (id 10) (at 150.114 46.736 0)
      (effects (font (size 1.27 1.27)) (justify left) hide)
    )
    (property "Arrow Price/Stock" "" (id 11) (at 150.114 49.276 0)
      (effects (font (size 1.27 1.27)) (justify left) hide)
    )
    (pin "1" (uuid 3eba31c0-7a90-4071-a0d0-c58037c91115))
    (pin "10" (uuid 5d1e5c01-8437-4103-b2cc-f9194b0ac28e))
    (pin "11" (uuid 55b647f0-8caf-468b-b4f2-588c7e62cdb1))
    (pin "12" (uuid d1795a95-1b17-4e09-8aee-4489a2f335ff))
    (pin "2" (uuid b088c758-1677-4768-8949-f9690acc5a74))
    (pin "3" (uuid f76fd2c5-3664-4e51-bc18-a555152c8e64))
    (pin "4" (uuid 5394a9a9-57ea-48f1-b2f1-c16abcc94628))
    (pin "5" (uuid df17904b-05c7-48c7-bf40-36bf1e775aab))
    (pin "6" (uuid b36b5de7-b2c6-40ec-956d-cc9d3885ba14))
    (pin "7" (uuid 891738a6-a7f0-47c6-99b6-d335cb364135))
    (pin "8" (uuid 8240b0a9-2d59-4288-a72a-96ca4c8384c4))
    (pin "9" (uuid 6678390b-5f0d-44a2-a829-1fa97dd615fd))
  )

  (symbol (lib_id "Connectors:DF58-4P-1.2V_21_") (at 22.86 132.08 0) (unit 1)
    (in_bom yes) (on_board yes) (fields_autoplaced)
    (uuid 449d9873-a095-447f-a70e-2a71fe270ff9)
    (property "Reference" "J6" (id 0) (at 33.02 124.46 0))
    (property "Value" "DF58-4P-1.2V_21_" (id 1) (at 33.02 127 0))
    (property "Footprint" "Connectors:DF584P12V21" (id 2) (at 39.37 129.54 0)
      (effects (font (size 1.27 1.27)) (justify left) hide)
    )
    (property "Datasheet" "https://datasheet.datasheetarchive.com/originals/distributors/DKDS-30/591775.pdf" (id 3) (at 39.37 132.08 0)
      (effects (font (size 1.27 1.27)) (justify left) hide)
    )
    (property "Description" "Hirose DF58 58, 1.2mm Pitch, 4 Way, 1 Row, Straight PCB Header, Surface Mount" (id 4) (at 39.37 134.62 0)
      (effects (font (size 1.27 1.27)) (justify left) hide)
    )
    (property "Height" "1.1" (id 5) (at 39.37 137.16 0)
      (effects (font (size 1.27 1.27)) (justify left) hide)
    )
    (property "Manufacturer_Name" "Hirose" (id 6) (at 39.37 139.7 0)
      (effects (font (size 1.27 1.27)) (justify left) hide)
    )
    (property "Manufacturer_Part_Number" "DF58-4P-1.2V(21)" (id 7) (at 39.37 142.24 0)
      (effects (font (size 1.27 1.27)) (justify left) hide)
    )
    (property "Mouser Part Number" "798-DF58-4P-1.2V21" (id 8) (at 39.37 144.78 0)
      (effects (font (size 1.27 1.27)) (justify left) hide)
    )
    (property "Mouser Price/Stock" "https://www.mouser.co.uk/ProductDetail/Hirose-Connector/DF58-4P-12V21?qs=7bTaA%2FLYtSZD8VmLOAYe3A%3D%3D" (id 9) (at 39.37 147.32 0)
      (effects (font (size 1.27 1.27)) (justify left) hide)
    )
    (property "Arrow Part Number" "" (id 10) (at 39.37 149.86 0)
      (effects (font (size 1.27 1.27)) (justify left) hide)
    )
    (property "Arrow Price/Stock" "" (id 11) (at 39.37 152.4 0)
      (effects (font (size 1.27 1.27)) (justify left) hide)
    )
    (pin "1" (uuid 21452de1-9165-487f-af2a-5a3108d1b555))
    (pin "2" (uuid 6d7204df-5757-4460-a954-8d21712fb880))
    (pin "3" (uuid 75bbda80-526c-4e13-b0f8-582eb8560011))
    (pin "4" (uuid 711da52c-0f1e-4d39-8101-f23bbb88ee34))
    (pin "5" (uuid a1a80453-b305-4d6b-9661-5622bbe62526))
    (pin "6" (uuid ac929a9a-8e5f-4355-94f1-88709046afef))
  )

  (symbol (lib_id "Connectors:DF57H-3P-1.2V_21_") (at 72.39 146.05 0) (unit 1)
    (in_bom yes) (on_board yes) (fields_autoplaced)
    (uuid 485bf342-bd1b-4a52-bdb0-4f169e93ca2d)
    (property "Reference" "J13" (id 0) (at 83.82 137.795 0))
    (property "Value" "DF57H-3P-1.2V_21_" (id 1) (at 83.82 140.335 0))
    (property "Footprint" "Connectors:DF57H3P12V21" (id 2) (at 91.44 143.51 0)
      (effects (font (size 1.27 1.27)) (justify left) hide)
    )
    (property "Datasheet" "https://datasheet.datasheetarchive.com/originals/distributors/Datasheets-DGA21/2082773.pdf" (id 3) (at 91.44 146.05 0)
      (effects (font (size 1.27 1.27)) (justify left) hide)
    )
    (property "Description" "HIROSE(HRS) - DF57H-3P-1.2V(21) - CONNECTOR, HEADER, 3POS, 1ROW, 1.2MM" (id 4) (at 91.44 148.59 0)
      (effects (font (size 1.27 1.27)) (justify left) hide)
    )
    (property "Height" "1.55" (id 5) (at 91.44 151.13 0)
      (effects (font (size 1.27 1.27)) (justify left) hide)
    )
    (property "Manufacturer_Name" "Hirose" (id 6) (at 91.44 153.67 0)
      (effects (font (size 1.27 1.27)) (justify left) hide)
    )
    (property "Manufacturer_Part_Number" "DF57H-3P-1.2V(21)" (id 7) (at 91.44 156.21 0)
      (effects (font (size 1.27 1.27)) (justify left) hide)
    )
    (property "Mouser Part Number" "798-DF57H-3P-1.2V21" (id 8) (at 91.44 158.75 0)
      (effects (font (size 1.27 1.27)) (justify left) hide)
    )
    (property "Mouser Price/Stock" "https://www.mouser.co.uk/ProductDetail/Hirose-Connector/DF57H-3P-12V21?qs=Gufeu08L%2Fl2PQI%252ByibwXvg%3D%3D" (id 9) (at 91.44 161.29 0)
      (effects (font (size 1.27 1.27)) (justify left) hide)
    )
    (property "Arrow Part Number" "" (id 10) (at 91.44 163.83 0)
      (effects (font (size 1.27 1.27)) (justify left) hide)
    )
    (property "Arrow Price/Stock" "" (id 11) (at 91.44 166.37 0)
      (effects (font (size 1.27 1.27)) (justify left) hide)
    )
    (pin "1" (uuid 3bc4f1b0-aef9-4bbb-bbd6-75c76050f237))
    (pin "2" (uuid a9438db0-0854-4560-9023-bea1046e5017))
    (pin "3" (uuid ac753a07-f59f-491c-a8a5-1347b18d3715))
    (pin "MP1" (uuid f0ebbd3e-b89b-4ee6-88ba-2b63bc1f4fbb))
    (pin "MP2" (uuid 874e92d9-4d57-43f6-875b-9f557f3553b0))
  )

  (symbol (lib_id "power:GND") (at 95.25 146.05 90) (unit 1)
    (in_bom yes) (on_board yes) (fields_autoplaced)
    (uuid 5bbeacf1-3833-4aee-a3ba-7db42516dd9c)
    (property "Reference" "#PWR0261" (id 0) (at 101.6 146.05 0)
      (effects (font (size 1.27 1.27)) hide)
    )
    (property "Value" "GND" (id 1) (at 99.06 146.0499 90)
      (effects (font (size 1.27 1.27)) (justify right))
    )
    (property "Footprint" "" (id 2) (at 95.25 146.05 0)
      (effects (font (size 1.27 1.27)) hide)
    )
    (property "Datasheet" "" (id 3) (at 95.25 146.05 0)
      (effects (font (size 1.27 1.27)) hide)
    )
    (pin "1" (uuid 9eef22fd-06d9-4ac4-8660-556734b4758a))
  )

  (symbol (lib_id "power:GND") (at 223.52 71.12 270) (mirror x) (unit 1)
    (in_bom yes) (on_board yes)
    (uuid 605bd203-51b0-49a6-b48a-17337dd657ad)
    (property "Reference" "#PWR01" (id 0) (at 217.17 71.12 0)
      (effects (font (size 1.27 1.27)) hide)
    )
    (property "Value" "GND" (id 1) (at 215.9 71.12 90)
      (effects (font (size 1.27 1.27)) (justify left))
    )
    (property "Footprint" "" (id 2) (at 223.52 71.12 0)
      (effects (font (size 1.27 1.27)) hide)
    )
    (property "Datasheet" "" (id 3) (at 223.52 71.12 0)
      (effects (font (size 1.27 1.27)) hide)
    )
    (pin "1" (uuid d7323060-fff8-4ec3-979c-3c99e6b8a19f))
  )

  (symbol (lib_id "power:GND") (at 158.75 39.116 90) (mirror x) (unit 1)
    (in_bom yes) (on_board yes)
    (uuid 63903bcf-bcfc-4b80-a924-ff3cffde35f6)
    (property "Reference" "#PWR0231" (id 0) (at 165.1 39.116 0)
      (effects (font (size 1.27 1.27)) hide)
    )
    (property "Value" "GND" (id 1) (at 163.1442 39.243 0))
    (property "Footprint" "" (id 2) (at 158.75 39.116 0)
      (effects (font (size 1.27 1.27)) hide)
    )
    (property "Datasheet" "" (id 3) (at 158.75 39.116 0)
      (effects (font (size 1.27 1.27)) hide)
    )
    (pin "1" (uuid 27907cb1-f37f-47ef-9fbb-59da3353597e))
  )

  (symbol (lib_id "power:GND") (at 44.45 36.83 270) (unit 1)
    (in_bom yes) (on_board yes) (fields_autoplaced)
    (uuid 722ba31a-903d-444b-acc6-66acd618ea83)
    (property "Reference" "#PWR0233" (id 0) (at 38.1 36.83 0)
      (effects (font (size 1.27 1.27)) hide)
    )
    (property "Value" "GND" (id 1) (at 40.894 36.8299 90)
      (effects (font (size 1.27 1.27)) (justify right))
    )
    (property "Footprint" "" (id 2) (at 44.45 36.83 0)
      (effects (font (size 1.27 1.27)) hide)
    )
    (property "Datasheet" "" (id 3) (at 44.45 36.83 0)
      (effects (font (size 1.27 1.27)) hide)
    )
    (pin "1" (uuid 8b348dc6-c0c0-4341-b8a8-2284acb57048))
  )

  (symbol (lib_id "power:GND") (at 165.354 71.12 90) (mirror x) (unit 1)
    (in_bom yes) (on_board yes)
    (uuid 8c157b20-4774-40e6-98cb-886973832961)
    (property "Reference" "#PWR0235" (id 0) (at 171.704 71.12 0)
      (effects (font (size 1.27 1.27)) hide)
    )
    (property "Value" "GND" (id 1) (at 169.7482 71.247 0))
    (property "Footprint" "" (id 2) (at 165.354 71.12 0)
      (effects (font (size 1.27 1.27)) hide)
    )
    (property "Datasheet" "" (id 3) (at 165.354 71.12 0)
      (effects (font (size 1.27 1.27)) hide)
    )
    (pin "1" (uuid 4813abad-89cf-4fe8-b2a5-f143dfcc18e3))
  )

  (symbol (lib_id "power:GND") (at 157.734 36.576 90) (mirror x) (unit 1)
    (in_bom yes) (on_board yes)
    (uuid 94a15a5c-f40e-4eff-ba03-34864f6c1260)
    (property "Reference" "#PWR0232" (id 0) (at 164.084 36.576 0)
      (effects (font (size 1.27 1.27)) hide)
    )
    (property "Value" "GND" (id 1) (at 162.1282 36.703 90))
    (property "Footprint" "" (id 2) (at 157.734 36.576 0)
      (effects (font (size 1.27 1.27)) hide)
    )
    (property "Datasheet" "" (id 3) (at 157.734 36.576 0)
      (effects (font (size 1.27 1.27)) hide)
    )
    (pin "1" (uuid 885239ae-2b85-4ee1-a2af-80a5eaa400ac))
  )

  (symbol (lib_id "Connectors:DF58-4P-1.2V_21_") (at 21.59 162.56 0) (unit 1)
    (in_bom yes) (on_board yes) (fields_autoplaced)
    (uuid 963562b8-c4f2-4f19-916b-dd9ef4c682da)
    (property "Reference" "J4" (id 0) (at 31.75 154.94 0))
    (property "Value" "DF58-4P-1.2V_21_" (id 1) (at 31.75 157.48 0))
    (property "Footprint" "Connectors:DF584P12V21" (id 2) (at 38.1 160.02 0)
      (effects (font (size 1.27 1.27)) (justify left) hide)
    )
    (property "Datasheet" "https://datasheet.datasheetarchive.com/originals/distributors/DKDS-30/591775.pdf" (id 3) (at 38.1 162.56 0)
      (effects (font (size 1.27 1.27)) (justify left) hide)
    )
    (property "Description" "Hirose DF58 58, 1.2mm Pitch, 4 Way, 1 Row, Straight PCB Header, Surface Mount" (id 4) (at 38.1 165.1 0)
      (effects (font (size 1.27 1.27)) (justify left) hide)
    )
    (property "Height" "1.1" (id 5) (at 38.1 167.64 0)
      (effects (font (size 1.27 1.27)) (justify left) hide)
    )
    (property "Manufacturer_Name" "Hirose" (id 6) (at 38.1 170.18 0)
      (effects (font (size 1.27 1.27)) (justify left) hide)
    )
    (property "Manufacturer_Part_Number" "DF58-4P-1.2V(21)" (id 7) (at 38.1 172.72 0)
      (effects (font (size 1.27 1.27)) (justify left) hide)
    )
    (property "Mouser Part Number" "798-DF58-4P-1.2V21" (id 8) (at 38.1 175.26 0)
      (effects (font (size 1.27 1.27)) (justify left) hide)
    )
    (property "Mouser Price/Stock" "https://www.mouser.co.uk/ProductDetail/Hirose-Connector/DF58-4P-12V21?qs=7bTaA%2FLYtSZD8VmLOAYe3A%3D%3D" (id 9) (at 38.1 177.8 0)
      (effects (font (size 1.27 1.27)) (justify left) hide)
    )
    (property "Arrow Part Number" "" (id 10) (at 38.1 180.34 0)
      (effects (font (size 1.27 1.27)) (justify left) hide)
    )
    (property "Arrow Price/Stock" "" (id 11) (at 38.1 182.88 0)
      (effects (font (size 1.27 1.27)) (justify left) hide)
    )
    (pin "1" (uuid dc369600-bf12-4285-bb21-57dab8c79c44))
    (pin "2" (uuid 0315786f-f357-49db-a390-8d8eb57c04af))
    (pin "3" (uuid d4d5e971-027b-4246-b05f-a0a5aaaf53df))
    (pin "4" (uuid 7b532ef2-f1c9-4f70-853e-f7bfb5a3a1c1))
    (pin "5" (uuid 2533797b-742e-40c5-8e67-7c660c8fe2b2))
    (pin "6" (uuid a3286a6e-ae78-40a1-aeb3-7d087b993794))
  )

  (symbol (lib_id "Connectors:TFML-110-02-L-D-LC-TR") (at 236.22 81.28 0) (unit 1)
    (in_bom yes) (on_board yes) (fields_autoplaced)
    (uuid 99688e40-9602-413c-9cec-a523b1cab326)
    (property "Reference" "J17" (id 0) (at 236.22 60.96 0))
    (property "Value" "TFML-110-02-L-D-LC-TR" (id 1) (at 236.22 63.5 0))
    (property "Footprint" "Connectors:SAMTEC_TFML-110-02-L-D-LC-TR" (id 2) (at 236.22 81.28 0)
      (effects (font (size 1.27 1.27)) (justify left bottom) hide)
    )
    (property "Datasheet" "" (id 3) (at 236.22 81.28 0)
      (effects (font (size 1.27 1.27)) (justify left bottom) hide)
    )
    (property "MANUFACTURER" "Samtec" (id 4) (at 236.22 81.28 0)
      (effects (font (size 1.27 1.27)) (justify left bottom) hide)
    )
    (property "PARTREV" "R" (id 5) (at 236.22 81.28 0)
      (effects (font (size 1.27 1.27)) (justify left bottom) hide)
    )
    (property "STANDARD" "Manufacturer Recommendations" (id 6) (at 236.22 81.28 0)
      (effects (font (size 1.27 1.27)) (justify left bottom) hide)
    )
    (pin "01" (uuid 79c8849f-13dd-45d5-909c-f1f71cd4bd28))
    (pin "02" (uuid 334ddccf-cc6d-4af3-a7c2-59e8df108ac7))
    (pin "03" (uuid 6d60a003-2857-4925-b81a-d406004ce61b))
    (pin "04" (uuid 102471e7-db99-45f6-bfa1-5dee4030c6f8))
    (pin "05" (uuid 928f1ee4-65e9-41be-a5c2-fb02eed864e9))
    (pin "06" (uuid b6ca4262-1a67-4c4f-8b53-4078e43f6ccd))
    (pin "07" (uuid 131d16c0-e50e-4139-82f3-d638d528fabe))
    (pin "08" (uuid 6c234a6e-8c1e-4f61-9d0e-3d08c312235a))
    (pin "09" (uuid 41a530d5-c3ef-4059-a253-a7bee3e125b1))
    (pin "10" (uuid b80fa158-e1f7-4a54-96a0-d626ada60d0f))
    (pin "11" (uuid 5ccce14f-66de-4406-86b0-784a0477a5f1))
    (pin "12" (uuid ca401d52-eb0e-47ed-ba50-a0f94d46fda2))
    (pin "13" (uuid c208118c-3f3b-485a-88f1-e8fe5852319f))
    (pin "14" (uuid d1370031-c2e2-4b4b-95d7-4f83627d1045))
    (pin "15" (uuid e556471f-eadc-4f59-85f2-d6a11123fb0f))
    (pin "16" (uuid b4897bfc-f408-45cf-bef2-6d81de395c72))
    (pin "17" (uuid 7efad710-7886-4a55-8642-2c8fa99ee3c1))
    (pin "18" (uuid c10881dd-1f61-49d1-972b-e4d4c4edca8c))
    (pin "19" (uuid 8f5619b9-57ed-46bd-b0f1-223d35e3dd95))
    (pin "20" (uuid 8ef97a59-f28a-466b-a940-3cbd75b1d09f))
  )

  (symbol (lib_id "power:GND") (at 212.09 43.18 90) (mirror x) (unit 1)
    (in_bom yes) (on_board yes)
    (uuid aad00eb6-7475-4457-83ab-2ccc9cef6d6c)
    (property "Reference" "#PWR0262" (id 0) (at 218.44 43.18 0)
      (effects (font (size 1.27 1.27)) hide)
    )
    (property "Value" "GND" (id 1) (at 216.4842 43.307 0))
    (property "Footprint" "" (id 2) (at 212.09 43.18 0)
      (effects (font (size 1.27 1.27)) hide)
    )
    (property "Datasheet" "" (id 3) (at 212.09 43.18 0)
      (effects (font (size 1.27 1.27)) hide)
    )
    (pin "1" (uuid 1b330ede-7141-4adb-950f-52a70c76ffc2))
  )

  (symbol (lib_id "Connectors:DF58-4P-1.2V_21_") (at 21.59 71.12 0) (unit 1)
    (in_bom yes) (on_board yes) (fields_autoplaced)
    (uuid aba19c16-6c2a-4f23-adda-8df37641e15e)
    (property "Reference" "J2" (id 0) (at 31.75 63.5 0))
    (property "Value" "DF58-4P-1.2V_21_" (id 1) (at 31.75 66.04 0))
    (property "Footprint" "Connectors:DF584P12V21" (id 2) (at 38.1 68.58 0)
      (effects (font (size 1.27 1.27)) (justify left) hide)
    )
    (property "Datasheet" "https://datasheet.datasheetarchive.com/originals/distributors/DKDS-30/591775.pdf" (id 3) (at 38.1 71.12 0)
      (effects (font (size 1.27 1.27)) (justify left) hide)
    )
    (property "Description" "Hirose DF58 58, 1.2mm Pitch, 4 Way, 1 Row, Straight PCB Header, Surface Mount" (id 4) (at 38.1 73.66 0)
      (effects (font (size 1.27 1.27)) (justify left) hide)
    )
    (property "Height" "1.1" (id 5) (at 38.1 76.2 0)
      (effects (font (size 1.27 1.27)) (justify left) hide)
    )
    (property "Manufacturer_Name" "Hirose" (id 6) (at 38.1 78.74 0)
      (effects (font (size 1.27 1.27)) (justify left) hide)
    )
    (property "Manufacturer_Part_Number" "DF58-4P-1.2V(21)" (id 7) (at 38.1 81.28 0)
      (effects (font (size 1.27 1.27)) (justify left) hide)
    )
    (property "Mouser Part Number" "798-DF58-4P-1.2V21" (id 8) (at 38.1 83.82 0)
      (effects (font (size 1.27 1.27)) (justify left) hide)
    )
    (property "Mouser Price/Stock" "https://www.mouser.co.uk/ProductDetail/Hirose-Connector/DF58-4P-12V21?qs=7bTaA%2FLYtSZD8VmLOAYe3A%3D%3D" (id 9) (at 38.1 86.36 0)
      (effects (font (size 1.27 1.27)) (justify left) hide)
    )
    (property "Arrow Part Number" "" (id 10) (at 38.1 88.9 0)
      (effects (font (size 1.27 1.27)) (justify left) hide)
    )
    (property "Arrow Price/Stock" "" (id 11) (at 38.1 91.44 0)
      (effects (font (size 1.27 1.27)) (justify left) hide)
    )
    (pin "1" (uuid 780c613e-538a-40ff-a8d8-4e9290d23db3))
    (pin "2" (uuid 4f2cee59-d555-43f9-afad-b9b4b34ff1bd))
    (pin "3" (uuid 3c4e4af0-5bef-423a-bd5a-6612701b99f5))
    (pin "4" (uuid c2d9ccf6-c1e5-4108-bdd4-28a95ba06709))
    (pin "5" (uuid 615ad9da-8ebe-4f29-b1bb-eb29534e1fb1))
    (pin "6" (uuid 04753981-3391-411a-bb37-aa010902f2a3))
  )

  (symbol (lib_id "Connectors:DF58-4P-1.2V_21_") (at 21.59 101.6 0) (unit 1)
    (in_bom yes) (on_board yes) (fields_autoplaced)
    (uuid b09502dd-eed1-4402-966f-2175f5125ed0)
    (property "Reference" "J3" (id 0) (at 31.75 93.98 0))
    (property "Value" "DF58-4P-1.2V_21_" (id 1) (at 31.75 96.52 0))
    (property "Footprint" "Connectors:DF584P12V21" (id 2) (at 38.1 99.06 0)
      (effects (font (size 1.27 1.27)) (justify left) hide)
    )
    (property "Datasheet" "https://datasheet.datasheetarchive.com/originals/distributors/DKDS-30/591775.pdf" (id 3) (at 38.1 101.6 0)
      (effects (font (size 1.27 1.27)) (justify left) hide)
    )
    (property "Description" "Hirose DF58 58, 1.2mm Pitch, 4 Way, 1 Row, Straight PCB Header, Surface Mount" (id 4) (at 38.1 104.14 0)
      (effects (font (size 1.27 1.27)) (justify left) hide)
    )
    (property "Height" "1.1" (id 5) (at 38.1 106.68 0)
      (effects (font (size 1.27 1.27)) (justify left) hide)
    )
    (property "Manufacturer_Name" "Hirose" (id 6) (at 38.1 109.22 0)
      (effects (font (size 1.27 1.27)) (justify left) hide)
    )
    (property "Manufacturer_Part_Number" "DF58-4P-1.2V(21)" (id 7) (at 38.1 111.76 0)
      (effects (font (size 1.27 1.27)) (justify left) hide)
    )
    (property "Mouser Part Number" "798-DF58-4P-1.2V21" (id 8) (at 38.1 114.3 0)
      (effects (font (size 1.27 1.27)) (justify left) hide)
    )
    (property "Mouser Price/Stock" "https://www.mouser.co.uk/ProductDetail/Hirose-Connector/DF58-4P-12V21?qs=7bTaA%2FLYtSZD8VmLOAYe3A%3D%3D" (id 9) (at 38.1 116.84 0)
      (effects (font (size 1.27 1.27)) (justify left) hide)
    )
    (property "Arrow Part Number" "" (id 10) (at 38.1 119.38 0)
      (effects (font (size 1.27 1.27)) (justify left) hide)
    )
    (property "Arrow Price/Stock" "" (id 11) (at 38.1 121.92 0)
      (effects (font (size 1.27 1.27)) (justify left) hide)
    )
    (pin "1" (uuid 1d6bc926-0438-4b17-a675-0536bdc82233))
    (pin "2" (uuid 63519388-1747-4513-a15c-5305d7d7292f))
    (pin "3" (uuid ba2e7497-999e-453f-9beb-876db469409d))
    (pin "4" (uuid 5a960269-fab6-466e-bc5d-76690b0b842c))
    (pin "5" (uuid e84254d4-ea30-4f41-a0df-ffa6aa36f32d))
    (pin "6" (uuid 31727555-48ae-4653-9abb-ecc18e97e6d0))
  )

  (symbol (lib_id "power:GND") (at 41.91 170.18 0) (unit 1)
    (in_bom yes) (on_board yes) (fields_autoplaced)
    (uuid b53135bd-a596-426d-8146-147ef25e3f9c)
    (property "Reference" "#PWR0237" (id 0) (at 41.91 176.53 0)
      (effects (font (size 1.27 1.27)) hide)
    )
    (property "Value" "GND" (id 1) (at 41.91 175.26 0))
    (property "Footprint" "" (id 2) (at 41.91 170.18 0)
      (effects (font (size 1.27 1.27)) hide)
    )
    (property "Datasheet" "" (id 3) (at 41.91 170.18 0)
      (effects (font (size 1.27 1.27)) hide)
    )
    (pin "1" (uuid d9cb05cc-9af1-4207-8080-8d012f009440))
  )

  (symbol (lib_id "Connectors:DF58-4P-1.2V_21_") (at 80.01 115.57 0) (unit 1)
    (in_bom yes) (on_board yes)
    (uuid cb3af155-ea6f-4875-b572-ca9e16239d6b)
    (property "Reference" "J11" (id 0) (at 90.17 108.204 0))
    (property "Value" "DF58-4P-1.2V_21_" (id 1) (at 90.17 110.236 0))
    (property "Footprint" "Connectors:DF584P12V21" (id 2) (at 96.52 113.03 0)
      (effects (font (size 1.27 1.27)) (justify left) hide)
    )
    (property "Datasheet" "https://datasheet.datasheetarchive.com/originals/distributors/DKDS-30/591775.pdf" (id 3) (at 96.52 115.57 0)
      (effects (font (size 1.27 1.27)) (justify left) hide)
    )
    (property "Description" "Hirose DF58 58, 1.2mm Pitch, 4 Way, 1 Row, Straight PCB Header, Surface Mount" (id 4) (at 96.52 118.11 0)
      (effects (font (size 1.27 1.27)) (justify left) hide)
    )
    (property "Height" "1.1" (id 5) (at 96.52 120.65 0)
      (effects (font (size 1.27 1.27)) (justify left) hide)
    )
    (property "Manufacturer_Name" "Hirose" (id 6) (at 96.52 123.19 0)
      (effects (font (size 1.27 1.27)) (justify left) hide)
    )
    (property "Manufacturer_Part_Number" "DF58-4P-1.2V(21)" (id 7) (at 96.52 125.73 0)
      (effects (font (size 1.27 1.27)) (justify left) hide)
    )
    (property "Mouser Part Number" "798-DF58-4P-1.2V21" (id 8) (at 96.52 128.27 0)
      (effects (font (size 1.27 1.27)) (justify left) hide)
    )
    (property "Mouser Price/Stock" "https://www.mouser.co.uk/ProductDetail/Hirose-Connector/DF58-4P-12V21?qs=7bTaA%2FLYtSZD8VmLOAYe3A%3D%3D" (id 9) (at 96.52 130.81 0)
      (effects (font (size 1.27 1.27)) (justify left) hide)
    )
    (property "Arrow Part Number" "" (id 10) (at 96.52 133.35 0)
      (effects (font (size 1.27 1.27)) (justify left) hide)
    )
    (property "Arrow Price/Stock" "" (id 11) (at 96.52 135.89 0)
      (effects (font (size 1.27 1.27)) (justify left) hide)
    )
    (pin "1" (uuid 5fd80892-5ce0-4dab-871f-108c46a74f08))
    (pin "2" (uuid 9e209eae-667a-44a3-8b20-26a6f500f0d3))
    (pin "3" (uuid 088f7585-2614-4fb5-b1bb-479fead8450f))
    (pin "4" (uuid 1833ce43-91e6-453a-9512-6762c6d33158))
    (pin "5" (uuid 5368e001-50e6-4e97-9556-3c032cb6c35a))
    (pin "6" (uuid bf557e70-c0e7-4b02-86b3-9de03a985d82))
  )

  (symbol (lib_id "Device:R") (at 85.09 40.64 180) (unit 1)
    (in_bom yes) (on_board yes) (fields_autoplaced)
    (uuid dbc4a37b-2144-43e4-9300-22b9a4a66a66)
    (property "Reference" "R127" (id 0) (at 87.884 39.3699 0)
      (effects (font (size 1.27 1.27)) (justify right))
    )
    (property "Value" "100k" (id 1) (at 87.884 41.9099 0)
      (effects (font (size 1.27 1.27)) (justify right))
    )
    (property "Footprint" "Resistor_SMD:R_0402_1005Metric" (id 2) (at 86.868 40.64 90)
      (effects (font (size 1.27 1.27)) hide)
    )
    (property "Datasheet" "~" (id 3) (at 85.09 40.64 0)
      (effects (font (size 1.27 1.27)) hide)
    )
    (pin "1" (uuid 62621535-c3a7-4208-88ad-195b431191d0))
    (pin "2" (uuid 15482d08-0d29-49d4-96d4-29fd8c57918c))
  )

  (symbol (lib_id "power:GND") (at 125.984 39.116 270) (mirror x) (unit 1)
    (in_bom yes) (on_board yes)
    (uuid dec4767d-0437-44d8-91ee-befa6cbc2086)
    (property "Reference" "#PWR0229" (id 0) (at 119.634 39.116 0)
      (effects (font (size 1.27 1.27)) hide)
    )
    (property "Value" "GND" (id 1) (at 121.5898 38.989 90))
    (property "Footprint" "" (id 2) (at 125.984 39.116 0)
      (effects (font (size 1.27 1.27)) hide)
    )
    (property "Datasheet" "" (id 3) (at 125.984 39.116 0)
      (effects (font (size 1.27 1.27)) hide)
    )
    (pin "1" (uuid 7a9f0155-9505-45ff-8e4c-3863c101e945))
  )

  (symbol (lib_id "power:GND") (at 248.92 71.12 90) (unit 1)
    (in_bom yes) (on_board yes) (fields_autoplaced)
    (uuid e1b7d8e8-7c23-4231-98af-04427c77cf8e)
    (property "Reference" "#PWR0241" (id 0) (at 255.27 71.12 0)
      (effects (font (size 1.27 1.27)) hide)
    )
    (property "Value" "GND" (id 1) (at 252.73 71.1199 90)
      (effects (font (size 1.27 1.27)) (justify right))
    )
    (property "Footprint" "" (id 2) (at 248.92 71.12 0)
      (effects (font (size 1.27 1.27)) hide)
    )
    (property "Datasheet" "" (id 3) (at 248.92 71.12 0)
      (effects (font (size 1.27 1.27)) hide)
    )
    (pin "1" (uuid 6d03c2fc-2c17-4e40-b0f6-86b96dcf7b9b))
  )

  (symbol (lib_id "power:GND") (at 104.394 93.98 90) (mirror x) (unit 1)
    (in_bom yes) (on_board yes)
    (uuid e3b124be-0b32-42ba-bd12-ee4415aeb0ef)
    (property "Reference" "#PWR0228" (id 0) (at 110.744 93.98 0)
      (effects (font (size 1.27 1.27)) hide)
    )
    (property "Value" "GND" (id 1) (at 108.7882 94.107 0))
    (property "Footprint" "" (id 2) (at 104.394 93.98 0)
      (effects (font (size 1.27 1.27)) hide)
    )
    (property "Datasheet" "" (id 3) (at 104.394 93.98 0)
      (effects (font (size 1.27 1.27)) hide)
    )
    (pin "1" (uuid d54d2af0-2bd1-4cac-8fa0-72df8aa396ee))
  )

  (symbol (lib_id "Device:R") (at 85.09 30.48 180) (unit 1)
    (in_bom yes) (on_board yes) (fields_autoplaced)
    (uuid eaa19373-4994-4c1b-b827-cd179826152f)
    (property "Reference" "R126" (id 0) (at 87.376 29.2099 0)
      (effects (font (size 1.27 1.27)) (justify right))
    )
    (property "Value" "100k" (id 1) (at 87.376 31.7499 0)
      (effects (font (size 1.27 1.27)) (justify right))
    )
    (property "Footprint" "Resistor_SMD:R_0402_1005Metric" (id 2) (at 86.868 30.48 90)
      (effects (font (size 1.27 1.27)) hide)
    )
    (property "Datasheet" "~" (id 3) (at 85.09 30.48 0)
      (effects (font (size 1.27 1.27)) hide)
    )
    (pin "1" (uuid 946f0c1c-ede1-4358-bf3a-81cf258d9bba))
    (pin "2" (uuid 42a448c2-e428-4f4c-9cfa-be81d5302d54))
  )

  (symbol (lib_id "Connectors:DF58-4P-1.2V_21_") (at 80.01 93.98 0) (unit 1)
    (in_bom yes) (on_board yes)
    (uuid f3bbfbde-10f8-466d-8c41-c9bad73c5005)
    (property "Reference" "J10" (id 0) (at 90.17 86.614 0))
    (property "Value" "DF58-4P-1.2V_21_" (id 1) (at 90.17 88.646 0))
    (property "Footprint" "Connectors:DF584P12V21" (id 2) (at 96.52 91.44 0)
      (effects (font (size 1.27 1.27)) (justify left) hide)
    )
    (property "Datasheet" "https://datasheet.datasheetarchive.com/originals/distributors/DKDS-30/591775.pdf" (id 3) (at 96.52 93.98 0)
      (effects (font (size 1.27 1.27)) (justify left) hide)
    )
    (property "Description" "Hirose DF58 58, 1.2mm Pitch, 4 Way, 1 Row, Straight PCB Header, Surface Mount" (id 4) (at 96.52 96.52 0)
      (effects (font (size 1.27 1.27)) (justify left) hide)
    )
    (property "Height" "1.1" (id 5) (at 96.52 99.06 0)
      (effects (font (size 1.27 1.27)) (justify left) hide)
    )
    (property "Manufacturer_Name" "Hirose" (id 6) (at 96.52 101.6 0)
      (effects (font (size 1.27 1.27)) (justify left) hide)
    )
    (property "Manufacturer_Part_Number" "DF58-4P-1.2V(21)" (id 7) (at 96.52 104.14 0)
      (effects (font (size 1.27 1.27)) (justify left) hide)
    )
    (property "Mouser Part Number" "798-DF58-4P-1.2V21" (id 8) (at 96.52 106.68 0)
      (effects (font (size 1.27 1.27)) (justify left) hide)
    )
    (property "Mouser Price/Stock" "https://www.mouser.co.uk/ProductDetail/Hirose-Connector/DF58-4P-12V21?qs=7bTaA%2FLYtSZD8VmLOAYe3A%3D%3D" (id 9) (at 96.52 109.22 0)
      (effects (font (size 1.27 1.27)) (justify left) hide)
    )
    (property "Arrow Part Number" "" (id 10) (at 96.52 111.76 0)
      (effects (font (size 1.27 1.27)) (justify left) hide)
    )
    (property "Arrow Price/Stock" "" (id 11) (at 96.52 114.3 0)
      (effects (font (size 1.27 1.27)) (justify left) hide)
    )
    (pin "1" (uuid c0341199-bae8-44bb-86fc-5563ade883ae))
    (pin "2" (uuid 036e26da-b5e2-4884-afd9-43e1a857949a))
    (pin "3" (uuid 39e4d8af-3cb5-4ea7-9491-50c6c2a5aaa2))
    (pin "4" (uuid 6e67a476-6d8e-4dc9-9aba-e507ed68fe06))
    (pin "5" (uuid 2d95eec2-220c-4bfb-bb5d-a14e00d93cfa))
    (pin "6" (uuid 3a1ade39-b0e0-4ed5-8818-7efce258a40b))
  )

  (symbol (lib_id "Connectors:M80-6661022") (at 44.45 29.21 0) (unit 1)
    (in_bom yes) (on_board yes) (fields_autoplaced)
    (uuid f6a0ec69-8a80-4f93-b6c3-0cf4d48ce46f)
    (property "Reference" "J7" (id 0) (at 55.88 21.59 0))
    (property "Value" "M80-6661022" (id 1) (at 55.88 24.13 0))
    (property "Footprint" "Connectors:M80-66610YY" (id 2) (at 63.5 26.67 0)
      (effects (font (size 1.27 1.27)) (justify left) hide)
    )
    (property "Datasheet" "https://cdn.harwin.com/pdfs/M80-666.pdf" (id 3) (at 63.5 29.21 0)
      (effects (font (size 1.27 1.27)) (justify left) hide)
    )
    (property "Description" "10 Pos. Male DIL Horizontal SMT Conn. Latches, 2.00mm Pitch High-Reliability Connector - Datamate L-Tek" (id 4) (at 63.5 31.75 0)
      (effects (font (size 1.27 1.27)) (justify left) hide)
    )
    (property "Height" "" (id 5) (at 63.5 34.29 0)
      (effects (font (size 1.27 1.27)) (justify left) hide)
    )
    (property "Manufacturer_Name" "Harwin" (id 6) (at 63.5 36.83 0)
      (effects (font (size 1.27 1.27)) (justify left) hide)
    )
    (property "Manufacturer_Part_Number" "M80-6661022" (id 7) (at 63.5 39.37 0)
      (effects (font (size 1.27 1.27)) (justify left) hide)
    )
    (property "Mouser Part Number" "855-M80-6661022" (id 8) (at 63.5 41.91 0)
      (effects (font (size 1.27 1.27)) (justify left) hide)
    )
    (property "Mouser Price/Stock" "https://www.mouser.co.uk/ProductDetail/Harwin/M80-6661022?qs=IQR8xM2KsGgh%252BokSH0w3Qw%3D%3D" (id 9) (at 63.5 44.45 0)
      (effects (font (size 1.27 1.27)) (justify left) hide)
    )
    (property "Arrow Part Number" "" (id 10) (at 63.5 46.99 0)
      (effects (font (size 1.27 1.27)) (justify left) hide)
    )
    (property "Arrow Price/Stock" "" (id 11) (at 63.5 49.53 0)
      (effects (font (size 1.27 1.27)) (justify left) hide)
    )
    (pin "1" (uuid fc7281ff-07b0-471c-b87f-24890b1409c2))
    (pin "10" (uuid 673b077b-37de-4258-b539-e7cc7e735031))
    (pin "2" (uuid bce0d729-3fe0-4910-bc8f-f52b13665347))
    (pin "3" (uuid b23e38ca-7301-46cc-8ed8-0fbed9ede53f))
    (pin "4" (uuid 8689bcfb-ac68-4666-bd81-abae03625052))
    (pin "5" (uuid d652fe1c-9dde-4df0-b3c9-c627b8537313))
    (pin "6" (uuid 6f5a04ae-2f6d-4f45-a21e-e4b6b56f1729))
    (pin "7" (uuid 376583cf-eeea-4667-a3f3-bb3da300a7dc))
    (pin "8" (uuid ee0b1dd2-b31f-4737-8b35-4c0f2f8c2001))
    (pin "9" (uuid e8b2810d-e051-4f94-94a4-2c908494601a))
  )
)
