%TF.GenerationSoftware,KiCad,Pcbnew,6.0.7-f9a2dced07~116~ubuntu20.04.1*%
%TF.CreationDate,2022-10-11T04:26:54+03:00*%
%TF.ProjectId,obc-adcs-board,6f62632d-6164-4637-932d-626f6172642e,rev?*%
%TF.SameCoordinates,PX3e2df80PY83e4a60*%
%TF.FileFunction,Soldermask,Top*%
%TF.FilePolarity,Negative*%
%FSLAX46Y46*%
G04 Gerber Fmt 4.6, Leading zero omitted, Abs format (unit mm)*
G04 Created by KiCad (PCBNEW 6.0.7-f9a2dced07~116~ubuntu20.04.1) date 2022-10-11 04:26:54*
%MOMM*%
%LPD*%
G01*
G04 APERTURE LIST*
G04 Aperture macros list*
%AMRoundRect*
0 Rectangle with rounded corners*
0 $1 Rounding radius*
0 $2 $3 $4 $5 $6 $7 $8 $9 X,Y pos of 4 corners*
0 Add a 4 corners polygon primitive as box body*
4,1,4,$2,$3,$4,$5,$6,$7,$8,$9,$2,$3,0*
0 Add four circle primitives for the rounded corners*
1,1,$1+$1,$2,$3*
1,1,$1+$1,$4,$5*
1,1,$1+$1,$6,$7*
1,1,$1+$1,$8,$9*
0 Add four rect primitives between the rounded corners*
20,1,$1+$1,$2,$3,$4,$5,0*
20,1,$1+$1,$4,$5,$6,$7,0*
20,1,$1+$1,$6,$7,$8,$9,0*
20,1,$1+$1,$8,$9,$2,$3,0*%
G04 Aperture macros list end*
%TA.AperFunction,Profile*%
%ADD10C,0.100000*%
%TD*%
%ADD11C,0.010000*%
%ADD12C,1.000000*%
%ADD13R,0.850000X0.600000*%
%ADD14R,0.800000X0.700000*%
%ADD15R,0.660000X0.650000*%
%ADD16R,0.850000X1.340000*%
%ADD17RoundRect,0.137500X0.137500X-0.625000X0.137500X0.625000X-0.137500X0.625000X-0.137500X-0.625000X0*%
%ADD18R,0.650000X1.528000*%
%ADD19RoundRect,0.200000X0.200000X0.275000X-0.200000X0.275000X-0.200000X-0.275000X0.200000X-0.275000X0*%
%ADD20C,5.600000*%
%ADD21RoundRect,0.200000X-0.200000X-0.275000X0.200000X-0.275000X0.200000X0.275000X-0.200000X0.275000X0*%
%ADD22R,0.620000X0.670000*%
%ADD23R,1.050000X0.600000*%
%ADD24RoundRect,0.140000X-0.140000X-0.170000X0.140000X-0.170000X0.140000X0.170000X-0.140000X0.170000X0*%
%ADD25C,0.900000*%
%ADD26R,1.500000X1.000000*%
%ADD27R,0.940000X1.020000*%
%ADD28RoundRect,0.200000X0.275000X-0.200000X0.275000X0.200000X-0.275000X0.200000X-0.275000X-0.200000X0*%
%ADD29RoundRect,0.140000X-0.170000X0.140000X-0.170000X-0.140000X0.170000X-0.140000X0.170000X0.140000X0*%
%ADD30RoundRect,0.225000X-0.250000X0.225000X-0.250000X-0.225000X0.250000X-0.225000X0.250000X0.225000X0*%
%ADD31R,1.475000X0.300000*%
%ADD32R,0.300000X1.475000*%
%ADD33R,1.400000X0.450000*%
%ADD34RoundRect,0.135000X-0.135000X-0.185000X0.135000X-0.185000X0.135000X0.185000X-0.135000X0.185000X0*%
%ADD35RoundRect,0.225000X-0.225000X-0.250000X0.225000X-0.250000X0.225000X0.250000X-0.225000X0.250000X0*%
%ADD36R,0.800000X0.900000*%
%ADD37RoundRect,0.140000X0.140000X0.170000X-0.140000X0.170000X-0.140000X-0.170000X0.140000X-0.170000X0*%
%ADD38R,1.528000X0.650000*%
%ADD39RoundRect,0.200000X-0.275000X0.200000X-0.275000X-0.200000X0.275000X-0.200000X0.275000X0.200000X0*%
%ADD40RoundRect,0.135000X-0.185000X0.135000X-0.185000X-0.135000X0.185000X-0.135000X0.185000X0.135000X0*%
%ADD41RoundRect,0.140000X0.170000X-0.140000X0.170000X0.140000X-0.170000X0.140000X-0.170000X-0.140000X0*%
%ADD42R,0.700000X0.650000*%
%ADD43R,0.450000X1.400000*%
%ADD44R,0.650000X1.525000*%
%ADD45RoundRect,0.237500X-0.237500X0.250000X-0.237500X-0.250000X0.237500X-0.250000X0.237500X0.250000X0*%
%ADD46R,1.800000X1.000000*%
%ADD47RoundRect,0.135000X0.185000X-0.135000X0.185000X0.135000X-0.185000X0.135000X-0.185000X-0.135000X0*%
%ADD48R,0.600000X0.650000*%
%ADD49RoundRect,0.225000X0.225000X0.250000X-0.225000X0.250000X-0.225000X-0.250000X0.225000X-0.250000X0*%
%ADD50R,1.780000X3.430000*%
%ADD51RoundRect,0.100000X0.100000X-0.712500X0.100000X0.712500X-0.100000X0.712500X-0.100000X-0.712500X0*%
%ADD52C,1.190000*%
%ADD53R,2.920000X0.740000*%
%ADD54RoundRect,0.225000X0.250000X-0.225000X0.250000X0.225000X-0.250000X0.225000X-0.250000X-0.225000X0*%
%ADD55R,0.650000X0.660000*%
%ADD56R,1.340000X0.850000*%
%ADD57R,1.300000X0.300000*%
%ADD58R,1.000000X1.500000*%
%ADD59RoundRect,0.135000X0.135000X0.185000X-0.135000X0.185000X-0.135000X-0.185000X0.135000X-0.185000X0*%
%ADD60R,0.850000X0.850000*%
%ADD61R,0.600000X1.050000*%
%ADD62R,1.530000X1.530000*%
%ADD63C,1.530000*%
%ADD64R,0.450000X1.475000*%
%ADD65RoundRect,0.237500X0.250000X0.237500X-0.250000X0.237500X-0.250000X-0.237500X0.250000X-0.237500X0*%
%ADD66R,3.430000X1.780000*%
%ADD67R,0.650000X0.700000*%
G04 APERTURE END LIST*
D10*
X1600000Y43065000D02*
X1600000Y53065000D01*
X66685000Y120000D02*
X89370000Y120000D01*
X850000Y42315000D02*
G75*
G03*
X100000Y41565000I0J-750000D01*
G01*
X65935000Y870000D02*
G75*
G03*
X65185000Y1620000I-750000J0D01*
G01*
X72185000Y94510000D02*
G75*
G03*
X72935000Y95260000I0J750000D01*
G01*
X90270000Y12065000D02*
X90270000Y1020000D01*
X850000Y42315000D02*
G75*
G03*
X1600000Y43065000I0J750000D01*
G01*
X25185000Y1620000D02*
G75*
G03*
X24435000Y870000I0J-750000D01*
G01*
X18185000Y94510000D02*
X72185000Y94510000D01*
X100000Y41565000D02*
X100000Y1010000D01*
X73685000Y96010000D02*
G75*
G03*
X72935000Y95260000I0J-750000D01*
G01*
X1000000Y96010000D02*
G75*
G03*
X100000Y95110000I0J-900000D01*
G01*
X100000Y1010000D02*
G75*
G03*
X1000000Y110000I900000J0D01*
G01*
X88770000Y13565000D02*
X88770000Y82565000D01*
X90270000Y12065000D02*
G75*
G03*
X89520000Y12815000I-750000J0D01*
G01*
X89520000Y83315000D02*
G75*
G03*
X88770000Y82565000I0J-750000D01*
G01*
X88770000Y13565000D02*
G75*
G03*
X89520000Y12815000I750000J0D01*
G01*
X25185000Y1620000D02*
X65185000Y1620000D01*
X73685000Y96010000D02*
X89370000Y96010000D01*
X89520000Y83315000D02*
G75*
G03*
X90270000Y84065000I0J750000D01*
G01*
X89370000Y120000D02*
G75*
G03*
X90270000Y1020000I0J900000D01*
G01*
X1600000Y53065000D02*
G75*
G03*
X850000Y53815000I-750000J0D01*
G01*
X23685000Y120000D02*
G75*
G03*
X24435000Y870000I0J750000D01*
G01*
X90270000Y95110000D02*
G75*
G03*
X89370000Y96010000I-900000J0D01*
G01*
X17435000Y95260000D02*
G75*
G03*
X18185000Y94510000I750000J0D01*
G01*
X100000Y54565000D02*
G75*
G03*
X850000Y53815000I750000J0D01*
G01*
X1000000Y96010000D02*
X16685000Y96010000D01*
X90270000Y95110000D02*
X90270000Y84065000D01*
X100000Y95110000D02*
X100000Y54565000D01*
X17435000Y95260000D02*
G75*
G03*
X16685000Y96010000I-750000J0D01*
G01*
X23685000Y120000D02*
X1000000Y110000D01*
X65935000Y870000D02*
G75*
G03*
X66685000Y120000I750000J0D01*
G01*
%TO.C,J7*%
G36*
X10318000Y48049000D02*
G01*
X7346000Y48049000D01*
X7346000Y48891000D01*
X10318000Y48891000D01*
X10318000Y48049000D01*
G37*
D11*
X10318000Y48049000D02*
X7346000Y48049000D01*
X7346000Y48891000D01*
X10318000Y48891000D01*
X10318000Y48049000D01*
G36*
X10318000Y45509000D02*
G01*
X7346000Y45509000D01*
X7346000Y46351000D01*
X10318000Y46351000D01*
X10318000Y45509000D01*
G37*
X10318000Y45509000D02*
X7346000Y45509000D01*
X7346000Y46351000D01*
X10318000Y46351000D01*
X10318000Y45509000D01*
G36*
X7854000Y46779000D02*
G01*
X4882000Y46779000D01*
X4882000Y47621000D01*
X7854000Y47621000D01*
X7854000Y46779000D01*
G37*
X7854000Y46779000D02*
X4882000Y46779000D01*
X4882000Y47621000D01*
X7854000Y47621000D01*
X7854000Y46779000D01*
%TD*%
D12*
%TO.C,TP25*%
X15600000Y23200000D03*
%TD*%
D13*
%TO.C,J11*%
X6075000Y16000000D03*
X6075000Y14800000D03*
X6075000Y13600000D03*
D14*
X2300000Y17150000D03*
X2300000Y12450000D03*
%TD*%
D15*
%TO.C,J13*%
X39800000Y8635000D03*
X41000000Y8635000D03*
X42200000Y8635000D03*
X43400000Y8635000D03*
D16*
X38375000Y4930000D03*
X44825000Y4930000D03*
%TD*%
D17*
%TO.C,U7*%
X57900960Y12999279D03*
X58700960Y12999279D03*
X59500960Y12999279D03*
X60300960Y12999279D03*
X61100960Y12999279D03*
X61900960Y12999279D03*
X62700960Y12999279D03*
X63500960Y12999279D03*
X64300960Y12999279D03*
X65100960Y12999279D03*
X65900960Y12999279D03*
X66700960Y12999279D03*
X67500960Y12999279D03*
X68300960Y12999279D03*
X69100960Y12999279D03*
X69900960Y12999279D03*
X70700960Y12999279D03*
X71500960Y12999279D03*
X72300960Y12999279D03*
X73100960Y12999279D03*
X73900960Y12999279D03*
X74700960Y12999279D03*
X74700960Y24174279D03*
X73900960Y24174279D03*
X73100960Y24174279D03*
X72300960Y24174279D03*
X71500960Y24174279D03*
X70700960Y24174279D03*
X69900960Y24174279D03*
X69100960Y24174279D03*
X68300960Y24174279D03*
X67500960Y24174279D03*
X66700960Y24174279D03*
X65900960Y24174279D03*
X65100960Y24174279D03*
X64300960Y24174279D03*
X63500960Y24174279D03*
X62700960Y24174279D03*
X61900960Y24174279D03*
X61100960Y24174279D03*
X60300960Y24174279D03*
X59500960Y24174279D03*
X58700960Y24174279D03*
X57900960Y24174279D03*
%TD*%
D18*
%TO.C,U2*%
X6995000Y75789000D03*
X8265000Y75789000D03*
X9535000Y75789000D03*
X10805000Y75789000D03*
X10805000Y81211000D03*
X9535000Y81211000D03*
X8265000Y81211000D03*
X6995000Y81211000D03*
%TD*%
D19*
%TO.C,R58*%
X70075960Y49550000D03*
X68425960Y49550000D03*
%TD*%
D20*
%TO.C,H2*%
X82630000Y90930000D03*
%TD*%
D21*
%TO.C,R13*%
X46875960Y50700000D03*
X48525960Y50700000D03*
%TD*%
D22*
%TO.C,F3*%
X29625000Y73900000D03*
X28375000Y73900000D03*
%TD*%
D20*
%TO.C,H3*%
X5180000Y5190000D03*
%TD*%
D23*
%TO.C,Q3*%
X48400000Y54250000D03*
X48400000Y56150000D03*
X46200000Y55200000D03*
%TD*%
D12*
%TO.C,TP24*%
X51500000Y41000000D03*
%TD*%
D19*
%TO.C,R23*%
X28425000Y63200000D03*
X26775000Y63200000D03*
%TD*%
%TO.C,R80*%
X68375000Y44900000D03*
X66725000Y44900000D03*
%TD*%
D24*
%TO.C,C38*%
X37420000Y17150000D03*
X38380000Y17150000D03*
%TD*%
D25*
%TO.C,J5*%
X80350000Y80050000D03*
X85100000Y65550000D03*
X85100000Y80050000D03*
X80350000Y65550000D03*
D26*
X76250000Y77800000D03*
X76250000Y75800000D03*
X76250000Y73800000D03*
X76250000Y71800000D03*
X76250000Y69800000D03*
X76250000Y67800000D03*
X78750000Y77800000D03*
X78750000Y75800000D03*
X78750000Y73800000D03*
X78750000Y71800000D03*
X78750000Y69800000D03*
X78750000Y67800000D03*
%TD*%
D27*
%TO.C,F4*%
X9810000Y18600000D03*
X11390000Y18600000D03*
%TD*%
D28*
%TO.C,R5*%
X65400000Y78375000D03*
X65400000Y80025000D03*
%TD*%
D12*
%TO.C,TP12*%
X18100000Y28900000D03*
%TD*%
D27*
%TO.C,F5*%
X15360000Y11250000D03*
X16940000Y11250000D03*
%TD*%
D28*
%TO.C,R50*%
X49800960Y65075000D03*
X49800960Y66725000D03*
%TD*%
D29*
%TO.C,C39*%
X31700000Y16480000D03*
X31700000Y15520000D03*
%TD*%
D30*
%TO.C,C2*%
X6700000Y85175000D03*
X6700000Y83625000D03*
%TD*%
D31*
%TO.C,U4*%
X44703242Y20649040D03*
X44703242Y21149040D03*
X44703242Y21649040D03*
X44703242Y22149040D03*
X44703242Y22649040D03*
X44703242Y23149040D03*
X44703242Y23649040D03*
X44703242Y24149040D03*
X44703242Y24649040D03*
X44703242Y25149040D03*
X44703242Y25649040D03*
X44703242Y26149040D03*
X44703242Y26649040D03*
X44703242Y27149040D03*
X44703242Y27649040D03*
X44703242Y28149040D03*
X44703242Y28649040D03*
X44703242Y29149040D03*
X44703242Y29649040D03*
X44703242Y30149040D03*
X44703242Y30649040D03*
X44703242Y31149040D03*
X44703242Y31649040D03*
X44703242Y32149040D03*
X44703242Y32649040D03*
X44703242Y33149040D03*
X44703242Y33649040D03*
X44703242Y34149040D03*
X44703242Y34649040D03*
X44703242Y35149040D03*
X44703242Y35649040D03*
X44703242Y36149040D03*
X44703242Y36649040D03*
X44703242Y37149040D03*
X44703242Y37649040D03*
X44703242Y38149040D03*
D32*
X42715242Y40137040D03*
X42215242Y40137040D03*
X41715242Y40137040D03*
X41215242Y40137040D03*
X40715242Y40137040D03*
X40215242Y40137040D03*
X39715242Y40137040D03*
X39215242Y40137040D03*
X38715242Y40137040D03*
X38215242Y40137040D03*
X37715242Y40137040D03*
X37215242Y40137040D03*
X36715242Y40137040D03*
X36215242Y40137040D03*
X35715242Y40137040D03*
X35215242Y40137040D03*
X34715242Y40137040D03*
X34215242Y40137040D03*
X33715242Y40137040D03*
X33215242Y40137040D03*
X32715242Y40137040D03*
X32215242Y40137040D03*
X31715242Y40137040D03*
X31215242Y40137040D03*
X30715242Y40137040D03*
X30215242Y40137040D03*
X29715242Y40137040D03*
X29215242Y40137040D03*
X28715242Y40137040D03*
X28215242Y40137040D03*
X27715242Y40137040D03*
X27215242Y40137040D03*
X26715242Y40137040D03*
X26215242Y40137040D03*
X25715242Y40137040D03*
X25215242Y40137040D03*
D31*
X23227242Y38149040D03*
X23227242Y37649040D03*
X23227242Y37149040D03*
X23227242Y36649040D03*
X23227242Y36149040D03*
X23227242Y35649040D03*
X23227242Y35149040D03*
X23227242Y34649040D03*
X23227242Y34149040D03*
X23227242Y33649040D03*
X23227242Y33149040D03*
X23227242Y32649040D03*
X23227242Y32149040D03*
X23227242Y31649040D03*
X23227242Y31149040D03*
X23227242Y30649040D03*
X23227242Y30149040D03*
X23227242Y29649040D03*
X23227242Y29149040D03*
X23227242Y28649040D03*
X23227242Y28149040D03*
X23227242Y27649040D03*
X23227242Y27149040D03*
X23227242Y26649040D03*
X23227242Y26149040D03*
X23227242Y25649040D03*
X23227242Y25149040D03*
X23227242Y24649040D03*
X23227242Y24149040D03*
X23227242Y23649040D03*
X23227242Y23149040D03*
X23227242Y22649040D03*
X23227242Y22149040D03*
X23227242Y21649040D03*
X23227242Y21149040D03*
X23227242Y20649040D03*
D32*
X25215242Y18661040D03*
X25715242Y18661040D03*
X26215242Y18661040D03*
X26715242Y18661040D03*
X27215242Y18661040D03*
X27715242Y18661040D03*
X28215242Y18661040D03*
X28715242Y18661040D03*
X29215242Y18661040D03*
X29715242Y18661040D03*
X30215242Y18661040D03*
X30715242Y18661040D03*
X31215242Y18661040D03*
X31715242Y18661040D03*
X32215242Y18661040D03*
X32715242Y18661040D03*
X33215242Y18661040D03*
X33715242Y18661040D03*
X34215242Y18661040D03*
X34715242Y18661040D03*
X35215242Y18661040D03*
X35715242Y18661040D03*
X36215242Y18661040D03*
X36715242Y18661040D03*
X37215242Y18661040D03*
X37715242Y18661040D03*
X38215242Y18661040D03*
X38715242Y18661040D03*
X39215242Y18661040D03*
X39715242Y18661040D03*
X40215242Y18661040D03*
X40715242Y18661040D03*
X41215242Y18661040D03*
X41715242Y18661040D03*
X42215242Y18661040D03*
X42715242Y18661040D03*
%TD*%
D22*
%TO.C,F2*%
X15725000Y73600000D03*
X14475000Y73600000D03*
%TD*%
D28*
%TO.C,R22*%
X39125960Y60361779D03*
X39125960Y62011779D03*
%TD*%
D33*
%TO.C,U6*%
X16500000Y13975000D03*
X16500000Y14625000D03*
X16500000Y15275000D03*
X16500000Y15925000D03*
X12100000Y15925000D03*
X12100000Y15275000D03*
X12100000Y14625000D03*
X12100000Y13975000D03*
%TD*%
D21*
%TO.C,R45*%
X65175000Y62400000D03*
X66825000Y62400000D03*
%TD*%
D34*
%TO.C,R61*%
X19290000Y36600000D03*
X20310000Y36600000D03*
%TD*%
D12*
%TO.C,TP2*%
X13930000Y80760000D03*
%TD*%
D34*
%TO.C,R60*%
X6990000Y40100000D03*
X8010000Y40100000D03*
%TD*%
D35*
%TO.C,C34*%
X69625000Y43350000D03*
X71175000Y43350000D03*
%TD*%
D36*
%TO.C,Y2*%
X44625000Y14275000D03*
X44625000Y16125000D03*
X43175000Y16125000D03*
X43175000Y14275000D03*
%TD*%
D37*
%TO.C,C4*%
X9380000Y74250000D03*
X8420000Y74250000D03*
%TD*%
D28*
%TO.C,R26*%
X40500000Y71475000D03*
X40500000Y73125000D03*
%TD*%
D19*
%TO.C,R43*%
X56650000Y54100000D03*
X55000000Y54100000D03*
%TD*%
D20*
%TO.C,H4*%
X85170000Y5210000D03*
%TD*%
D38*
%TO.C,IC6*%
X66189000Y41705000D03*
X66189000Y40435000D03*
X66189000Y39165000D03*
X66189000Y37895000D03*
X71611000Y37895000D03*
X71611000Y39165000D03*
X71611000Y40435000D03*
X71611000Y41705000D03*
%TD*%
D12*
%TO.C,TP11*%
X15800000Y28900000D03*
%TD*%
D30*
%TO.C,C13*%
X37525960Y61961779D03*
X37525960Y60411779D03*
%TD*%
D23*
%TO.C,Q4*%
X31300000Y65950000D03*
X31300000Y67850000D03*
X29100000Y66900000D03*
%TD*%
D39*
%TO.C,R9*%
X16500000Y56225000D03*
X16500000Y54575000D03*
%TD*%
D40*
%TO.C,R47*%
X74200000Y55860000D03*
X74200000Y54840000D03*
%TD*%
D28*
%TO.C,R77*%
X66800000Y30575000D03*
X66800000Y32225000D03*
%TD*%
D21*
%TO.C,R49*%
X62175000Y59800000D03*
X63825000Y59800000D03*
%TD*%
D41*
%TO.C,C18*%
X21625000Y26320000D03*
X21625000Y27280000D03*
%TD*%
D29*
%TO.C,C26*%
X46200000Y25130000D03*
X46200000Y24170000D03*
%TD*%
D39*
%TO.C,R29*%
X39000000Y73125000D03*
X39000000Y71475000D03*
%TD*%
D30*
%TO.C,C1*%
X2200000Y85175000D03*
X2200000Y83625000D03*
%TD*%
D21*
%TO.C,R51*%
X54875000Y62800000D03*
X56525000Y62800000D03*
%TD*%
D42*
%TO.C,FL2*%
X33000000Y14725000D03*
X33000000Y16075000D03*
%TD*%
D12*
%TO.C,TP21*%
X64050000Y44950000D03*
%TD*%
D19*
%TO.C,R52*%
X70025000Y59600000D03*
X68375000Y59600000D03*
%TD*%
D39*
%TO.C,R72*%
X64400000Y42125000D03*
X64400000Y40475000D03*
%TD*%
%TO.C,R3*%
X46200000Y77175000D03*
X46200000Y75525000D03*
%TD*%
D12*
%TO.C,TP19*%
X62050000Y46550000D03*
%TD*%
D39*
%TO.C,R16*%
X43550000Y74375000D03*
X43550000Y72725000D03*
%TD*%
D29*
%TO.C,C42*%
X46250000Y21430000D03*
X46250000Y20470000D03*
%TD*%
D21*
%TO.C,R41*%
X59675000Y56800000D03*
X61325000Y56800000D03*
%TD*%
D39*
%TO.C,R6*%
X68100000Y78925000D03*
X68100000Y77275000D03*
%TD*%
D37*
%TO.C,C43*%
X40280000Y17150000D03*
X39320000Y17150000D03*
%TD*%
D15*
%TO.C,J15*%
X49700000Y8635000D03*
X50900000Y8635000D03*
X52100000Y8635000D03*
X53300000Y8635000D03*
D16*
X48275000Y4930000D03*
X54725000Y4930000D03*
%TD*%
D39*
%TO.C,R36*%
X51200000Y51725000D03*
X51200000Y50075000D03*
%TD*%
D19*
%TO.C,R54*%
X57525000Y61200000D03*
X55875000Y61200000D03*
%TD*%
D28*
%TO.C,R71*%
X56600000Y43875000D03*
X56600000Y45525000D03*
%TD*%
D40*
%TO.C,R83*%
X24300000Y16910000D03*
X24300000Y15890000D03*
%TD*%
D39*
%TO.C,R11*%
X22200000Y60525000D03*
X22200000Y58875000D03*
%TD*%
D12*
%TO.C,TP7*%
X17550000Y51600000D03*
%TD*%
D21*
%TO.C,R56*%
X62075000Y61300000D03*
X63725000Y61300000D03*
%TD*%
D43*
%TO.C,U5*%
X21525000Y15000000D03*
X20875000Y15000000D03*
X20225000Y15000000D03*
X19575000Y15000000D03*
X19575000Y10600000D03*
X20225000Y10600000D03*
X20875000Y10600000D03*
X21525000Y10600000D03*
%TD*%
D21*
%TO.C,R20*%
X34875000Y71500000D03*
X36525000Y71500000D03*
%TD*%
D44*
%TO.C,IC4*%
X63890000Y52288000D03*
X65160000Y52288000D03*
X66430000Y52288000D03*
X67700000Y52288000D03*
X68970000Y52288000D03*
X70240000Y52288000D03*
X71510000Y52288000D03*
X71510000Y57712000D03*
X70240000Y57712000D03*
X68970000Y57712000D03*
X67700000Y57712000D03*
X66430000Y57712000D03*
X65160000Y57712000D03*
X63890000Y57712000D03*
%TD*%
D45*
%TO.C,R2*%
X5200000Y85212500D03*
X5200000Y83387500D03*
%TD*%
D19*
%TO.C,R69*%
X73225000Y47550000D03*
X71575000Y47550000D03*
%TD*%
D34*
%TO.C,R62*%
X20590000Y30700000D03*
X21610000Y30700000D03*
%TD*%
D12*
%TO.C,TP18*%
X56100000Y33600000D03*
%TD*%
D23*
%TO.C,Q5*%
X27200000Y67850000D03*
X27200000Y69750000D03*
X25000000Y68800000D03*
%TD*%
D21*
%TO.C,R84*%
X68175000Y11200000D03*
X69825000Y11200000D03*
%TD*%
D39*
%TO.C,R70*%
X64400000Y39125000D03*
X64400000Y37475000D03*
%TD*%
D20*
%TO.C,H1*%
X8990000Y90930000D03*
%TD*%
D35*
%TO.C,C23*%
X47225000Y38500000D03*
X48775000Y38500000D03*
%TD*%
D21*
%TO.C,R17*%
X31575000Y58700000D03*
X33225000Y58700000D03*
%TD*%
D23*
%TO.C,Q1*%
X37900000Y74650000D03*
X37900000Y76550000D03*
X35700000Y75600000D03*
%TD*%
D19*
%TO.C,R31*%
X66825960Y63900000D03*
X65175960Y63900000D03*
%TD*%
D46*
%TO.C,Y1*%
X48400000Y40750000D03*
X48400000Y43250000D03*
%TD*%
D47*
%TO.C,R4*%
X23800000Y76190000D03*
X23800000Y77210000D03*
%TD*%
%TO.C,R82*%
X21100000Y21990000D03*
X21100000Y23010000D03*
%TD*%
D23*
%TO.C,Q9*%
X70050960Y34250000D03*
X70050960Y36150000D03*
X67850960Y35200000D03*
%TD*%
D48*
%TO.C,J14*%
X24500000Y7380500D03*
X25700000Y7380500D03*
X26900000Y7380500D03*
X28100000Y7380500D03*
X29300000Y7380500D03*
X30500000Y7380500D03*
D16*
X31925000Y3675500D03*
X23075000Y3675500D03*
%TD*%
D37*
%TO.C,C20*%
X21380000Y33650000D03*
X20420000Y33650000D03*
%TD*%
D12*
%TO.C,FID3*%
X87800000Y2300000D03*
%TD*%
%TO.C,TP13*%
X20450000Y46650000D03*
%TD*%
D30*
%TO.C,C10*%
X48200960Y66675000D03*
X48200960Y65125000D03*
%TD*%
D12*
%TO.C,TP26*%
X20200000Y18100000D03*
%TD*%
D19*
%TO.C,R34*%
X73000960Y61000000D03*
X71350960Y61000000D03*
%TD*%
D49*
%TO.C,C31*%
X66475000Y26000000D03*
X64925000Y26000000D03*
%TD*%
D12*
%TO.C,FID1*%
X87800000Y93800000D03*
%TD*%
D30*
%TO.C,C32*%
X71300000Y32175000D03*
X71300000Y30625000D03*
%TD*%
D39*
%TO.C,R73*%
X71700000Y36225000D03*
X71700000Y34575000D03*
%TD*%
D21*
%TO.C,R27*%
X34875000Y73000000D03*
X36525000Y73000000D03*
%TD*%
D12*
%TO.C,TP6*%
X20000000Y61300000D03*
%TD*%
%TO.C,TP20*%
X62000000Y44500000D03*
%TD*%
D40*
%TO.C,R30*%
X74300000Y58210000D03*
X74300000Y57190000D03*
%TD*%
D12*
%TO.C,TP15*%
X48200000Y47100000D03*
%TD*%
D21*
%TO.C,R74*%
X64675000Y35800000D03*
X66325000Y35800000D03*
%TD*%
D37*
%TO.C,C17*%
X24080000Y41700000D03*
X23120000Y41700000D03*
%TD*%
D50*
%TO.C,TP3*%
X4600000Y74900000D03*
%TD*%
D12*
%TO.C,TP5*%
X56400000Y79700000D03*
%TD*%
D21*
%TO.C,R64*%
X64675000Y34300000D03*
X66325000Y34300000D03*
%TD*%
D51*
%TO.C,U3*%
X63425000Y72387500D03*
X64075000Y72387500D03*
X64725000Y72387500D03*
X65375000Y72387500D03*
X65375000Y76612500D03*
X64725000Y76612500D03*
X64075000Y76612500D03*
X63425000Y76612500D03*
%TD*%
D21*
%TO.C,R75*%
X58075000Y40600000D03*
X59725000Y40600000D03*
%TD*%
D49*
%TO.C,C8*%
X21225000Y69750000D03*
X19675000Y69750000D03*
%TD*%
D12*
%TO.C,TP17*%
X65050000Y46750000D03*
%TD*%
D52*
%TO.C,J3*%
X8900000Y52707500D03*
X8900000Y67317500D03*
D53*
X7185000Y65727500D03*
X10615000Y65727500D03*
X7185000Y64457500D03*
X10615000Y64457500D03*
X7185000Y63187500D03*
X10615000Y63187500D03*
X7185000Y61917500D03*
X10615000Y61917500D03*
X7185000Y60647500D03*
X10615000Y60647500D03*
X7185000Y59377500D03*
X10615000Y59377500D03*
X7185000Y58107500D03*
X10615000Y58107500D03*
X7185000Y56837500D03*
X10615000Y56837500D03*
X7185000Y55567500D03*
X10615000Y55567500D03*
X7185000Y54297500D03*
X10615000Y54297500D03*
%TD*%
D19*
%TO.C,R76*%
X59725000Y43800000D03*
X58075000Y43800000D03*
%TD*%
D37*
%TO.C,C19*%
X20930000Y34600000D03*
X19970000Y34600000D03*
%TD*%
D54*
%TO.C,C9*%
X40900000Y60425000D03*
X40900000Y61975000D03*
%TD*%
D12*
%TO.C,TP28*%
X72900000Y10900000D03*
%TD*%
%TO.C,TP22*%
X53600000Y43300000D03*
%TD*%
D37*
%TO.C,C21*%
X39930000Y41650000D03*
X38970000Y41650000D03*
%TD*%
D35*
%TO.C,C12*%
X35600000Y69050000D03*
X37150000Y69050000D03*
%TD*%
D55*
%TO.C,J8*%
X81565000Y30100000D03*
X81565000Y31300000D03*
X81565000Y32500000D03*
X81565000Y33700000D03*
D56*
X85270000Y28675000D03*
X85270000Y35125000D03*
%TD*%
D42*
%TO.C,FL3*%
X40300000Y14475000D03*
X40300000Y15825000D03*
%TD*%
D12*
%TO.C,TP23*%
X62350000Y26850000D03*
%TD*%
D55*
%TO.C,J6*%
X6535000Y26140000D03*
X6535000Y24940000D03*
X6535000Y23740000D03*
X6535000Y22540000D03*
D56*
X2830000Y27565000D03*
X2830000Y21115000D03*
%TD*%
D49*
%TO.C,C33*%
X59675000Y45400000D03*
X58125000Y45400000D03*
%TD*%
D19*
%TO.C,R7*%
X69225000Y75800000D03*
X67575000Y75800000D03*
%TD*%
D21*
%TO.C,R33*%
X67575000Y74300000D03*
X69225000Y74300000D03*
%TD*%
D12*
%TO.C,FID2*%
X2300000Y2300000D03*
%TD*%
D50*
%TO.C,TP4*%
X13000000Y77110000D03*
%TD*%
D30*
%TO.C,C40*%
X47500000Y21175000D03*
X47500000Y19625000D03*
%TD*%
D39*
%TO.C,R46*%
X70700000Y72925000D03*
X70700000Y71275000D03*
%TD*%
D21*
%TO.C,R79*%
X62875000Y48900000D03*
X64525000Y48900000D03*
%TD*%
D18*
%TO.C,U1*%
X18595000Y72489000D03*
X19865000Y72489000D03*
X21135000Y72489000D03*
X22405000Y72489000D03*
X22405000Y77911000D03*
X21135000Y77911000D03*
X19865000Y77911000D03*
X18595000Y77911000D03*
%TD*%
D41*
%TO.C,C37*%
X18250000Y11070000D03*
X18250000Y12030000D03*
%TD*%
D21*
%TO.C,R28*%
X25875000Y66200000D03*
X27525000Y66200000D03*
%TD*%
D19*
%TO.C,R48*%
X69225000Y71300000D03*
X67575000Y71300000D03*
%TD*%
D21*
%TO.C,R42*%
X68350960Y61100000D03*
X70000960Y61100000D03*
%TD*%
D57*
%TO.C,IC2*%
X22465242Y57149040D03*
X22465242Y56649040D03*
X22465242Y56149040D03*
X22465242Y55649040D03*
X22465242Y55149040D03*
X22465242Y54649040D03*
X22465242Y54149040D03*
X22465242Y53649040D03*
X22465242Y53149040D03*
X22465242Y52649040D03*
X22465242Y52149040D03*
X22465242Y51649040D03*
X22465242Y51149040D03*
X22465242Y50649040D03*
X22465242Y50149040D03*
X22465242Y49649040D03*
X22465242Y49149040D03*
X22465242Y48649040D03*
X22465242Y48149040D03*
X22465242Y47649040D03*
X22465242Y47149040D03*
X22465242Y46649040D03*
X22465242Y46149040D03*
X22465242Y45649040D03*
X42165242Y45649040D03*
X42165242Y46149040D03*
X42165242Y46649040D03*
X42165242Y47149040D03*
X42165242Y47649040D03*
X42165242Y48149040D03*
X42165242Y48649040D03*
X42165242Y49149040D03*
X42165242Y49649040D03*
X42165242Y50149040D03*
X42165242Y50649040D03*
X42165242Y51149040D03*
X42165242Y51649040D03*
X42165242Y52149040D03*
X42165242Y52649040D03*
X42165242Y53149040D03*
X42165242Y53649040D03*
X42165242Y54149040D03*
X42165242Y54649040D03*
X42165242Y55149040D03*
X42165242Y55649040D03*
X42165242Y56149040D03*
X42165242Y56649040D03*
X42165242Y57149040D03*
%TD*%
D21*
%TO.C,R78*%
X51075000Y47300000D03*
X52725000Y47300000D03*
%TD*%
%TO.C,R24*%
X25875000Y64700000D03*
X27525000Y64700000D03*
%TD*%
D58*
%TO.C,F1*%
X72700000Y79000000D03*
X70500000Y79000000D03*
%TD*%
D39*
%TO.C,R8*%
X70700000Y75925000D03*
X70700000Y74275000D03*
%TD*%
D29*
%TO.C,C36*%
X21700000Y20780000D03*
X21700000Y19820000D03*
%TD*%
D59*
%TO.C,R81*%
X7210000Y19100000D03*
X6190000Y19100000D03*
%TD*%
D60*
%TO.C,J10*%
X3000000Y9700000D03*
%TD*%
D28*
%TO.C,R63*%
X73300000Y34375000D03*
X73300000Y36025000D03*
%TD*%
D21*
%TO.C,R59*%
X55000000Y55700000D03*
X56650000Y55700000D03*
%TD*%
D35*
%TO.C,C15*%
X49025000Y73750000D03*
X50575000Y73750000D03*
%TD*%
D21*
%TO.C,R15*%
X29775000Y62100000D03*
X31425000Y62100000D03*
%TD*%
D15*
%TO.C,J12*%
X11700000Y7635000D03*
X12900000Y7635000D03*
X14100000Y7635000D03*
X15300000Y7635000D03*
D16*
X10275000Y3930000D03*
X16725000Y3930000D03*
%TD*%
D28*
%TO.C,R53*%
X71475960Y62575000D03*
X71475960Y64225000D03*
%TD*%
D55*
%TO.C,J17*%
X81585000Y19580000D03*
X81585000Y20780000D03*
X81585000Y21980000D03*
X81585000Y23180000D03*
D56*
X85290000Y18155000D03*
X85290000Y24605000D03*
%TD*%
D21*
%TO.C,R85*%
X61175960Y11200000D03*
X62825960Y11200000D03*
%TD*%
D47*
%TO.C,R1*%
X12260000Y79650000D03*
X12260000Y80670000D03*
%TD*%
D61*
%TO.C,Q8*%
X62250000Y36700000D03*
X60350000Y36700000D03*
X61300000Y34500000D03*
%TD*%
D25*
%TO.C,J4*%
X80650000Y61150000D03*
X80650000Y48650000D03*
X85400000Y48650000D03*
X85400000Y61150000D03*
D26*
X76550000Y58900000D03*
X76550000Y56900000D03*
X76550000Y54900000D03*
X76550000Y52900000D03*
X76550000Y50900000D03*
X79050000Y58900000D03*
X79050000Y56900000D03*
X79050000Y54900000D03*
X79050000Y52900000D03*
X79050000Y50900000D03*
%TD*%
D12*
%TO.C,TP9*%
X65100000Y70100000D03*
%TD*%
D21*
%TO.C,R40*%
X68325960Y62700000D03*
X69975960Y62700000D03*
%TD*%
%TO.C,R39*%
X67575000Y72800000D03*
X69225000Y72800000D03*
%TD*%
%TO.C,R38*%
X50275000Y61400000D03*
X51925000Y61400000D03*
%TD*%
D54*
%TO.C,C14*%
X51400000Y65125000D03*
X51400000Y66675000D03*
%TD*%
D35*
%TO.C,C30*%
X58125000Y42200000D03*
X59675000Y42200000D03*
%TD*%
D62*
%TO.C,J1*%
X14048000Y83309000D03*
D63*
X14048000Y85849000D03*
X16588000Y83309000D03*
X16588000Y85849000D03*
X19128000Y83309000D03*
X19128000Y85849000D03*
X21668000Y83309000D03*
X21668000Y85849000D03*
X24208000Y83309000D03*
X24208000Y85849000D03*
X26748000Y83309000D03*
X26748000Y85849000D03*
X29288000Y83309000D03*
X29288000Y85849000D03*
X31828000Y83309000D03*
X31828000Y85849000D03*
X34368000Y83309000D03*
X34368000Y85849000D03*
X36908000Y83309000D03*
X36908000Y85849000D03*
X39448000Y83309000D03*
X39448000Y85849000D03*
X41988000Y83309000D03*
X41988000Y85849000D03*
X44528000Y83309000D03*
X44528000Y85849000D03*
X47068000Y83309000D03*
X47068000Y85849000D03*
X49608000Y83309000D03*
X49608000Y85849000D03*
X52148000Y83309000D03*
X52148000Y85849000D03*
X54688000Y83309000D03*
X54688000Y85849000D03*
X57228000Y83309000D03*
X57228000Y85849000D03*
X59768000Y83309000D03*
X59768000Y85849000D03*
X62308000Y83309000D03*
X62308000Y85849000D03*
X64848000Y83309000D03*
X64848000Y85849000D03*
X67388000Y83309000D03*
X67388000Y85849000D03*
X69928000Y83309000D03*
X69928000Y85849000D03*
X72468000Y83309000D03*
X72468000Y85849000D03*
X75008000Y83309000D03*
X75008000Y85849000D03*
X77548000Y83309000D03*
X77548000Y85849000D03*
%TD*%
D12*
%TO.C,TP1*%
X5000000Y78700000D03*
%TD*%
D19*
%TO.C,R37*%
X73000960Y59500000D03*
X71350960Y59500000D03*
%TD*%
D12*
%TO.C,TP8*%
X44150000Y55900000D03*
%TD*%
D23*
%TO.C,Q6*%
X33300000Y72950000D03*
X33300000Y74850000D03*
X31100000Y73900000D03*
%TD*%
D39*
%TO.C,R12*%
X18800000Y57325000D03*
X18800000Y55675000D03*
%TD*%
D21*
%TO.C,R68*%
X68425000Y48000000D03*
X70075000Y48000000D03*
%TD*%
%TO.C,R35*%
X59675000Y58300000D03*
X61325000Y58300000D03*
%TD*%
D41*
%TO.C,C22*%
X47200000Y35320000D03*
X47200000Y36280000D03*
%TD*%
D29*
%TO.C,C11*%
X43600000Y51930000D03*
X43600000Y50970000D03*
%TD*%
D49*
%TO.C,C47*%
X79375000Y5300000D03*
X77825000Y5300000D03*
%TD*%
D54*
%TO.C,C29*%
X68300000Y30625000D03*
X68300000Y32175000D03*
%TD*%
D55*
%TO.C,J9*%
X81565000Y39900000D03*
X81565000Y41100000D03*
X81565000Y42300000D03*
X81565000Y43500000D03*
D56*
X85270000Y38475000D03*
X85270000Y44925000D03*
%TD*%
D28*
%TO.C,R18*%
X45100000Y65075000D03*
X45100000Y66725000D03*
%TD*%
%TO.C,R32*%
X52700000Y50075000D03*
X52700000Y51725000D03*
%TD*%
D12*
%TO.C,TP14*%
X18600000Y32000000D03*
%TD*%
D64*
%TO.C,Q2*%
X60175000Y79638000D03*
X59525000Y79638000D03*
X58875000Y79638000D03*
X58225000Y79638000D03*
X58225000Y73762000D03*
X58875000Y73762000D03*
X59525000Y73762000D03*
X60175000Y73762000D03*
%TD*%
D12*
%TO.C,TP30*%
X59800000Y9300000D03*
%TD*%
D30*
%TO.C,C3*%
X3700000Y85175000D03*
X3700000Y83625000D03*
%TD*%
D35*
%TO.C,C16*%
X57525000Y52550000D03*
X59075000Y52550000D03*
%TD*%
D62*
%TO.C,J2*%
X14048000Y88389000D03*
D63*
X14048000Y90929000D03*
X16588000Y88389000D03*
X16588000Y90929000D03*
X19128000Y88389000D03*
X19128000Y90929000D03*
X21668000Y88389000D03*
X21668000Y90929000D03*
X24208000Y88389000D03*
X24208000Y90929000D03*
X26748000Y88389000D03*
X26748000Y90929000D03*
X29288000Y88389000D03*
X29288000Y90929000D03*
X31828000Y88389000D03*
X31828000Y90929000D03*
X34368000Y88389000D03*
X34368000Y90929000D03*
X36908000Y88389000D03*
X36908000Y90929000D03*
X39448000Y88389000D03*
X39448000Y90929000D03*
X41988000Y88389000D03*
X41988000Y90929000D03*
X44528000Y88389000D03*
X44528000Y90929000D03*
X47068000Y88389000D03*
X47068000Y90929000D03*
X49608000Y88389000D03*
X49608000Y90929000D03*
X52148000Y88389000D03*
X52148000Y90929000D03*
X54688000Y88389000D03*
X54688000Y90929000D03*
X57228000Y88389000D03*
X57228000Y90929000D03*
X59768000Y88389000D03*
X59768000Y90929000D03*
X62308000Y88389000D03*
X62308000Y90929000D03*
X64848000Y88389000D03*
X64848000Y90929000D03*
X67388000Y88389000D03*
X67388000Y90929000D03*
X69928000Y88389000D03*
X69928000Y90929000D03*
X72468000Y88389000D03*
X72468000Y90929000D03*
X75008000Y88389000D03*
X75008000Y90929000D03*
X77548000Y88389000D03*
X77548000Y90929000D03*
%TD*%
D41*
%TO.C,C41*%
X46250000Y22320000D03*
X46250000Y23280000D03*
%TD*%
D19*
%TO.C,R55*%
X61525000Y54400000D03*
X59875000Y54400000D03*
%TD*%
D39*
%TO.C,R19*%
X46600000Y66725000D03*
X46600000Y65075000D03*
%TD*%
D29*
%TO.C,C45*%
X46600000Y16380000D03*
X46600000Y15420000D03*
%TD*%
D15*
%TO.C,J16*%
X66400000Y7335000D03*
X67600000Y7335000D03*
X68800000Y7335000D03*
X70000000Y7335000D03*
D16*
X64975000Y3630000D03*
X71425000Y3630000D03*
%TD*%
D41*
%TO.C,C28*%
X50400000Y36720000D03*
X50400000Y37680000D03*
%TD*%
D65*
%TO.C,R86*%
X79312500Y3800000D03*
X77487500Y3800000D03*
%TD*%
D54*
%TO.C,C44*%
X48200000Y22635000D03*
X48200000Y24185000D03*
%TD*%
D39*
%TO.C,R10*%
X20400000Y58325000D03*
X20400000Y56675000D03*
%TD*%
D41*
%TO.C,C24*%
X36000000Y43220000D03*
X36000000Y44180000D03*
%TD*%
D66*
%TO.C,TP29*%
X51050000Y18000000D03*
%TD*%
D24*
%TO.C,C35*%
X11520000Y17250000D03*
X12480000Y17250000D03*
%TD*%
D40*
%TO.C,C6*%
X20600000Y51910000D03*
X20600000Y50890000D03*
%TD*%
D19*
%TO.C,R14*%
X31425000Y64300000D03*
X29775000Y64300000D03*
%TD*%
D54*
%TO.C,C25*%
X45660000Y41880000D03*
X45660000Y43430000D03*
%TD*%
D38*
%TO.C,IC3*%
X45389000Y72105000D03*
X45389000Y70835000D03*
X45389000Y69565000D03*
X45389000Y68295000D03*
X50811000Y68295000D03*
X50811000Y69565000D03*
X50811000Y70835000D03*
X50811000Y72105000D03*
%TD*%
D12*
%TO.C,TP27*%
X27800000Y14900000D03*
%TD*%
D21*
%TO.C,R67*%
X68425000Y46450000D03*
X70075000Y46450000D03*
%TD*%
%TO.C,R44*%
X62875000Y50450000D03*
X64525000Y50450000D03*
%TD*%
D37*
%TO.C,C5*%
X20980000Y71000000D03*
X20020000Y71000000D03*
%TD*%
D24*
%TO.C,C27*%
X50720000Y34250000D03*
X51680000Y34250000D03*
%TD*%
D21*
%TO.C,R25*%
X46875960Y52200000D03*
X48525960Y52200000D03*
%TD*%
D38*
%TO.C,IC5*%
X54489000Y50905000D03*
X54489000Y49635000D03*
X54489000Y48365000D03*
X54489000Y47095000D03*
X59911000Y47095000D03*
X59911000Y48365000D03*
X59911000Y49635000D03*
X59911000Y50905000D03*
%TD*%
D39*
%TO.C,R21*%
X35600000Y62025000D03*
X35600000Y60375000D03*
%TD*%
%TO.C,R66*%
X69800000Y32225000D03*
X69800000Y30575000D03*
%TD*%
D12*
%TO.C,TP16*%
X51600000Y43600000D03*
%TD*%
%TO.C,TP10*%
X60650000Y70050000D03*
%TD*%
D35*
%TO.C,C46*%
X65225000Y11200000D03*
X66775000Y11200000D03*
%TD*%
D49*
%TO.C,C7*%
X9675000Y73000000D03*
X8125000Y73000000D03*
%TD*%
D19*
%TO.C,R57*%
X73105000Y49740000D03*
X71455000Y49740000D03*
%TD*%
D23*
%TO.C,Q7*%
X52450960Y53230779D03*
X52450960Y55130779D03*
X50250960Y54180779D03*
%TD*%
D21*
%TO.C,R65*%
X71475000Y45350000D03*
X73125000Y45350000D03*
%TD*%
D38*
%TO.C,IC1*%
X33189000Y67405000D03*
X33189000Y66135000D03*
X33189000Y64865000D03*
X33189000Y63595000D03*
X38611000Y63595000D03*
X38611000Y64865000D03*
X38611000Y66135000D03*
X38611000Y67405000D03*
%TD*%
D67*
%TO.C,FL1*%
X48975000Y25800000D03*
X47625000Y25800000D03*
%TD*%
D60*
%TO.C,J18*%
X9300000Y51200000D03*
%TD*%
M02*
