(kicad_sch (version 20211123) (generator eeschema)

  (uuid c6293e67-6cdd-4536-b65b-5a293d877bc4)

  (paper "A4")

  (lib_symbols
    (symbol "ADCS_IC:FEMTOSMDC016F-2" (pin_names (offset 0.762)) (in_bom yes) (on_board yes)
      (property "Reference" "F" (id 0) (at 13.97 6.35 0)
        (effects (font (size 1.27 1.27)) (justify left))
      )
      (property "Value" "FEMTOSMDC016F-2" (id 1) (at 13.97 3.81 0)
        (effects (font (size 1.27 1.27)) (justify left))
      )
      (property "Footprint" "FUSC1608X85N" (id 2) (at 13.97 1.27 0)
        (effects (font (size 1.27 1.27)) (justify left) hide)
      )
      (property "Datasheet" "https://www.littelfuse.com/~/media/electronics/product_specifications/resettable_ptcs/littelfuse_ptc_femtosmdc005f_2_product_specification.pdf.pdf" (id 3) (at 13.97 -1.27 0)
        (effects (font (size 1.27 1.27)) (justify left) hide)
      )
      (property "Description" "Resettable Fuses - PPTC 9V      .16A-HD  40A MAX" (id 4) (at 13.97 -3.81 0)
        (effects (font (size 1.27 1.27)) (justify left) hide)
      )
      (property "Height" "0.85" (id 5) (at 13.97 -6.35 0)
        (effects (font (size 1.27 1.27)) (justify left) hide)
      )
      (property "Manufacturer_Name" "LITTELFUSE" (id 6) (at 13.97 -8.89 0)
        (effects (font (size 1.27 1.27)) (justify left) hide)
      )
      (property "Manufacturer_Part_Number" "FEMTOSMDC016F-2" (id 7) (at 13.97 -11.43 0)
        (effects (font (size 1.27 1.27)) (justify left) hide)
      )
      (property "Mouser Part Number" "650-FEMTOSMDC016F-2" (id 8) (at 13.97 -13.97 0)
        (effects (font (size 1.27 1.27)) (justify left) hide)
      )
      (property "Mouser Price/Stock" "https://www.mouser.co.uk/ProductDetail/Littelfuse/FEMTOSMDC016F-2?qs=5HUSoMAf2%252BoNWb7nt5%252BK9w%3D%3D" (id 9) (at 13.97 -16.51 0)
        (effects (font (size 1.27 1.27)) (justify left) hide)
      )
      (property "Arrow Part Number" "FEMTOSMDC016F-2" (id 10) (at 13.97 -19.05 0)
        (effects (font (size 1.27 1.27)) (justify left) hide)
      )
      (property "Arrow Price/Stock" "https://www.arrow.com/en/products/femtosmdc016f-2/littelfuse" (id 11) (at 13.97 -21.59 0)
        (effects (font (size 1.27 1.27)) (justify left) hide)
      )
      (property "ki_description" "Resettable Fuses - PPTC 9V      .16A-HD  40A MAX" (id 12) (at 0 0 0)
        (effects (font (size 1.27 1.27)) hide)
      )
      (symbol "FEMTOSMDC016F-2_0_0"
        (pin passive line (at 0 0 0) (length 5.08)
          (name "~" (effects (font (size 1.27 1.27))))
          (number "1" (effects (font (size 1.27 1.27))))
        )
        (pin passive line (at 17.78 0 180) (length 5.08)
          (name "~" (effects (font (size 1.27 1.27))))
          (number "2" (effects (font (size 1.27 1.27))))
        )
      )
      (symbol "FEMTOSMDC016F-2_0_1"
        (polyline
          (pts
            (xy 5.08 0)
            (xy 12.7 0)
          )
          (stroke (width 0.1524) (type default) (color 0 0 0 0))
          (fill (type none))
        )
        (polyline
          (pts
            (xy 5.08 1.27)
            (xy 12.7 1.27)
            (xy 12.7 -1.27)
            (xy 5.08 -1.27)
            (xy 5.08 1.27)
          )
          (stroke (width 0.1524) (type default) (color 0 0 0 0))
          (fill (type none))
        )
      )
    )
    (symbol "Device:C" (pin_numbers hide) (pin_names (offset 0.254)) (in_bom yes) (on_board yes)
      (property "Reference" "C" (id 0) (at 0.635 2.54 0)
        (effects (font (size 1.27 1.27)) (justify left))
      )
      (property "Value" "C" (id 1) (at 0.635 -2.54 0)
        (effects (font (size 1.27 1.27)) (justify left))
      )
      (property "Footprint" "" (id 2) (at 0.9652 -3.81 0)
        (effects (font (size 1.27 1.27)) hide)
      )
      (property "Datasheet" "~" (id 3) (at 0 0 0)
        (effects (font (size 1.27 1.27)) hide)
      )
      (property "ki_keywords" "cap capacitor" (id 4) (at 0 0 0)
        (effects (font (size 1.27 1.27)) hide)
      )
      (property "ki_description" "Unpolarized capacitor" (id 5) (at 0 0 0)
        (effects (font (size 1.27 1.27)) hide)
      )
      (property "ki_fp_filters" "C_*" (id 6) (at 0 0 0)
        (effects (font (size 1.27 1.27)) hide)
      )
      (symbol "C_0_1"
        (polyline
          (pts
            (xy -2.032 -0.762)
            (xy 2.032 -0.762)
          )
          (stroke (width 0.508) (type default) (color 0 0 0 0))
          (fill (type none))
        )
        (polyline
          (pts
            (xy -2.032 0.762)
            (xy 2.032 0.762)
          )
          (stroke (width 0.508) (type default) (color 0 0 0 0))
          (fill (type none))
        )
      )
      (symbol "C_1_1"
        (pin passive line (at 0 3.81 270) (length 2.794)
          (name "~" (effects (font (size 1.27 1.27))))
          (number "1" (effects (font (size 1.27 1.27))))
        )
        (pin passive line (at 0 -3.81 90) (length 2.794)
          (name "~" (effects (font (size 1.27 1.27))))
          (number "2" (effects (font (size 1.27 1.27))))
        )
      )
    )
    (symbol "Device:R" (pin_numbers hide) (pin_names (offset 0)) (in_bom yes) (on_board yes)
      (property "Reference" "R" (id 0) (at 2.032 0 90)
        (effects (font (size 1.27 1.27)))
      )
      (property "Value" "R" (id 1) (at 0 0 90)
        (effects (font (size 1.27 1.27)))
      )
      (property "Footprint" "" (id 2) (at -1.778 0 90)
        (effects (font (size 1.27 1.27)) hide)
      )
      (property "Datasheet" "~" (id 3) (at 0 0 0)
        (effects (font (size 1.27 1.27)) hide)
      )
      (property "ki_keywords" "R res resistor" (id 4) (at 0 0 0)
        (effects (font (size 1.27 1.27)) hide)
      )
      (property "ki_description" "Resistor" (id 5) (at 0 0 0)
        (effects (font (size 1.27 1.27)) hide)
      )
      (property "ki_fp_filters" "R_*" (id 6) (at 0 0 0)
        (effects (font (size 1.27 1.27)) hide)
      )
      (symbol "R_0_1"
        (rectangle (start -1.016 -2.54) (end 1.016 2.54)
          (stroke (width 0.254) (type default) (color 0 0 0 0))
          (fill (type none))
        )
      )
      (symbol "R_1_1"
        (pin passive line (at 0 3.81 270) (length 1.27)
          (name "~" (effects (font (size 1.27 1.27))))
          (number "1" (effects (font (size 1.27 1.27))))
        )
        (pin passive line (at 0 -3.81 90) (length 1.27)
          (name "~" (effects (font (size 1.27 1.27))))
          (number "2" (effects (font (size 1.27 1.27))))
        )
      )
    )
    (symbol "MISC:TCAN337GD" (pin_names (offset 0.762)) (in_bom yes) (on_board yes)
      (property "Reference" "U" (id 0) (at 24.13 7.62 0)
        (effects (font (size 1.27 1.27)) (justify left))
      )
      (property "Value" "TCAN337GD" (id 1) (at 24.13 5.08 0)
        (effects (font (size 1.27 1.27)) (justify left))
      )
      (property "Footprint" "SOIC127P600X175-8N" (id 2) (at 24.13 2.54 0)
        (effects (font (size 1.27 1.27)) (justify left) hide)
      )
      (property "Datasheet" "https://www.arrow.com/en/products/tcan337gd/texas-instruments" (id 3) (at 24.13 0 0)
        (effects (font (size 1.27 1.27)) (justify left) hide)
      )
      (property "Description" "CAN Interface IC" (id 4) (at 24.13 -2.54 0)
        (effects (font (size 1.27 1.27)) (justify left) hide)
      )
      (property "Height" "1.75" (id 5) (at 24.13 -5.08 0)
        (effects (font (size 1.27 1.27)) (justify left) hide)
      )
      (property "Mouser Part Number" "595-TCAN337GD" (id 6) (at 24.13 -7.62 0)
        (effects (font (size 1.27 1.27)) (justify left) hide)
      )
      (property "Mouser Price/Stock" "https://www.mouser.com/Search/Refine.aspx?Keyword=595-TCAN337GD" (id 7) (at 24.13 -10.16 0)
        (effects (font (size 1.27 1.27)) (justify left) hide)
      )
      (property "Manufacturer_Name" "Texas Instruments" (id 8) (at 24.13 -12.7 0)
        (effects (font (size 1.27 1.27)) (justify left) hide)
      )
      (property "Manufacturer_Part_Number" "TCAN337GD" (id 9) (at 24.13 -15.24 0)
        (effects (font (size 1.27 1.27)) (justify left) hide)
      )
      (property "ki_description" "CAN Interface IC" (id 10) (at 0 0 0)
        (effects (font (size 1.27 1.27)) hide)
      )
      (symbol "TCAN337GD_0_0"
        (pin passive line (at 0 0 0) (length 5.08)
          (name "TXD" (effects (font (size 1.27 1.27))))
          (number "1" (effects (font (size 1.27 1.27))))
        )
        (pin passive line (at 0 -2.54 0) (length 5.08)
          (name "GND" (effects (font (size 1.27 1.27))))
          (number "2" (effects (font (size 1.27 1.27))))
        )
        (pin passive line (at 0 -5.08 0) (length 5.08)
          (name "VCC" (effects (font (size 1.27 1.27))))
          (number "3" (effects (font (size 1.27 1.27))))
        )
        (pin passive line (at 0 -7.62 0) (length 5.08)
          (name "RXD" (effects (font (size 1.27 1.27))))
          (number "4" (effects (font (size 1.27 1.27))))
        )
        (pin passive line (at 27.94 -7.62 180) (length 5.08)
          (name "FAULT" (effects (font (size 1.27 1.27))))
          (number "5" (effects (font (size 1.27 1.27))))
        )
        (pin passive line (at 27.94 -5.08 180) (length 5.08)
          (name "CANL" (effects (font (size 1.27 1.27))))
          (number "6" (effects (font (size 1.27 1.27))))
        )
        (pin passive line (at 27.94 -2.54 180) (length 5.08)
          (name "CANH" (effects (font (size 1.27 1.27))))
          (number "7" (effects (font (size 1.27 1.27))))
        )
        (pin passive line (at 27.94 0 180) (length 5.08)
          (name "S" (effects (font (size 1.27 1.27))))
          (number "8" (effects (font (size 1.27 1.27))))
        )
      )
      (symbol "TCAN337GD_0_1"
        (polyline
          (pts
            (xy 5.08 2.54)
            (xy 22.86 2.54)
            (xy 22.86 -10.16)
            (xy 5.08 -10.16)
            (xy 5.08 2.54)
          )
          (stroke (width 0.1524) (type default) (color 0 0 0 0))
          (fill (type none))
        )
      )
    )
    (symbol "OBC_PASSIVE:GCM155R71H104KE02J" (pin_names (offset 0.762)) (in_bom yes) (on_board yes)
      (property "Reference" "C" (id 0) (at 8.89 6.35 0)
        (effects (font (size 1.27 1.27)) (justify left))
      )
      (property "Value" "GCM155R71H104KE02J" (id 1) (at 8.89 3.81 0)
        (effects (font (size 1.27 1.27)) (justify left))
      )
      (property "Footprint" "CAPC1005X55N" (id 2) (at 8.89 1.27 0)
        (effects (font (size 1.27 1.27)) (justify left) hide)
      )
      (property "Datasheet" "https://psearch.en.murata.com/capacitor/product/GCM155R71H104KE02%23.html" (id 3) (at 8.89 -1.27 0)
        (effects (font (size 1.27 1.27)) (justify left) hide)
      )
      (property "Description" "Capacitor GCM15 L=1.0mm W=0.5mm T=0.5mm" (id 4) (at 8.89 -3.81 0)
        (effects (font (size 1.27 1.27)) (justify left) hide)
      )
      (property "Height" "0.55" (id 5) (at 8.89 -6.35 0)
        (effects (font (size 1.27 1.27)) (justify left) hide)
      )
      (property "Mouser Part Number" "81-GCM155R71H104KE2J" (id 6) (at 8.89 -8.89 0)
        (effects (font (size 1.27 1.27)) (justify left) hide)
      )
      (property "Mouser Price/Stock" "https://www.mouser.co.uk/ProductDetail/Murata-Electronics/GCM155R71H104KE02J?qs=hNud%2FORuBR1wlwGPFWBVDg%3D%3D" (id 7) (at 8.89 -11.43 0)
        (effects (font (size 1.27 1.27)) (justify left) hide)
      )
      (property "Manufacturer_Name" "Murata Electronics" (id 8) (at 8.89 -13.97 0)
        (effects (font (size 1.27 1.27)) (justify left) hide)
      )
      (property "Manufacturer_Part_Number" "GCM155R71H104KE02J" (id 9) (at 8.89 -16.51 0)
        (effects (font (size 1.27 1.27)) (justify left) hide)
      )
      (property "ki_description" "Capacitor GCM15 L=1.0mm W=0.5mm T=0.5mm" (id 10) (at 0 0 0)
        (effects (font (size 1.27 1.27)) hide)
      )
      (symbol "GCM155R71H104KE02J_0_0"
        (pin passive line (at 0 0 0) (length 5.08)
          (name "~" (effects (font (size 1.27 1.27))))
          (number "1" (effects (font (size 1.27 1.27))))
        )
        (pin passive line (at 12.7 0 180) (length 5.08)
          (name "~" (effects (font (size 1.27 1.27))))
          (number "2" (effects (font (size 1.27 1.27))))
        )
      )
      (symbol "GCM155R71H104KE02J_0_1"
        (polyline
          (pts
            (xy 5.08 0)
            (xy 5.588 0)
          )
          (stroke (width 0.1524) (type default) (color 0 0 0 0))
          (fill (type none))
        )
        (polyline
          (pts
            (xy 5.588 2.54)
            (xy 5.588 -2.54)
          )
          (stroke (width 0.1524) (type default) (color 0 0 0 0))
          (fill (type none))
        )
        (polyline
          (pts
            (xy 7.112 0)
            (xy 7.62 0)
          )
          (stroke (width 0.1524) (type default) (color 0 0 0 0))
          (fill (type none))
        )
        (polyline
          (pts
            (xy 7.112 2.54)
            (xy 7.112 -2.54)
          )
          (stroke (width 0.1524) (type default) (color 0 0 0 0))
          (fill (type none))
        )
      )
    )
    (symbol "power:GND" (power) (pin_names (offset 0)) (in_bom yes) (on_board yes)
      (property "Reference" "#PWR" (id 0) (at 0 -6.35 0)
        (effects (font (size 1.27 1.27)) hide)
      )
      (property "Value" "GND" (id 1) (at 0 -3.81 0)
        (effects (font (size 1.27 1.27)))
      )
      (property "Footprint" "" (id 2) (at 0 0 0)
        (effects (font (size 1.27 1.27)) hide)
      )
      (property "Datasheet" "" (id 3) (at 0 0 0)
        (effects (font (size 1.27 1.27)) hide)
      )
      (property "ki_keywords" "power-flag" (id 4) (at 0 0 0)
        (effects (font (size 1.27 1.27)) hide)
      )
      (property "ki_description" "Power symbol creates a global label with name \"GND\" , ground" (id 5) (at 0 0 0)
        (effects (font (size 1.27 1.27)) hide)
      )
      (symbol "GND_0_1"
        (polyline
          (pts
            (xy 0 0)
            (xy 0 -1.27)
            (xy 1.27 -1.27)
            (xy 0 -2.54)
            (xy -1.27 -1.27)
            (xy 0 -1.27)
          )
          (stroke (width 0) (type default) (color 0 0 0 0))
          (fill (type none))
        )
      )
      (symbol "GND_1_1"
        (pin power_in line (at 0 0 270) (length 0) hide
          (name "GND" (effects (font (size 1.27 1.27))))
          (number "1" (effects (font (size 1.27 1.27))))
        )
      )
    )
  )

  (junction (at 190.5 110.49) (diameter 0) (color 0 0 0 0)
    (uuid 10e360ca-9bea-4ec0-964e-2fe719fe7b7d)
  )
  (junction (at 190.5 97.79) (diameter 0) (color 0 0 0 0)
    (uuid 17644982-8000-41b6-8888-779636f4adac)
  )
  (junction (at 201.93 110.49) (diameter 0) (color 0 0 0 0)
    (uuid 2140b6e5-9add-4e82-8921-4a9b9c372c7c)
  )
  (junction (at 201.93 97.79) (diameter 0) (color 0 0 0 0)
    (uuid 423ac481-f9a3-4484-a134-4c9c1b6b318f)
  )
  (junction (at 88.9 96.52) (diameter 0) (color 0 0 0 0)
    (uuid 66599d3b-f5bf-4be3-942b-f5975cf81f7f)
  )
  (junction (at 240.03 100.33) (diameter 0) (color 0 0 0 0)
    (uuid 6afcbd10-ae70-4b10-bd62-3544a657b11b)
  )
  (junction (at 77.47 96.52) (diameter 0) (color 0 0 0 0)
    (uuid a3279d11-2898-406f-bee7-c916b0881c10)
  )
  (junction (at 127 99.06) (diameter 0) (color 0 0 0 0)
    (uuid a9df9429-3e6b-4eb1-926f-fa04ac4cca1d)
  )
  (junction (at 77.47 109.22) (diameter 0) (color 0 0 0 0)
    (uuid d65ce73d-dca5-4526-8bd2-8d58c31db4e3)
  )
  (junction (at 88.9 109.22) (diameter 0) (color 0 0 0 0)
    (uuid f3d48bd1-a6fb-498e-b6db-3906a1115b3d)
  )

  (wire (pts (xy 127 101.6) (xy 129.54 101.6))
    (stroke (width 0) (type default) (color 0 0 0 0))
    (uuid 0070b06b-fa19-4b97-a031-c2bc1c4129e9)
  )
  (wire (pts (xy 242.57 107.95) (xy 240.03 107.95))
    (stroke (width 0) (type default) (color 0 0 0 0))
    (uuid 0410651a-0ddc-4558-8eab-a12ab8201c62)
  )
  (wire (pts (xy 88.9 109.22) (xy 77.47 109.22))
    (stroke (width 0) (type default) (color 0 0 0 0))
    (uuid 09b6ce85-b194-4a58-ab17-0487565cefc4)
  )
  (wire (pts (xy 74.93 96.52) (xy 77.47 96.52))
    (stroke (width 0) (type default) (color 0 0 0 0))
    (uuid 0af8a0ef-6a90-40a2-a847-3e616ab6c9f7)
  )
  (wire (pts (xy 240.03 102.87) (xy 242.57 102.87))
    (stroke (width 0) (type default) (color 0 0 0 0))
    (uuid 154c129d-4497-440d-8ea6-3a3751936100)
  )
  (wire (pts (xy 208.28 110.49) (xy 201.93 110.49))
    (stroke (width 0) (type default) (color 0 0 0 0))
    (uuid 15a2e22f-6f3e-4052-a278-f7cdc8a43ee9)
  )
  (wire (pts (xy 177.8 113.03) (xy 212.09 113.03))
    (stroke (width 0) (type default) (color 0 0 0 0))
    (uuid 189ca0df-7889-48ad-a7bc-d3bad545e49e)
  )
  (wire (pts (xy 190.5 97.79) (xy 190.5 100.33))
    (stroke (width 0) (type default) (color 0 0 0 0))
    (uuid 30ade601-8aff-4f16-8eb3-2e9671d2e813)
  )
  (wire (pts (xy 208.28 102.87) (xy 208.28 97.79))
    (stroke (width 0) (type default) (color 0 0 0 0))
    (uuid 31458a79-338e-4b5a-99c6-8decaa71cc5e)
  )
  (wire (pts (xy 55.88 96.52) (xy 57.15 96.52))
    (stroke (width 0) (type default) (color 0 0 0 0))
    (uuid 319023b4-1497-4471-a028-5334c694e19a)
  )
  (wire (pts (xy 212.09 102.87) (xy 208.28 102.87))
    (stroke (width 0) (type default) (color 0 0 0 0))
    (uuid 3245d30f-9f60-43cd-945d-19cb1850cf0b)
  )
  (wire (pts (xy 77.47 109.22) (xy 72.39 109.22))
    (stroke (width 0) (type default) (color 0 0 0 0))
    (uuid 3c6fdbec-80d4-4412-aa88-348c7ae16d68)
  )
  (wire (pts (xy 127 104.14) (xy 129.54 104.14))
    (stroke (width 0) (type default) (color 0 0 0 0))
    (uuid 43e94a56-bf3f-43b6-8996-4b82da190541)
  )
  (wire (pts (xy 95.25 104.14) (xy 95.25 109.22))
    (stroke (width 0) (type default) (color 0 0 0 0))
    (uuid 4a90e957-c178-4ccf-8cf6-6133fea9dde5)
  )
  (wire (pts (xy 201.93 110.49) (xy 190.5 110.49))
    (stroke (width 0) (type default) (color 0 0 0 0))
    (uuid 522809e3-cfde-4a8d-ae93-8b8b06a288ea)
  )
  (wire (pts (xy 190.5 107.95) (xy 190.5 110.49))
    (stroke (width 0) (type default) (color 0 0 0 0))
    (uuid 5a20406b-07fb-4d6a-b9fd-cc6e097e66ec)
  )
  (wire (pts (xy 77.47 96.52) (xy 77.47 99.06))
    (stroke (width 0) (type default) (color 0 0 0 0))
    (uuid 60c3cc07-2386-45a9-bd66-c863b9f22855)
  )
  (wire (pts (xy 240.03 105.41) (xy 242.57 105.41))
    (stroke (width 0) (type default) (color 0 0 0 0))
    (uuid 615d5b17-aed0-4143-a659-6473173e46b7)
  )
  (wire (pts (xy 212.09 88.9) (xy 212.09 100.33))
    (stroke (width 0) (type default) (color 0 0 0 0))
    (uuid 88d77644-bc11-4a17-a256-528410083a35)
  )
  (wire (pts (xy 95.25 96.52) (xy 88.9 96.52))
    (stroke (width 0) (type default) (color 0 0 0 0))
    (uuid 8fc356f1-9a84-4493-9041-47eabe67e89d)
  )
  (wire (pts (xy 95.25 101.6) (xy 95.25 96.52))
    (stroke (width 0) (type default) (color 0 0 0 0))
    (uuid 9389a89c-d2e0-43f9-83f1-16915eca2218)
  )
  (wire (pts (xy 99.06 104.14) (xy 95.25 104.14))
    (stroke (width 0) (type default) (color 0 0 0 0))
    (uuid 975a2a56-2de8-4bc0-9cdc-6454c6ba35f0)
  )
  (wire (pts (xy 212.09 105.41) (xy 208.28 105.41))
    (stroke (width 0) (type default) (color 0 0 0 0))
    (uuid a0b76120-bcdd-4b52-bb2a-6cb41a3c38da)
  )
  (wire (pts (xy 99.06 101.6) (xy 95.25 101.6))
    (stroke (width 0) (type default) (color 0 0 0 0))
    (uuid a0e050ee-4742-4644-8d6f-b441e411e2c7)
  )
  (wire (pts (xy 208.28 97.79) (xy 201.93 97.79))
    (stroke (width 0) (type default) (color 0 0 0 0))
    (uuid a0f7e479-8760-44bf-bcd5-8f59965c582b)
  )
  (wire (pts (xy 64.77 87.63) (xy 99.06 87.63))
    (stroke (width 0) (type default) (color 0 0 0 0))
    (uuid b39d78de-c262-4ea3-a4c2-82c0b963b732)
  )
  (wire (pts (xy 208.28 105.41) (xy 208.28 110.49))
    (stroke (width 0) (type default) (color 0 0 0 0))
    (uuid b4f89a20-f490-4627-9ded-79bf39bc8bca)
  )
  (wire (pts (xy 190.5 110.49) (xy 185.42 110.49))
    (stroke (width 0) (type default) (color 0 0 0 0))
    (uuid b7d3bbf6-2c3f-46a3-b1ac-dbc59f4166d6)
  )
  (wire (pts (xy 177.8 88.9) (xy 212.09 88.9))
    (stroke (width 0) (type default) (color 0 0 0 0))
    (uuid b94e3c50-dacf-4b6f-9acf-c068e813c8e0)
  )
  (wire (pts (xy 242.57 100.33) (xy 240.03 100.33))
    (stroke (width 0) (type default) (color 0 0 0 0))
    (uuid bd282785-df53-4499-b2a4-7aacc3f8af92)
  )
  (wire (pts (xy 129.54 106.68) (xy 127 106.68))
    (stroke (width 0) (type default) (color 0 0 0 0))
    (uuid c2bf3823-ec46-45e1-a56e-f0bd946a080a)
  )
  (wire (pts (xy 187.96 97.79) (xy 190.5 97.79))
    (stroke (width 0) (type default) (color 0 0 0 0))
    (uuid c9eea055-1290-4863-88a2-c85b62ca6757)
  )
  (wire (pts (xy 77.47 96.52) (xy 88.9 96.52))
    (stroke (width 0) (type default) (color 0 0 0 0))
    (uuid cc7cb21b-ea50-4d5f-a81b-01dc40d173f1)
  )
  (wire (pts (xy 190.5 97.79) (xy 201.93 97.79))
    (stroke (width 0) (type default) (color 0 0 0 0))
    (uuid d03d8dd9-edf2-4d90-a409-2c3ac2e8dea0)
  )
  (wire (pts (xy 95.25 109.22) (xy 88.9 109.22))
    (stroke (width 0) (type default) (color 0 0 0 0))
    (uuid d7c0142e-139f-4af9-b66b-c969b7ac2f6f)
  )
  (wire (pts (xy 99.06 111.76) (xy 99.06 106.68))
    (stroke (width 0) (type default) (color 0 0 0 0))
    (uuid e3b6bfda-ec41-4369-9e33-7bc94b1cfd2a)
  )
  (wire (pts (xy 212.09 113.03) (xy 212.09 107.95))
    (stroke (width 0) (type default) (color 0 0 0 0))
    (uuid e5bbcf80-401f-4945-b586-ef264665ce64)
  )
  (wire (pts (xy 77.47 106.68) (xy 77.47 109.22))
    (stroke (width 0) (type default) (color 0 0 0 0))
    (uuid e76c2534-4709-47f7-9cca-f72d2f0ee898)
  )
  (wire (pts (xy 64.77 111.76) (xy 99.06 111.76))
    (stroke (width 0) (type default) (color 0 0 0 0))
    (uuid e936b2a4-d089-4b84-a2c2-6d2986071c81)
  )
  (wire (pts (xy 99.06 87.63) (xy 99.06 99.06))
    (stroke (width 0) (type default) (color 0 0 0 0))
    (uuid f7034ece-a155-4f87-a9b6-62d9df3d0dcb)
  )
  (wire (pts (xy 129.54 99.06) (xy 127 99.06))
    (stroke (width 0) (type default) (color 0 0 0 0))
    (uuid ff8f2e04-4be4-49be-80e9-5945354298a0)
  )

  (text "Redundant" (at 161.29 82.55 0)
    (effects (font (size 1.27 1.27)) (justify left bottom))
    (uuid 008826a6-92ed-4afe-ba27-0e97359d4d03)
  )
  (text "Main" (at 48.26 81.28 0)
    (effects (font (size 1.27 1.27)) (justify left bottom))
    (uuid 77fab459-72b1-48e1-9437-9db99e5d1ec9)
  )
  (text "NOTE: 120 Ω terminating resistors\nto be placed at bus ends\n(COMMS-SU tentative)"
    (at 46.99 71.12 0)
    (effects (font (size 1.27 1.27)) (justify left bottom))
    (uuid c710d350-851e-43e5-aae1-4f29cc4c7a09)
  )

  (global_label "CAN2-" (shape bidirectional) (at 242.57 102.87 0) (fields_autoplaced)
    (effects (font (size 1.27 1.27)) (justify left))
    (uuid 3b9a16b9-30f3-47a4-8589-96745e7f1c6e)
    (property "Intersheet References" "${INTERSHEET_REFS}" (id 0) (at 251.3652 102.7906 0)
      (effects (font (size 1.27 1.27)) (justify left) hide)
    )
  )
  (global_label "CAN2+" (shape bidirectional) (at 242.57 105.41 0) (fields_autoplaced)
    (effects (font (size 1.27 1.27)) (justify left))
    (uuid 4d468837-198e-4b78-bac5-52290b844e2f)
    (property "Intersheet References" "${INTERSHEET_REFS}" (id 0) (at 251.3652 105.3306 0)
      (effects (font (size 1.27 1.27)) (justify left) hide)
    )
  )
  (global_label "CAN1-" (shape bidirectional) (at 129.54 101.6 0) (fields_autoplaced)
    (effects (font (size 1.27 1.27)) (justify left))
    (uuid 5f0eddda-7d97-4404-9fa5-5248e2e599ab)
    (property "Intersheet References" "${INTERSHEET_REFS}" (id 0) (at 138.3352 101.5206 0)
      (effects (font (size 1.27 1.27)) (justify left) hide)
    )
  )
  (global_label "CAN1+" (shape bidirectional) (at 129.54 104.14 0) (fields_autoplaced)
    (effects (font (size 1.27 1.27)) (justify left))
    (uuid 8654e00e-7470-497f-a285-5e6d54d4cdcc)
    (property "Intersheet References" "${INTERSHEET_REFS}" (id 0) (at 138.3352 104.0606 0)
      (effects (font (size 1.27 1.27)) (justify left) hide)
    )
  )

  (hierarchical_label "CAN_TRX_FUSE_2" (shape output) (at 201.93 97.79 90)
    (effects (font (size 1.27 1.27)) (justify left))
    (uuid 0ab07786-e0f0-4a46-bcee-18a7570ce21d)
  )
  (hierarchical_label "VCC" (shape input) (at 170.18 97.79 180)
    (effects (font (size 1.27 1.27)) (justify right))
    (uuid 140b493c-42d3-4d7e-bbea-d5388affae72)
  )
  (hierarchical_label "CAN_TRX_FUSE_1" (shape output) (at 88.9 96.52 90)
    (effects (font (size 1.27 1.27)) (justify left))
    (uuid 29bf48bb-c688-465e-b165-f687a18f1f34)
  )
  (hierarchical_label "FAULT_MAIN" (shape output) (at 129.54 99.06 0)
    (effects (font (size 1.27 1.27)) (justify left))
    (uuid 2f40bc95-147a-4324-b721-56d2dc4e2a60)
  )
  (hierarchical_label "CAN_TX_BKUP" (shape input) (at 177.8 113.03 180)
    (effects (font (size 1.27 1.27)) (justify right))
    (uuid 3176b4bd-b113-428c-8a5d-1822ef6de72a)
  )
  (hierarchical_label "CAN_RX_BKUP" (shape output) (at 177.8 88.9 180)
    (effects (font (size 1.27 1.27)) (justify right))
    (uuid 347ab3f3-542b-4e82-96b1-dccde68f0300)
  )
  (hierarchical_label "VCC" (shape input) (at 240.03 92.71 90)
    (effects (font (size 1.27 1.27)) (justify left))
    (uuid 39f9ae6a-a4de-410d-9593-af4d8d67ed3f)
  )
  (hierarchical_label "CAN_TX_MAIN" (shape input) (at 64.77 111.76 180)
    (effects (font (size 1.27 1.27)) (justify right))
    (uuid 65799a7b-211a-4792-96f5-fb8b1d8aa748)
  )
  (hierarchical_label "FAULT_BKUP" (shape output) (at 242.57 100.33 0)
    (effects (font (size 1.27 1.27)) (justify left))
    (uuid 702f877d-2a59-4c9c-825b-06b691e96bd7)
  )
  (hierarchical_label "VCC" (shape input) (at 55.88 96.52 180)
    (effects (font (size 1.27 1.27)) (justify right))
    (uuid 8f8c131b-1142-496f-8932-0549daef4fcf)
  )
  (hierarchical_label "CAN_RX_MAIN" (shape output) (at 64.77 87.63 180)
    (effects (font (size 1.27 1.27)) (justify right))
    (uuid 8fa55f89-ac50-42dd-b890-bc3eba83fef8)
  )
  (hierarchical_label "SILENT_MAIN" (shape input) (at 129.54 106.68 0)
    (effects (font (size 1.27 1.27)) (justify left))
    (uuid a4b5625b-50fb-47ab-9699-31a7c03f915f)
  )
  (hierarchical_label "VCC" (shape input) (at 127 91.44 90)
    (effects (font (size 1.27 1.27)) (justify left))
    (uuid b09598df-07af-4a0b-8f38-d389e5136c9e)
  )
  (hierarchical_label "SILENT_BKUP" (shape input) (at 242.57 107.95 0)
    (effects (font (size 1.27 1.27)) (justify left))
    (uuid be2603b6-cad0-44fb-9747-c272b3dce3d5)
  )

  (symbol (lib_id "MISC:TCAN337GD") (at 212.09 107.95 0) (mirror x) (unit 1)
    (in_bom yes) (on_board yes)
    (uuid 200b0542-fa08-4512-97a9-d50080462eae)
    (property "Reference" "U11" (id 0) (at 226.06 114.681 0))
    (property "Value" "TCAN337GD" (id 1) (at 226.06 112.3696 0))
    (property "Footprint" "MISC:TCAN337GDR" (id 2) (at 236.22 110.49 0)
      (effects (font (size 1.27 1.27)) (justify left) hide)
    )
    (property "Datasheet" "https://www.arrow.com/en/products/tcan337gd/texas-instruments" (id 3) (at 236.22 107.95 0)
      (effects (font (size 1.27 1.27)) (justify left) hide)
    )
    (property "Description" "CAN Interface IC" (id 4) (at 236.22 105.41 0)
      (effects (font (size 1.27 1.27)) (justify left) hide)
    )
    (property "Height" "1.75" (id 5) (at 236.22 102.87 0)
      (effects (font (size 1.27 1.27)) (justify left) hide)
    )
    (property "Mouser Part Number" "595-TCAN337GD" (id 6) (at 236.22 100.33 0)
      (effects (font (size 1.27 1.27)) (justify left) hide)
    )
    (property "Mouser Price/Stock" "https://www.mouser.com/Search/Refine.aspx?Keyword=595-TCAN337GD" (id 7) (at 236.22 97.79 0)
      (effects (font (size 1.27 1.27)) (justify left) hide)
    )
    (property "Manufacturer_Name" "Texas Instruments" (id 8) (at 236.22 95.25 0)
      (effects (font (size 1.27 1.27)) (justify left) hide)
    )
    (property "Manufacturer_Part_Number" "TCAN337GD" (id 9) (at 236.22 92.71 0)
      (effects (font (size 1.27 1.27)) (justify left) hide)
    )
    (pin "1" (uuid ecc53ab9-96bf-4085-b1b0-4d79813f65f5))
    (pin "2" (uuid 5ec3ce8c-1cdf-4a3b-8ede-a9d4a1104081))
    (pin "3" (uuid 65ae7ef5-2117-4677-a5a9-57d8808a4329))
    (pin "4" (uuid a9f7857e-9bce-4f66-8325-6894ed0d9d07))
    (pin "5" (uuid 1f758545-fa5d-4fc8-8083-2bed88b65b1c))
    (pin "6" (uuid cf380c03-b327-430d-9406-da32243a0c23))
    (pin "7" (uuid 00463fbf-0efc-4ee0-bd82-db8639dc1c43))
    (pin "8" (uuid 0fce6bf5-28b4-4db7-8309-e2d18041b7ae))
  )

  (symbol (lib_id "Device:R") (at 127 95.25 0) (unit 1)
    (in_bom yes) (on_board yes)
    (uuid 54c66847-9235-4343-92b1-d1db6753d186)
    (property "Reference" "R122" (id 0) (at 128.778 94.0816 0)
      (effects (font (size 1.27 1.27)) (justify left))
    )
    (property "Value" "100K" (id 1) (at 128.778 96.393 0)
      (effects (font (size 1.27 1.27)) (justify left))
    )
    (property "Footprint" "Resistor_SMD:R_0402_1005Metric" (id 2) (at 125.222 95.25 90)
      (effects (font (size 1.27 1.27)) hide)
    )
    (property "Datasheet" "~" (id 3) (at 127 95.25 0)
      (effects (font (size 1.27 1.27)) hide)
    )
    (pin "1" (uuid c4f7c677-d028-4857-be60-abe73e2936f9))
    (pin "2" (uuid 10268a48-4d2c-450c-9666-aad9abd75dbb))
  )

  (symbol (lib_id "power:GND") (at 72.39 109.22 270) (mirror x) (unit 1)
    (in_bom yes) (on_board yes)
    (uuid 615f69e6-8cf1-43fa-95c2-755c8738f4df)
    (property "Reference" "#PWR0144" (id 0) (at 66.04 109.22 0)
      (effects (font (size 1.27 1.27)) hide)
    )
    (property "Value" "GND" (id 1) (at 67.31 109.22 90))
    (property "Footprint" "" (id 2) (at 72.39 109.22 0)
      (effects (font (size 1.27 1.27)) hide)
    )
    (property "Datasheet" "" (id 3) (at 72.39 109.22 0)
      (effects (font (size 1.27 1.27)) hide)
    )
    (pin "1" (uuid 03910e18-5f99-4674-b8af-204dd40fb4f9))
  )

  (symbol (lib_id "MISC:TCAN337GD") (at 99.06 106.68 0) (mirror x) (unit 1)
    (in_bom yes) (on_board yes)
    (uuid 6cfb4d14-56ab-400d-a0ff-d499e0b0a00d)
    (property "Reference" "U10" (id 0) (at 113.03 113.411 0))
    (property "Value" "TCAN337GD" (id 1) (at 113.03 111.0996 0))
    (property "Footprint" "MISC:TCAN337GDR" (id 2) (at 123.19 109.22 0)
      (effects (font (size 1.27 1.27)) (justify left) hide)
    )
    (property "Datasheet" "https://www.arrow.com/en/products/tcan337gd/texas-instruments" (id 3) (at 123.19 106.68 0)
      (effects (font (size 1.27 1.27)) (justify left) hide)
    )
    (property "Description" "CAN Interface IC" (id 4) (at 123.19 104.14 0)
      (effects (font (size 1.27 1.27)) (justify left) hide)
    )
    (property "Height" "1.75" (id 5) (at 123.19 101.6 0)
      (effects (font (size 1.27 1.27)) (justify left) hide)
    )
    (property "Mouser Part Number" "595-TCAN337GD" (id 6) (at 123.19 99.06 0)
      (effects (font (size 1.27 1.27)) (justify left) hide)
    )
    (property "Mouser Price/Stock" "https://www.mouser.com/Search/Refine.aspx?Keyword=595-TCAN337GD" (id 7) (at 123.19 96.52 0)
      (effects (font (size 1.27 1.27)) (justify left) hide)
    )
    (property "Manufacturer_Name" "Texas Instruments" (id 8) (at 123.19 93.98 0)
      (effects (font (size 1.27 1.27)) (justify left) hide)
    )
    (property "Manufacturer_Part_Number" "TCAN337GD" (id 9) (at 123.19 91.44 0)
      (effects (font (size 1.27 1.27)) (justify left) hide)
    )
    (pin "1" (uuid 8fffd86c-e937-4d43-8ed0-85b04b7386f2))
    (pin "2" (uuid 1ca393af-1a65-4dab-a332-5df303f22329))
    (pin "3" (uuid 3afaede0-fe15-41cb-bd61-9e062b40b56e))
    (pin "4" (uuid dff25131-19eb-45c0-8ed5-ce5a4c2831fd))
    (pin "5" (uuid 91c39f6d-039a-4c1a-b895-057447e6a7c7))
    (pin "6" (uuid bbde2c02-ea45-4835-952e-3ee6532c0cf4))
    (pin "7" (uuid 78438dde-cc36-4808-ad36-e725487ba04b))
    (pin "8" (uuid 682341b9-70fc-4d86-99f6-cfbb573fa6f2))
  )

  (symbol (lib_id "power:GND") (at 185.42 110.49 270) (mirror x) (unit 1)
    (in_bom yes) (on_board yes)
    (uuid 82276f43-c9a8-4766-b46f-863bbe12ad91)
    (property "Reference" "#PWR0145" (id 0) (at 179.07 110.49 0)
      (effects (font (size 1.27 1.27)) hide)
    )
    (property "Value" "GND" (id 1) (at 180.34 110.49 90))
    (property "Footprint" "" (id 2) (at 185.42 110.49 0)
      (effects (font (size 1.27 1.27)) hide)
    )
    (property "Datasheet" "" (id 3) (at 185.42 110.49 0)
      (effects (font (size 1.27 1.27)) hide)
    )
    (pin "1" (uuid acc6d343-b6cd-4762-a2a2-6357739e9983))
  )

  (symbol (lib_id "ADCS_IC:FEMTOSMDC016F-2") (at 57.15 96.52 0) (unit 1)
    (in_bom yes) (on_board yes) (fields_autoplaced)
    (uuid 94b5378e-6e41-4c86-a5c7-252af6f8a35b)
    (property "Reference" "F6" (id 0) (at 66.04 90.17 0))
    (property "Value" "FEMTOSMDC016F-2" (id 1) (at 66.04 92.71 0))
    (property "Footprint" "ADCS_IC:FUSC1608X85N" (id 2) (at 71.12 95.25 0)
      (effects (font (size 1.27 1.27)) (justify left) hide)
    )
    (property "Datasheet" "https://www.littelfuse.com/~/media/electronics/product_specifications/resettable_ptcs/littelfuse_ptc_femtosmdc005f_2_product_specification.pdf.pdf" (id 3) (at 71.12 97.79 0)
      (effects (font (size 1.27 1.27)) (justify left) hide)
    )
    (property "Description" "Resettable Fuses - PPTC 9V      .16A-HD  40A MAX" (id 4) (at 71.12 100.33 0)
      (effects (font (size 1.27 1.27)) (justify left) hide)
    )
    (property "Height" "0.85" (id 5) (at 71.12 102.87 0)
      (effects (font (size 1.27 1.27)) (justify left) hide)
    )
    (property "Manufacturer_Name" "LITTELFUSE" (id 6) (at 71.12 105.41 0)
      (effects (font (size 1.27 1.27)) (justify left) hide)
    )
    (property "Manufacturer_Part_Number" "FEMTOSMDC016F-2" (id 7) (at 71.12 107.95 0)
      (effects (font (size 1.27 1.27)) (justify left) hide)
    )
    (property "Mouser Part Number" "650-FEMTOSMDC016F-2" (id 8) (at 71.12 110.49 0)
      (effects (font (size 1.27 1.27)) (justify left) hide)
    )
    (property "Mouser Price/Stock" "https://www.mouser.co.uk/ProductDetail/Littelfuse/FEMTOSMDC016F-2?qs=5HUSoMAf2%252BoNWb7nt5%252BK9w%3D%3D" (id 9) (at 71.12 113.03 0)
      (effects (font (size 1.27 1.27)) (justify left) hide)
    )
    (property "Arrow Part Number" "FEMTOSMDC016F-2" (id 10) (at 71.12 115.57 0)
      (effects (font (size 1.27 1.27)) (justify left) hide)
    )
    (property "Arrow Price/Stock" "https://www.arrow.com/en/products/femtosmdc016f-2/littelfuse" (id 11) (at 71.12 118.11 0)
      (effects (font (size 1.27 1.27)) (justify left) hide)
    )
    (pin "1" (uuid 8d7b55bb-ae8e-4b94-a788-922cc9e533c8))
    (pin "2" (uuid 8f445055-46ff-4f1b-a7ac-48d0b739e55c))
  )

  (symbol (lib_id "OBC_PASSIVE:GCM155R71H104KE02J") (at 88.9 96.52 90) (mirror x) (unit 1)
    (in_bom yes) (on_board yes)
    (uuid a36fd11c-77f1-4992-8adf-608fd1df5351)
    (property "Reference" "C17" (id 0) (at 85.6488 101.7016 90)
      (effects (font (size 1.27 1.27)) (justify left))
    )
    (property "Value" "100n" (id 1) (at 85.6488 104.013 90)
      (effects (font (size 1.27 1.27)) (justify left))
    )
    (property "Footprint" "Capacitor_SMD:C_0402_1005Metric" (id 2) (at 87.63 105.41 0)
      (effects (font (size 1.27 1.27)) (justify left) hide)
    )
    (property "Datasheet" "https://psearch.en.murata.com/capacitor/product/GCM155R71H104KE02%23.html" (id 3) (at 90.17 105.41 0)
      (effects (font (size 1.27 1.27)) (justify left) hide)
    )
    (property "Description" "Capacitor GCM15 L=1.0mm W=0.5mm T=0.5mm" (id 4) (at 92.71 105.41 0)
      (effects (font (size 1.27 1.27)) (justify left) hide)
    )
    (property "Height" "0.55" (id 5) (at 95.25 105.41 0)
      (effects (font (size 1.27 1.27)) (justify left) hide)
    )
    (property "Mouser Part Number" "81-GCM155R71H104KE2J" (id 6) (at 97.79 105.41 0)
      (effects (font (size 1.27 1.27)) (justify left) hide)
    )
    (property "Mouser Price/Stock" "https://www.mouser.co.uk/ProductDetail/Murata-Electronics/GCM155R71H104KE02J?qs=hNud%2FORuBR1wlwGPFWBVDg%3D%3D" (id 7) (at 100.33 105.41 0)
      (effects (font (size 1.27 1.27)) (justify left) hide)
    )
    (property "Manufacturer_Name" "Murata Electronics" (id 8) (at 102.87 105.41 0)
      (effects (font (size 1.27 1.27)) (justify left) hide)
    )
    (property "Manufacturer_Part_Number" "GCM155R71H104KE02J" (id 9) (at 105.41 105.41 0)
      (effects (font (size 1.27 1.27)) (justify left) hide)
    )
    (pin "1" (uuid e1663dc5-a72c-432b-8ee3-83d73deb0fdd))
    (pin "2" (uuid 145c616e-3bd1-4b39-93bf-70f43cdaa916))
  )

  (symbol (lib_id "ADCS_IC:FEMTOSMDC016F-2") (at 170.18 97.79 0) (unit 1)
    (in_bom yes) (on_board yes) (fields_autoplaced)
    (uuid bcfad1fa-d9b9-4368-bd70-1197acdcfbbe)
    (property "Reference" "F7" (id 0) (at 179.07 91.44 0))
    (property "Value" "FEMTOSMDC016F-2" (id 1) (at 179.07 93.98 0))
    (property "Footprint" "ADCS_IC:FUSC1608X85N" (id 2) (at 184.15 96.52 0)
      (effects (font (size 1.27 1.27)) (justify left) hide)
    )
    (property "Datasheet" "https://www.littelfuse.com/~/media/electronics/product_specifications/resettable_ptcs/littelfuse_ptc_femtosmdc005f_2_product_specification.pdf.pdf" (id 3) (at 184.15 99.06 0)
      (effects (font (size 1.27 1.27)) (justify left) hide)
    )
    (property "Description" "Resettable Fuses - PPTC 9V      .16A-HD  40A MAX" (id 4) (at 184.15 101.6 0)
      (effects (font (size 1.27 1.27)) (justify left) hide)
    )
    (property "Height" "0.85" (id 5) (at 184.15 104.14 0)
      (effects (font (size 1.27 1.27)) (justify left) hide)
    )
    (property "Manufacturer_Name" "LITTELFUSE" (id 6) (at 184.15 106.68 0)
      (effects (font (size 1.27 1.27)) (justify left) hide)
    )
    (property "Manufacturer_Part_Number" "FEMTOSMDC016F-2" (id 7) (at 184.15 109.22 0)
      (effects (font (size 1.27 1.27)) (justify left) hide)
    )
    (property "Mouser Part Number" "650-FEMTOSMDC016F-2" (id 8) (at 184.15 111.76 0)
      (effects (font (size 1.27 1.27)) (justify left) hide)
    )
    (property "Mouser Price/Stock" "https://www.mouser.co.uk/ProductDetail/Littelfuse/FEMTOSMDC016F-2?qs=5HUSoMAf2%252BoNWb7nt5%252BK9w%3D%3D" (id 9) (at 184.15 114.3 0)
      (effects (font (size 1.27 1.27)) (justify left) hide)
    )
    (property "Arrow Part Number" "FEMTOSMDC016F-2" (id 10) (at 184.15 116.84 0)
      (effects (font (size 1.27 1.27)) (justify left) hide)
    )
    (property "Arrow Price/Stock" "https://www.arrow.com/en/products/femtosmdc016f-2/littelfuse" (id 11) (at 184.15 119.38 0)
      (effects (font (size 1.27 1.27)) (justify left) hide)
    )
    (pin "1" (uuid 5d3d95cd-82c6-4a64-9caa-1618f72f1918))
    (pin "2" (uuid 6f19e8fb-2f81-440b-bf4b-ed48a7a6df1d))
  )

  (symbol (lib_id "Device:C") (at 190.5 104.14 0) (mirror y) (unit 1)
    (in_bom yes) (on_board yes)
    (uuid dff8d45b-e2a4-480d-8b29-8d8f56c99155)
    (property "Reference" "C94" (id 0) (at 187.579 102.9716 0)
      (effects (font (size 1.27 1.27)) (justify left))
    )
    (property "Value" "10u" (id 1) (at 187.579 105.283 0)
      (effects (font (size 1.27 1.27)) (justify left))
    )
    (property "Footprint" "Capacitor_SMD:C_0603_1608Metric" (id 2) (at 189.5348 107.95 0)
      (effects (font (size 1.27 1.27)) hide)
    )
    (property "Datasheet" "~" (id 3) (at 190.5 104.14 0)
      (effects (font (size 1.27 1.27)) hide)
    )
    (pin "1" (uuid 540cc4c7-5cec-466b-a54b-4c66268bcc93))
    (pin "2" (uuid 77f225a6-84b5-4731-8d69-b569888ed7e8))
  )

  (symbol (lib_id "Device:C") (at 77.47 102.87 0) (mirror y) (unit 1)
    (in_bom yes) (on_board yes)
    (uuid eb9837cb-bf6f-43da-bde8-757d59e9f57f)
    (property "Reference" "C92" (id 0) (at 74.549 101.7016 0)
      (effects (font (size 1.27 1.27)) (justify left))
    )
    (property "Value" "10u" (id 1) (at 74.549 104.013 0)
      (effects (font (size 1.27 1.27)) (justify left))
    )
    (property "Footprint" "Capacitor_SMD:C_0603_1608Metric" (id 2) (at 76.5048 106.68 0)
      (effects (font (size 1.27 1.27)) hide)
    )
    (property "Datasheet" "~" (id 3) (at 77.47 102.87 0)
      (effects (font (size 1.27 1.27)) hide)
    )
    (pin "1" (uuid 7d9221cc-bef3-465f-b042-5fec8f114db9))
    (pin "2" (uuid 37151358-5d26-4223-aab7-bbe564f73269))
  )

  (symbol (lib_id "Device:R") (at 240.03 96.52 0) (unit 1)
    (in_bom yes) (on_board yes)
    (uuid f504a755-e980-432e-a630-34370e2d405b)
    (property "Reference" "R123" (id 0) (at 241.808 95.3516 0)
      (effects (font (size 1.27 1.27)) (justify left))
    )
    (property "Value" "100K" (id 1) (at 241.808 97.663 0)
      (effects (font (size 1.27 1.27)) (justify left))
    )
    (property "Footprint" "Resistor_SMD:R_0402_1005Metric" (id 2) (at 238.252 96.52 90)
      (effects (font (size 1.27 1.27)) hide)
    )
    (property "Datasheet" "~" (id 3) (at 240.03 96.52 0)
      (effects (font (size 1.27 1.27)) hide)
    )
    (pin "1" (uuid 1bbebf83-0fec-4564-8a98-5788d1f65a59))
    (pin "2" (uuid 9ece2962-02b0-45e2-a1c4-bf8cdc6b5a76))
  )

  (symbol (lib_id "OBC_PASSIVE:GCM155R71H104KE02J") (at 201.93 97.79 90) (mirror x) (unit 1)
    (in_bom yes) (on_board yes)
    (uuid fb730b89-7635-4fa5-9e74-319db4ff4466)
    (property "Reference" "C18" (id 0) (at 198.6788 102.9716 90)
      (effects (font (size 1.27 1.27)) (justify left))
    )
    (property "Value" "100n" (id 1) (at 198.6788 105.283 90)
      (effects (font (size 1.27 1.27)) (justify left))
    )
    (property "Footprint" "Capacitor_SMD:C_0402_1005Metric" (id 2) (at 200.66 106.68 0)
      (effects (font (size 1.27 1.27)) (justify left) hide)
    )
    (property "Datasheet" "https://psearch.en.murata.com/capacitor/product/GCM155R71H104KE02%23.html" (id 3) (at 203.2 106.68 0)
      (effects (font (size 1.27 1.27)) (justify left) hide)
    )
    (property "Description" "Capacitor GCM15 L=1.0mm W=0.5mm T=0.5mm" (id 4) (at 205.74 106.68 0)
      (effects (font (size 1.27 1.27)) (justify left) hide)
    )
    (property "Height" "0.55" (id 5) (at 208.28 106.68 0)
      (effects (font (size 1.27 1.27)) (justify left) hide)
    )
    (property "Mouser Part Number" "81-GCM155R71H104KE2J" (id 6) (at 210.82 106.68 0)
      (effects (font (size 1.27 1.27)) (justify left) hide)
    )
    (property "Mouser Price/Stock" "https://www.mouser.co.uk/ProductDetail/Murata-Electronics/GCM155R71H104KE02J?qs=hNud%2FORuBR1wlwGPFWBVDg%3D%3D" (id 7) (at 213.36 106.68 0)
      (effects (font (size 1.27 1.27)) (justify left) hide)
    )
    (property "Manufacturer_Name" "Murata Electronics" (id 8) (at 215.9 106.68 0)
      (effects (font (size 1.27 1.27)) (justify left) hide)
    )
    (property "Manufacturer_Part_Number" "GCM155R71H104KE02J" (id 9) (at 218.44 106.68 0)
      (effects (font (size 1.27 1.27)) (justify left) hide)
    )
    (pin "1" (uuid 54e364f6-b370-4f2f-b68c-2ebccbbc7084))
    (pin "2" (uuid 1f5808e7-7d1b-4015-af2f-ae802884b9c5))
  )
)
