(kicad_sch (version 20211123) (generator eeschema)

  (uuid 9afdd307-ec32-4a14-b92f-c9b18d88f9f3)

  (paper "A4")

  (lib_symbols
    (symbol "ADCS_IC:0ZCM0001FF2G" (pin_names (offset 0.762)) (in_bom yes) (on_board yes)
      (property "Reference" "F" (id 0) (at 13.97 6.35 0)
        (effects (font (size 1.27 1.27)) (justify left))
      )
      (property "Value" "0ZCM0001FF2G" (id 1) (at 13.97 3.81 0)
        (effects (font (size 1.27 1.27)) (justify left))
      )
      (property "Footprint" "FUSC1607X85N" (id 2) (at 13.97 1.27 0)
        (effects (font (size 1.27 1.27)) (justify left) hide)
      )
      (property "Datasheet" "https://www.belfuse.com/resources/datasheets/circuitprotection/ds-cp-0zcm-series.pdf" (id 3) (at 13.97 -1.27 0)
        (effects (font (size 1.27 1.27)) (justify left) hide)
      )
      (property "Description" "Resettable Fuses - PPTC Resettable PTC fuse SMD 0603 10mA 60V" (id 4) (at 13.97 -3.81 0)
        (effects (font (size 1.27 1.27)) (justify left) hide)
      )
      (property "Height" "0.85" (id 5) (at 13.97 -6.35 0)
        (effects (font (size 1.27 1.27)) (justify left) hide)
      )
      (property "Manufacturer_Name" "Stewart Connector" (id 6) (at 13.97 -8.89 0)
        (effects (font (size 1.27 1.27)) (justify left) hide)
      )
      (property "Manufacturer_Part_Number" "0ZCM0001FF2G" (id 7) (at 13.97 -11.43 0)
        (effects (font (size 1.27 1.27)) (justify left) hide)
      )
      (property "Mouser Part Number" "530-0ZCM0001FF2G" (id 8) (at 13.97 -13.97 0)
        (effects (font (size 1.27 1.27)) (justify left) hide)
      )
      (property "Mouser Price/Stock" "https://www.mouser.co.uk/ProductDetail/Bel-Fuse/0ZCM0001FF2G?qs=uwxL4vQweFOSr3rpPGffpA%3D%3D" (id 9) (at 13.97 -16.51 0)
        (effects (font (size 1.27 1.27)) (justify left) hide)
      )
      (property "Arrow Part Number" "" (id 10) (at 13.97 -19.05 0)
        (effects (font (size 1.27 1.27)) (justify left) hide)
      )
      (property "Arrow Price/Stock" "" (id 11) (at 13.97 -21.59 0)
        (effects (font (size 1.27 1.27)) (justify left) hide)
      )
      (property "ki_description" "Resettable Fuses - PPTC Resettable PTC fuse SMD 0603 10mA 60V" (id 12) (at 0 0 0)
        (effects (font (size 1.27 1.27)) hide)
      )
      (symbol "0ZCM0001FF2G_0_0"
        (pin passive line (at 0 0 0) (length 5.08)
          (name "~" (effects (font (size 1.27 1.27))))
          (number "1" (effects (font (size 1.27 1.27))))
        )
        (pin passive line (at 17.78 0 180) (length 5.08)
          (name "~" (effects (font (size 1.27 1.27))))
          (number "2" (effects (font (size 1.27 1.27))))
        )
      )
      (symbol "0ZCM0001FF2G_0_1"
        (polyline
          (pts
            (xy 5.08 0)
            (xy 12.7 0)
          )
          (stroke (width 0.1524) (type default) (color 0 0 0 0))
          (fill (type none))
        )
        (polyline
          (pts
            (xy 5.08 1.27)
            (xy 12.7 1.27)
            (xy 12.7 -1.27)
            (xy 5.08 -1.27)
            (xy 5.08 1.27)
          )
          (stroke (width 0.1524) (type default) (color 0 0 0 0))
          (fill (type none))
        )
      )
    )
    (symbol "Device:R" (pin_numbers hide) (pin_names (offset 0)) (in_bom yes) (on_board yes)
      (property "Reference" "R" (id 0) (at 2.032 0 90)
        (effects (font (size 1.27 1.27)))
      )
      (property "Value" "R" (id 1) (at 0 0 90)
        (effects (font (size 1.27 1.27)))
      )
      (property "Footprint" "" (id 2) (at -1.778 0 90)
        (effects (font (size 1.27 1.27)) hide)
      )
      (property "Datasheet" "~" (id 3) (at 0 0 0)
        (effects (font (size 1.27 1.27)) hide)
      )
      (property "ki_keywords" "R res resistor" (id 4) (at 0 0 0)
        (effects (font (size 1.27 1.27)) hide)
      )
      (property "ki_description" "Resistor" (id 5) (at 0 0 0)
        (effects (font (size 1.27 1.27)) hide)
      )
      (property "ki_fp_filters" "R_*" (id 6) (at 0 0 0)
        (effects (font (size 1.27 1.27)) hide)
      )
      (symbol "R_0_1"
        (rectangle (start -1.016 -2.54) (end 1.016 2.54)
          (stroke (width 0.254) (type default) (color 0 0 0 0))
          (fill (type none))
        )
      )
      (symbol "R_1_1"
        (pin passive line (at 0 3.81 270) (length 1.27)
          (name "~" (effects (font (size 1.27 1.27))))
          (number "1" (effects (font (size 1.27 1.27))))
        )
        (pin passive line (at 0 -3.81 90) (length 1.27)
          (name "~" (effects (font (size 1.27 1.27))))
          (number "2" (effects (font (size 1.27 1.27))))
        )
      )
    )
    (symbol "OBC_IC:MCP9808T-E_MS" (pin_names (offset 0.762)) (in_bom yes) (on_board yes)
      (property "Reference" "U" (id 0) (at 24.13 7.62 0)
        (effects (font (size 1.27 1.27)) (justify left))
      )
      (property "Value" "MCP9808T-E_MS" (id 1) (at 24.13 5.08 0)
        (effects (font (size 1.27 1.27)) (justify left))
      )
      (property "Footprint" "SOP65P490X110-8N" (id 2) (at 24.13 2.54 0)
        (effects (font (size 1.27 1.27)) (justify left) hide)
      )
      (property "Datasheet" "https://ww1.microchip.com/downloads/en/DeviceDoc/25095A.pdf" (id 3) (at 24.13 0 0)
        (effects (font (size 1.27 1.27)) (justify left) hide)
      )
      (property "Description" "Microchip MCP9808T-E/MS, Temperature Converter -40  +125 C +/-1C Serial-I2C, SMBus, 8-Pin MSOP" (id 4) (at 24.13 -2.54 0)
        (effects (font (size 1.27 1.27)) (justify left) hide)
      )
      (property "Height" "1.1" (id 5) (at 24.13 -5.08 0)
        (effects (font (size 1.27 1.27)) (justify left) hide)
      )
      (property "Mouser Part Number" "579-MCP9808T-E/MS" (id 6) (at 24.13 -7.62 0)
        (effects (font (size 1.27 1.27)) (justify left) hide)
      )
      (property "Mouser Price/Stock" "https://www.mouser.co.uk/ProductDetail/Microchip-Technology/MCP9808T-E-MS?qs=fgHA1UgJI8BYolGts7svKQ%3D%3D" (id 7) (at 24.13 -10.16 0)
        (effects (font (size 1.27 1.27)) (justify left) hide)
      )
      (property "Manufacturer_Name" "Microchip" (id 8) (at 24.13 -12.7 0)
        (effects (font (size 1.27 1.27)) (justify left) hide)
      )
      (property "Manufacturer_Part_Number" "MCP9808T-E/MS" (id 9) (at 24.13 -15.24 0)
        (effects (font (size 1.27 1.27)) (justify left) hide)
      )
      (property "ki_description" "Microchip MCP9808T-E/MS, Temperature Converter -40  +125 C +/-1C Serial-I2C, SMBus, 8-Pin MSOP" (id 10) (at 0 0 0)
        (effects (font (size 1.27 1.27)) hide)
      )
      (symbol "MCP9808T-E_MS_0_0"
        (pin bidirectional line (at 0 0 0) (length 5.08)
          (name "SDA" (effects (font (size 1.27 1.27))))
          (number "1" (effects (font (size 1.27 1.27))))
        )
        (pin input line (at 0 -2.54 0) (length 5.08)
          (name "SCL" (effects (font (size 1.27 1.27))))
          (number "2" (effects (font (size 1.27 1.27))))
        )
        (pin output line (at 0 -5.08 0) (length 5.08)
          (name "ALERT" (effects (font (size 1.27 1.27))))
          (number "3" (effects (font (size 1.27 1.27))))
        )
        (pin power_in line (at 0 -7.62 0) (length 5.08)
          (name "GND" (effects (font (size 1.27 1.27))))
          (number "4" (effects (font (size 1.27 1.27))))
        )
        (pin input line (at 27.94 -7.62 180) (length 5.08)
          (name "A2" (effects (font (size 1.27 1.27))))
          (number "5" (effects (font (size 1.27 1.27))))
        )
        (pin input line (at 27.94 -5.08 180) (length 5.08)
          (name "A1" (effects (font (size 1.27 1.27))))
          (number "6" (effects (font (size 1.27 1.27))))
        )
        (pin input line (at 27.94 -2.54 180) (length 5.08)
          (name "A0" (effects (font (size 1.27 1.27))))
          (number "7" (effects (font (size 1.27 1.27))))
        )
        (pin power_in line (at 27.94 0 180) (length 5.08)
          (name "VDD" (effects (font (size 1.27 1.27))))
          (number "8" (effects (font (size 1.27 1.27))))
        )
      )
      (symbol "MCP9808T-E_MS_0_1"
        (polyline
          (pts
            (xy 5.08 2.54)
            (xy 22.86 2.54)
            (xy 22.86 -10.16)
            (xy 5.08 -10.16)
            (xy 5.08 2.54)
          )
          (stroke (width 0.1524) (type default) (color 0 0 0 0))
          (fill (type none))
        )
      )
    )
    (symbol "OBC_PASSIVE:GCM155R71H104KE02J" (pin_names (offset 0.762)) (in_bom yes) (on_board yes)
      (property "Reference" "C" (id 0) (at 8.89 6.35 0)
        (effects (font (size 1.27 1.27)) (justify left))
      )
      (property "Value" "GCM155R71H104KE02J" (id 1) (at 8.89 3.81 0)
        (effects (font (size 1.27 1.27)) (justify left))
      )
      (property "Footprint" "CAPC1005X55N" (id 2) (at 8.89 1.27 0)
        (effects (font (size 1.27 1.27)) (justify left) hide)
      )
      (property "Datasheet" "https://psearch.en.murata.com/capacitor/product/GCM155R71H104KE02%23.html" (id 3) (at 8.89 -1.27 0)
        (effects (font (size 1.27 1.27)) (justify left) hide)
      )
      (property "Description" "Capacitor GCM15 L=1.0mm W=0.5mm T=0.5mm" (id 4) (at 8.89 -3.81 0)
        (effects (font (size 1.27 1.27)) (justify left) hide)
      )
      (property "Height" "0.55" (id 5) (at 8.89 -6.35 0)
        (effects (font (size 1.27 1.27)) (justify left) hide)
      )
      (property "Mouser Part Number" "81-GCM155R71H104KE2J" (id 6) (at 8.89 -8.89 0)
        (effects (font (size 1.27 1.27)) (justify left) hide)
      )
      (property "Mouser Price/Stock" "https://www.mouser.co.uk/ProductDetail/Murata-Electronics/GCM155R71H104KE02J?qs=hNud%2FORuBR1wlwGPFWBVDg%3D%3D" (id 7) (at 8.89 -11.43 0)
        (effects (font (size 1.27 1.27)) (justify left) hide)
      )
      (property "Manufacturer_Name" "Murata Electronics" (id 8) (at 8.89 -13.97 0)
        (effects (font (size 1.27 1.27)) (justify left) hide)
      )
      (property "Manufacturer_Part_Number" "GCM155R71H104KE02J" (id 9) (at 8.89 -16.51 0)
        (effects (font (size 1.27 1.27)) (justify left) hide)
      )
      (property "ki_description" "Capacitor GCM15 L=1.0mm W=0.5mm T=0.5mm" (id 10) (at 0 0 0)
        (effects (font (size 1.27 1.27)) hide)
      )
      (symbol "GCM155R71H104KE02J_0_0"
        (pin passive line (at 0 0 0) (length 5.08)
          (name "~" (effects (font (size 1.27 1.27))))
          (number "1" (effects (font (size 1.27 1.27))))
        )
        (pin passive line (at 12.7 0 180) (length 5.08)
          (name "~" (effects (font (size 1.27 1.27))))
          (number "2" (effects (font (size 1.27 1.27))))
        )
      )
      (symbol "GCM155R71H104KE02J_0_1"
        (polyline
          (pts
            (xy 5.08 0)
            (xy 5.588 0)
          )
          (stroke (width 0.1524) (type default) (color 0 0 0 0))
          (fill (type none))
        )
        (polyline
          (pts
            (xy 5.588 2.54)
            (xy 5.588 -2.54)
          )
          (stroke (width 0.1524) (type default) (color 0 0 0 0))
          (fill (type none))
        )
        (polyline
          (pts
            (xy 7.112 0)
            (xy 7.62 0)
          )
          (stroke (width 0.1524) (type default) (color 0 0 0 0))
          (fill (type none))
        )
        (polyline
          (pts
            (xy 7.112 2.54)
            (xy 7.112 -2.54)
          )
          (stroke (width 0.1524) (type default) (color 0 0 0 0))
          (fill (type none))
        )
      )
    )
    (symbol "power:GND" (power) (pin_names (offset 0)) (in_bom yes) (on_board yes)
      (property "Reference" "#PWR" (id 0) (at 0 -6.35 0)
        (effects (font (size 1.27 1.27)) hide)
      )
      (property "Value" "GND" (id 1) (at 0 -3.81 0)
        (effects (font (size 1.27 1.27)))
      )
      (property "Footprint" "" (id 2) (at 0 0 0)
        (effects (font (size 1.27 1.27)) hide)
      )
      (property "Datasheet" "" (id 3) (at 0 0 0)
        (effects (font (size 1.27 1.27)) hide)
      )
      (property "ki_keywords" "power-flag" (id 4) (at 0 0 0)
        (effects (font (size 1.27 1.27)) hide)
      )
      (property "ki_description" "Power symbol creates a global label with name \"GND\" , ground" (id 5) (at 0 0 0)
        (effects (font (size 1.27 1.27)) hide)
      )
      (symbol "GND_0_1"
        (polyline
          (pts
            (xy 0 0)
            (xy 0 -1.27)
            (xy 1.27 -1.27)
            (xy 0 -2.54)
            (xy -1.27 -1.27)
            (xy 0 -1.27)
          )
          (stroke (width 0) (type default) (color 0 0 0 0))
          (fill (type none))
        )
      )
      (symbol "GND_1_1"
        (pin power_in line (at 0 0 270) (length 0) hide
          (name "GND" (effects (font (size 1.27 1.27))))
          (number "1" (effects (font (size 1.27 1.27))))
        )
      )
    )
    (symbol "power:PWR_FLAG" (power) (pin_numbers hide) (pin_names (offset 0) hide) (in_bom yes) (on_board yes)
      (property "Reference" "#FLG" (id 0) (at 0 1.905 0)
        (effects (font (size 1.27 1.27)) hide)
      )
      (property "Value" "PWR_FLAG" (id 1) (at 0 3.81 0)
        (effects (font (size 1.27 1.27)))
      )
      (property "Footprint" "" (id 2) (at 0 0 0)
        (effects (font (size 1.27 1.27)) hide)
      )
      (property "Datasheet" "~" (id 3) (at 0 0 0)
        (effects (font (size 1.27 1.27)) hide)
      )
      (property "ki_keywords" "power-flag" (id 4) (at 0 0 0)
        (effects (font (size 1.27 1.27)) hide)
      )
      (property "ki_description" "Special symbol for telling ERC where power comes from" (id 5) (at 0 0 0)
        (effects (font (size 1.27 1.27)) hide)
      )
      (symbol "PWR_FLAG_0_0"
        (pin power_out line (at 0 0 90) (length 0)
          (name "pwr" (effects (font (size 1.27 1.27))))
          (number "1" (effects (font (size 1.27 1.27))))
        )
      )
      (symbol "PWR_FLAG_0_1"
        (polyline
          (pts
            (xy 0 0)
            (xy 0 1.27)
            (xy -1.016 1.905)
            (xy 0 2.54)
            (xy 1.016 1.905)
            (xy 0 1.27)
          )
          (stroke (width 0) (type default) (color 0 0 0 0))
          (fill (type none))
        )
      )
    )
  )

  (junction (at 204.47 92.71) (diameter 0) (color 0 0 0 0)
    (uuid 1ce6c429-f052-4eb3-8e51-308decfbcaf1)
  )
  (junction (at 210.82 92.71) (diameter 0) (color 0 0 0 0)
    (uuid 2079fca8-9ea8-46a2-ad85-249a1f8b97ac)
  )
  (junction (at 210.82 100.33) (diameter 0) (color 0 0 0 0)
    (uuid 382fb472-2afe-4cf4-9348-a2eb1cde1ee6)
  )
  (junction (at 68.58 100.33) (diameter 0) (color 0 0 0 0)
    (uuid 48c920cf-9c60-4340-bdc5-2fc27aaa65e3)
  )
  (junction (at 210.82 107.95) (diameter 0) (color 0 0 0 0)
    (uuid 86ed36a7-5848-40a1-a64d-243f2129fe3f)
  )
  (junction (at 114.3 80.01) (diameter 0) (color 0 0 0 0)
    (uuid 873b9117-95f8-4e89-8cc6-777ff52764f0)
  )
  (junction (at 106.68 100.33) (diameter 0) (color 0 0 0 0)
    (uuid 8ead18e7-1436-4986-9488-8d680a235fae)
  )
  (junction (at 114.3 102.87) (diameter 0) (color 0 0 0 0)
    (uuid 97d5f0f0-8f9a-4366-a534-fb3665895586)
  )
  (junction (at 74.93 105.41) (diameter 0) (color 0 0 0 0)
    (uuid a28393d9-7340-4ce9-8c16-0f0a9c8ca7e7)
  )
  (junction (at 91.44 116.84) (diameter 0) (color 0 0 0 0)
    (uuid aab10ce9-9c51-46ba-bdb2-e4add791c1c2)
  )
  (junction (at 74.93 116.84) (diameter 0) (color 0 0 0 0)
    (uuid b6ea8dc6-4b8c-4b7d-bb01-3e9d758b7685)
  )
  (junction (at 227.33 107.95) (diameter 0) (color 0 0 0 0)
    (uuid dade63ad-37a1-45bc-a904-3b6e1b983f23)
  )
  (junction (at 74.93 107.95) (diameter 0) (color 0 0 0 0)
    (uuid f38fd90b-dccc-4bb6-9a72-09e00f7cfca7)
  )
  (junction (at 74.93 100.33) (diameter 0) (color 0 0 0 0)
    (uuid fbb3fe6a-8d2b-428a-a2de-7166a2402f8e)
  )

  (no_connect (at 105.41 105.41) (uuid 24270267-7fea-4c32-8e0d-5f5500623a4e))
  (no_connect (at 241.3 97.79) (uuid 3ba2b460-391f-439a-94ff-990ec2ef94a4))

  (wire (pts (xy 213.36 95.25) (xy 210.82 95.25))
    (stroke (width 0) (type default) (color 0 0 0 0))
    (uuid 0bf38f14-1f28-4e46-9bb0-de1455970fcd)
  )
  (wire (pts (xy 107.95 116.84) (xy 91.44 116.84))
    (stroke (width 0) (type default) (color 0 0 0 0))
    (uuid 151727c8-37b0-4111-a636-4ac9f315e415)
  )
  (wire (pts (xy 74.93 102.87) (xy 74.93 105.41))
    (stroke (width 0) (type default) (color 0 0 0 0))
    (uuid 1bcbd918-0892-46be-af5d-bb1f8ed73689)
  )
  (wire (pts (xy 204.47 92.71) (xy 210.82 92.71))
    (stroke (width 0) (type default) (color 0 0 0 0))
    (uuid 2685cc50-689b-46bd-bc56-48a152e65812)
  )
  (wire (pts (xy 199.39 92.71) (xy 204.47 92.71))
    (stroke (width 0) (type default) (color 0 0 0 0))
    (uuid 35082b6a-104f-4862-805b-fda0303d7e1c)
  )
  (wire (pts (xy 114.3 80.01) (xy 118.11 80.01))
    (stroke (width 0) (type default) (color 0 0 0 0))
    (uuid 356e6fb2-9eaf-4e1f-ab47-f7db4c7742d4)
  )
  (wire (pts (xy 77.47 100.33) (xy 74.93 100.33))
    (stroke (width 0) (type default) (color 0 0 0 0))
    (uuid 363b538c-c436-4f5b-bb08-38111b62136f)
  )
  (wire (pts (xy 114.3 102.87) (xy 105.41 102.87))
    (stroke (width 0) (type default) (color 0 0 0 0))
    (uuid 376ec57d-bd80-41f4-ac77-04ce29ff90e1)
  )
  (wire (pts (xy 106.68 80.01) (xy 114.3 80.01))
    (stroke (width 0) (type default) (color 0 0 0 0))
    (uuid 37746fde-df70-4e24-8bd8-ab5199280e3e)
  )
  (wire (pts (xy 74.93 105.41) (xy 74.93 107.95))
    (stroke (width 0) (type default) (color 0 0 0 0))
    (uuid 3a4cfeb3-cc47-43b8-a796-bf7741235f2c)
  )
  (wire (pts (xy 74.93 116.84) (xy 91.44 116.84))
    (stroke (width 0) (type default) (color 0 0 0 0))
    (uuid 52c5afe1-d438-4bb6-adb4-1c779d76b863)
  )
  (wire (pts (xy 77.47 107.95) (xy 74.93 107.95))
    (stroke (width 0) (type default) (color 0 0 0 0))
    (uuid 5db792f8-3f35-445e-8512-23f4e246ea40)
  )
  (wire (pts (xy 243.84 100.33) (xy 243.84 107.95))
    (stroke (width 0) (type default) (color 0 0 0 0))
    (uuid 5de752ba-a091-4c74-b936-55eb5502aac0)
  )
  (wire (pts (xy 204.47 107.95) (xy 210.82 107.95))
    (stroke (width 0) (type default) (color 0 0 0 0))
    (uuid 68195c79-17ee-4702-99a9-c058de9b4d9c)
  )
  (wire (pts (xy 210.82 107.95) (xy 227.33 107.95))
    (stroke (width 0) (type default) (color 0 0 0 0))
    (uuid 76dba4de-d468-404f-9377-a2ce4ac3729d)
  )
  (wire (pts (xy 204.47 105.41) (xy 204.47 107.95))
    (stroke (width 0) (type default) (color 0 0 0 0))
    (uuid 7a63c02d-1df2-4864-857a-911c65576cbe)
  )
  (wire (pts (xy 105.41 107.95) (xy 107.95 107.95))
    (stroke (width 0) (type default) (color 0 0 0 0))
    (uuid 7bbf7fb9-cd74-45b2-9589-6b5413ea8e7e)
  )
  (wire (pts (xy 106.68 100.33) (xy 118.11 100.33))
    (stroke (width 0) (type default) (color 0 0 0 0))
    (uuid 7d26c0e2-9f3c-4288-9030-27b0f236e400)
  )
  (wire (pts (xy 243.84 95.25) (xy 241.3 95.25))
    (stroke (width 0) (type default) (color 0 0 0 0))
    (uuid 81a0fba7-df41-438e-b7a2-e79d8aa1d721)
  )
  (wire (pts (xy 213.36 97.79) (xy 210.82 97.79))
    (stroke (width 0) (type default) (color 0 0 0 0))
    (uuid 81b1c994-605a-4757-a1c3-c40d932fb3c7)
  )
  (wire (pts (xy 77.47 105.41) (xy 74.93 105.41))
    (stroke (width 0) (type default) (color 0 0 0 0))
    (uuid 854bb996-b271-4a8a-98ee-1224127872e4)
  )
  (wire (pts (xy 243.84 92.71) (xy 241.3 92.71))
    (stroke (width 0) (type default) (color 0 0 0 0))
    (uuid 8bcb7fca-8273-4cda-ab31-98e129881c3f)
  )
  (wire (pts (xy 114.3 93.98) (xy 114.3 102.87))
    (stroke (width 0) (type default) (color 0 0 0 0))
    (uuid a1fd6917-0fc3-4111-9036-8085e30e2b65)
  )
  (wire (pts (xy 74.93 100.33) (xy 68.58 100.33))
    (stroke (width 0) (type default) (color 0 0 0 0))
    (uuid abd193d5-e38e-45d6-93f2-83f90049a049)
  )
  (wire (pts (xy 68.58 116.84) (xy 74.93 116.84))
    (stroke (width 0) (type default) (color 0 0 0 0))
    (uuid accad7fb-c10e-4d03-aeef-ae1e99f2b5fe)
  )
  (wire (pts (xy 106.68 92.71) (xy 106.68 100.33))
    (stroke (width 0) (type default) (color 0 0 0 0))
    (uuid add6ef8a-dcfe-41fb-8a04-8e1e0e96f471)
  )
  (wire (pts (xy 210.82 95.25) (xy 210.82 92.71))
    (stroke (width 0) (type default) (color 0 0 0 0))
    (uuid ae739def-4cd5-4f3f-81e1-138f0b652b89)
  )
  (wire (pts (xy 213.36 100.33) (xy 210.82 100.33))
    (stroke (width 0) (type default) (color 0 0 0 0))
    (uuid b01f6d08-6e62-4610-972e-40932422e7b0)
  )
  (wire (pts (xy 74.93 107.95) (xy 74.93 116.84))
    (stroke (width 0) (type default) (color 0 0 0 0))
    (uuid bb3b29ee-bcbc-483a-ae42-4ebf0e69805d)
  )
  (wire (pts (xy 210.82 92.71) (xy 213.36 92.71))
    (stroke (width 0) (type default) (color 0 0 0 0))
    (uuid c1b9ab80-e4dd-4a56-9e77-2d056a79bbbd)
  )
  (wire (pts (xy 118.11 102.87) (xy 114.3 102.87))
    (stroke (width 0) (type default) (color 0 0 0 0))
    (uuid c8b4f79d-9507-4dec-8aad-d8a7fb865e6b)
  )
  (wire (pts (xy 68.58 113.03) (xy 68.58 116.84))
    (stroke (width 0) (type default) (color 0 0 0 0))
    (uuid d61de275-026d-4d9a-a2ea-264cd78a4317)
  )
  (wire (pts (xy 107.95 107.95) (xy 107.95 116.84))
    (stroke (width 0) (type default) (color 0 0 0 0))
    (uuid d9715d29-9986-4409-acee-ecb8d53b37b0)
  )
  (wire (pts (xy 210.82 97.79) (xy 210.82 100.33))
    (stroke (width 0) (type default) (color 0 0 0 0))
    (uuid d9c2d8c4-8f41-444e-9ec3-a9547dc7e126)
  )
  (wire (pts (xy 210.82 100.33) (xy 210.82 107.95))
    (stroke (width 0) (type default) (color 0 0 0 0))
    (uuid dc665a24-f20b-4a56-b9a3-c01e399bccf8)
  )
  (wire (pts (xy 106.68 100.33) (xy 105.41 100.33))
    (stroke (width 0) (type default) (color 0 0 0 0))
    (uuid df68dc9e-7e70-4100-a3f7-c5cdb0ec2e9f)
  )
  (wire (pts (xy 63.5 100.33) (xy 68.58 100.33))
    (stroke (width 0) (type default) (color 0 0 0 0))
    (uuid e7453b33-87b4-4f73-bc0e-d1c6159fb45e)
  )
  (wire (pts (xy 106.68 80.01) (xy 106.68 85.09))
    (stroke (width 0) (type default) (color 0 0 0 0))
    (uuid ee9fac82-7205-4e6d-8176-0d07fee9de64)
  )
  (wire (pts (xy 77.47 102.87) (xy 74.93 102.87))
    (stroke (width 0) (type default) (color 0 0 0 0))
    (uuid f3bc14b1-53a9-465a-a1c7-ebe15feac380)
  )
  (wire (pts (xy 114.3 80.01) (xy 114.3 86.36))
    (stroke (width 0) (type default) (color 0 0 0 0))
    (uuid f80c6de1-5286-405a-bca4-a4275e619a6b)
  )
  (wire (pts (xy 227.33 107.95) (xy 243.84 107.95))
    (stroke (width 0) (type default) (color 0 0 0 0))
    (uuid faf286b2-d2d8-43be-baa7-81cba0b24844)
  )
  (wire (pts (xy 241.3 100.33) (xy 243.84 100.33))
    (stroke (width 0) (type default) (color 0 0 0 0))
    (uuid fdb2b41b-4084-4a47-beb8-cea971e2401f)
  )

  (text "I2C address: 000" (at 36.83 81.28 0)
    (effects (font (size 1.27 1.27)) (justify left bottom))
    (uuid 7319ed94-f644-4b7d-9f71-72bd22c44b3f)
  )
  (text "I2C address: 001" (at 171.45 82.55 0)
    (effects (font (size 1.27 1.27)) (justify left bottom))
    (uuid a023a31d-b979-44c9-87d4-f66f6fee2c43)
  )
  (text "NOTE: Pullups shown here\nshould be placed near MCU"
    (at 115.57 113.03 0)
    (effects (font (size 1.27 1.27)) (justify left bottom))
    (uuid a7b357ee-4178-49e7-85be-3ab3e5371401)
  )

  (hierarchical_label "VDD_IN" (shape input) (at 181.61 92.71 180)
    (effects (font (size 1.27 1.27)) (justify right))
    (uuid 1de4ece8-9761-45eb-aaca-0bdadbedf798)
  )
  (hierarchical_label "TEMP_SDA" (shape bidirectional) (at 118.11 100.33 0)
    (effects (font (size 1.27 1.27)) (justify left))
    (uuid 28530e66-6b9c-4ff4-b443-675e52c6ab01)
  )
  (hierarchical_label "TEMP_SCK" (shape bidirectional) (at 118.11 102.87 0)
    (effects (font (size 1.27 1.27)) (justify left))
    (uuid 5b073138-6e69-4db4-9441-f350009a26ff)
  )
  (hierarchical_label "TEMP_FUSE_2" (shape output) (at 204.47 92.71 90)
    (effects (font (size 1.27 1.27)) (justify left))
    (uuid 9207a3d2-cab8-404b-8030-b88af5c59bef)
  )
  (hierarchical_label "TEMP_SCK" (shape bidirectional) (at 243.84 95.25 0)
    (effects (font (size 1.27 1.27)) (justify left))
    (uuid 9fc4b7b9-37eb-415a-9f30-8d748d3158e1)
  )
  (hierarchical_label "VDD_IN" (shape input) (at 118.11 80.01 0)
    (effects (font (size 1.27 1.27)) (justify left))
    (uuid bb62aeb5-922f-47c7-bc3c-292a36becdd2)
  )
  (hierarchical_label "TEMP_SDA" (shape bidirectional) (at 243.84 92.71 0)
    (effects (font (size 1.27 1.27)) (justify left))
    (uuid bd4efdae-da73-409b-be7d-edaa12ebd2d9)
  )
  (hierarchical_label "TEMP_FUSE_1" (shape output) (at 68.58 100.33 90)
    (effects (font (size 1.27 1.27)) (justify left))
    (uuid e74c0f2d-19ac-4e59-853f-688fc6aa2faa)
  )
  (hierarchical_label "VDD_IN" (shape input) (at 45.72 100.33 180)
    (effects (font (size 1.27 1.27)) (justify right))
    (uuid f2b80d08-fdcf-4efb-ba5f-f8596505e1de)
  )

  (symbol (lib_id "power:GND") (at 91.44 116.84 0) (mirror y) (unit 1)
    (in_bom yes) (on_board yes)
    (uuid 1360432d-e2a8-43ea-8ffa-875888a4dc97)
    (property "Reference" "#PWR0147" (id 0) (at 91.44 123.19 0)
      (effects (font (size 1.27 1.27)) hide)
    )
    (property "Value" "GND" (id 1) (at 91.313 121.2342 0))
    (property "Footprint" "" (id 2) (at 91.44 116.84 0)
      (effects (font (size 1.27 1.27)) hide)
    )
    (property "Datasheet" "" (id 3) (at 91.44 116.84 0)
      (effects (font (size 1.27 1.27)) hide)
    )
    (pin "1" (uuid f3d0dd6c-1a21-4571-bc48-3de06c2d396e))
  )

  (symbol (lib_id "ADCS_IC:0ZCM0001FF2G") (at 45.72 100.33 0) (unit 1)
    (in_bom yes) (on_board yes) (fields_autoplaced)
    (uuid 1a53caae-73d5-426d-992d-25dbdf2506be)
    (property "Reference" "F8" (id 0) (at 54.61 93.98 0))
    (property "Value" "0ZCM0001FF2G" (id 1) (at 54.61 96.52 0))
    (property "Footprint" "ADCS_IC:FUSC1607X85N" (id 2) (at 59.69 99.06 0)
      (effects (font (size 1.27 1.27)) (justify left) hide)
    )
    (property "Datasheet" "https://www.belfuse.com/resources/datasheets/circuitprotection/ds-cp-0zcm-series.pdf" (id 3) (at 59.69 101.6 0)
      (effects (font (size 1.27 1.27)) (justify left) hide)
    )
    (property "Description" "Resettable Fuses - PPTC Resettable PTC fuse SMD 0603 10mA 60V" (id 4) (at 59.69 104.14 0)
      (effects (font (size 1.27 1.27)) (justify left) hide)
    )
    (property "Height" "0.85" (id 5) (at 59.69 106.68 0)
      (effects (font (size 1.27 1.27)) (justify left) hide)
    )
    (property "Manufacturer_Name" "Stewart Connector" (id 6) (at 59.69 109.22 0)
      (effects (font (size 1.27 1.27)) (justify left) hide)
    )
    (property "Manufacturer_Part_Number" "0ZCM0001FF2G" (id 7) (at 59.69 111.76 0)
      (effects (font (size 1.27 1.27)) (justify left) hide)
    )
    (property "Mouser Part Number" "530-0ZCM0001FF2G" (id 8) (at 59.69 114.3 0)
      (effects (font (size 1.27 1.27)) (justify left) hide)
    )
    (property "Mouser Price/Stock" "https://www.mouser.co.uk/ProductDetail/Bel-Fuse/0ZCM0001FF2G?qs=uwxL4vQweFOSr3rpPGffpA%3D%3D" (id 9) (at 59.69 116.84 0)
      (effects (font (size 1.27 1.27)) (justify left) hide)
    )
    (property "Arrow Part Number" "" (id 10) (at 59.69 119.38 0)
      (effects (font (size 1.27 1.27)) (justify left) hide)
    )
    (property "Arrow Price/Stock" "" (id 11) (at 59.69 121.92 0)
      (effects (font (size 1.27 1.27)) (justify left) hide)
    )
    (pin "1" (uuid 97ed60ce-12f6-4c83-9a16-286c26ae37c4))
    (pin "2" (uuid 322cb157-15a0-4224-b6ef-bb7597fb55cc))
  )

  (symbol (lib_id "power:PWR_FLAG") (at 74.93 100.33 0) (unit 1)
    (in_bom yes) (on_board yes)
    (uuid 36844f1f-7e17-4c17-aed3-f60cc50bb514)
    (property "Reference" "#FLG0107" (id 0) (at 74.93 98.425 0)
      (effects (font (size 1.27 1.27)) hide)
    )
    (property "Value" "PWR_FLAG" (id 1) (at 74.93 95.9358 0))
    (property "Footprint" "" (id 2) (at 74.93 100.33 0)
      (effects (font (size 1.27 1.27)) hide)
    )
    (property "Datasheet" "~" (id 3) (at 74.93 100.33 0)
      (effects (font (size 1.27 1.27)) hide)
    )
    (pin "1" (uuid 287a474d-c178-43f4-aa1a-2ccc3b93430f))
  )

  (symbol (lib_id "Device:R") (at 114.3 90.17 0) (unit 1)
    (in_bom yes) (on_board yes)
    (uuid 682b6f5d-b7a6-4c79-930c-cdbbb54a0893)
    (property "Reference" "R15" (id 0) (at 116.078 89.0016 0)
      (effects (font (size 1.27 1.27)) (justify left))
    )
    (property "Value" "1.5k" (id 1) (at 116.078 91.313 0)
      (effects (font (size 1.27 1.27)) (justify left))
    )
    (property "Footprint" "Resistor_SMD:R_0402_1005Metric" (id 2) (at 112.522 90.17 90)
      (effects (font (size 1.27 1.27)) hide)
    )
    (property "Datasheet" "~" (id 3) (at 114.3 90.17 0)
      (effects (font (size 1.27 1.27)) hide)
    )
    (pin "1" (uuid 3ecc8632-0d13-441f-a719-2a1a81bc4808))
    (pin "2" (uuid 9a1d3b82-dfec-4408-81f3-86d86654881c))
  )

  (symbol (lib_id "ADCS_IC:0ZCM0001FF2G") (at 181.61 92.71 0) (unit 1)
    (in_bom yes) (on_board yes) (fields_autoplaced)
    (uuid 7acff156-b088-4dd2-ad04-689ae12bfff1)
    (property "Reference" "F9" (id 0) (at 190.5 86.36 0))
    (property "Value" "0ZCM0001FF2G" (id 1) (at 190.5 88.9 0))
    (property "Footprint" "ADCS_IC:FUSC1607X85N" (id 2) (at 195.58 91.44 0)
      (effects (font (size 1.27 1.27)) (justify left) hide)
    )
    (property "Datasheet" "https://www.belfuse.com/resources/datasheets/circuitprotection/ds-cp-0zcm-series.pdf" (id 3) (at 195.58 93.98 0)
      (effects (font (size 1.27 1.27)) (justify left) hide)
    )
    (property "Description" "Resettable Fuses - PPTC Resettable PTC fuse SMD 0603 10mA 60V" (id 4) (at 195.58 96.52 0)
      (effects (font (size 1.27 1.27)) (justify left) hide)
    )
    (property "Height" "0.85" (id 5) (at 195.58 99.06 0)
      (effects (font (size 1.27 1.27)) (justify left) hide)
    )
    (property "Manufacturer_Name" "Stewart Connector" (id 6) (at 195.58 101.6 0)
      (effects (font (size 1.27 1.27)) (justify left) hide)
    )
    (property "Manufacturer_Part_Number" "0ZCM0001FF2G" (id 7) (at 195.58 104.14 0)
      (effects (font (size 1.27 1.27)) (justify left) hide)
    )
    (property "Mouser Part Number" "530-0ZCM0001FF2G" (id 8) (at 195.58 106.68 0)
      (effects (font (size 1.27 1.27)) (justify left) hide)
    )
    (property "Mouser Price/Stock" "https://www.mouser.co.uk/ProductDetail/Bel-Fuse/0ZCM0001FF2G?qs=uwxL4vQweFOSr3rpPGffpA%3D%3D" (id 9) (at 195.58 109.22 0)
      (effects (font (size 1.27 1.27)) (justify left) hide)
    )
    (property "Arrow Part Number" "" (id 10) (at 195.58 111.76 0)
      (effects (font (size 1.27 1.27)) (justify left) hide)
    )
    (property "Arrow Price/Stock" "" (id 11) (at 195.58 114.3 0)
      (effects (font (size 1.27 1.27)) (justify left) hide)
    )
    (pin "1" (uuid ddd16745-5964-4ba3-ae3c-23111983d014))
    (pin "2" (uuid 8ac71653-b420-4e4d-a8b3-12c0b43ea9a3))
  )

  (symbol (lib_id "OBC_IC:MCP9808T-E_MS") (at 105.41 100.33 0) (mirror y) (unit 1)
    (in_bom yes) (on_board yes)
    (uuid 8fbadf03-e6c4-4a4a-a298-49dea03f20fe)
    (property "Reference" "U12" (id 0) (at 91.44 93.599 0))
    (property "Value" "MCP9808T-E_MS" (id 1) (at 91.44 95.9104 0))
    (property "Footprint" "OBC_IC:MCP9808T-E_MS" (id 2) (at 81.28 97.79 0)
      (effects (font (size 1.27 1.27)) (justify left) hide)
    )
    (property "Datasheet" "https://ww1.microchip.com/downloads/en/DeviceDoc/25095A.pdf" (id 3) (at 81.28 100.33 0)
      (effects (font (size 1.27 1.27)) (justify left) hide)
    )
    (property "Description" "Microchip MCP9808T-E/MS, Temperature Converter -40  +125 C +/-1C Serial-I2C, SMBus, 8-Pin MSOP" (id 4) (at 81.28 102.87 0)
      (effects (font (size 1.27 1.27)) (justify left) hide)
    )
    (property "Height" "1.1" (id 5) (at 81.28 105.41 0)
      (effects (font (size 1.27 1.27)) (justify left) hide)
    )
    (property "Mouser Part Number" "579-MCP9808T-E/MS" (id 6) (at 81.28 107.95 0)
      (effects (font (size 1.27 1.27)) (justify left) hide)
    )
    (property "Mouser Price/Stock" "https://www.mouser.co.uk/ProductDetail/Microchip-Technology/MCP9808T-E-MS?qs=fgHA1UgJI8BYolGts7svKQ%3D%3D" (id 7) (at 81.28 110.49 0)
      (effects (font (size 1.27 1.27)) (justify left) hide)
    )
    (property "Manufacturer_Name" "Microchip" (id 8) (at 81.28 113.03 0)
      (effects (font (size 1.27 1.27)) (justify left) hide)
    )
    (property "Manufacturer_Part_Number" "MCP9808T-E/MS" (id 9) (at 81.28 115.57 0)
      (effects (font (size 1.27 1.27)) (justify left) hide)
    )
    (pin "1" (uuid 6fa585c2-b920-4fac-9a70-d41949d5b075))
    (pin "2" (uuid 2138e58d-8d61-42ef-92c8-4693e1a6313a))
    (pin "3" (uuid 2cda2532-b9f7-4322-b628-62f968bd1a8d))
    (pin "4" (uuid 518f90ca-f4bc-4e22-821d-35c3e5a1aa48))
    (pin "5" (uuid 6efb10c7-db32-4bb1-a0c5-13a676906331))
    (pin "6" (uuid e6577207-35a8-472d-8017-1923d40b6c3f))
    (pin "7" (uuid e9e65f91-cd8e-41b9-9760-b99cfae57d27))
    (pin "8" (uuid 752d9f11-99ef-46d7-9888-dcb7c338a69f))
  )

  (symbol (lib_id "OBC_IC:MCP9808T-E_MS") (at 241.3 92.71 0) (mirror y) (unit 1)
    (in_bom yes) (on_board yes)
    (uuid a22357bf-67ee-41aa-99ae-3546e05da5dc)
    (property "Reference" "U13" (id 0) (at 227.33 85.979 0))
    (property "Value" "MCP9808T-E_MS" (id 1) (at 227.33 88.2904 0))
    (property "Footprint" "OBC_IC:MCP9808T-E_MS" (id 2) (at 217.17 90.17 0)
      (effects (font (size 1.27 1.27)) (justify left) hide)
    )
    (property "Datasheet" "https://ww1.microchip.com/downloads/en/DeviceDoc/25095A.pdf" (id 3) (at 217.17 92.71 0)
      (effects (font (size 1.27 1.27)) (justify left) hide)
    )
    (property "Description" "Microchip MCP9808T-E/MS, Temperature Converter -40  +125 C +/-1C Serial-I2C, SMBus, 8-Pin MSOP" (id 4) (at 217.17 95.25 0)
      (effects (font (size 1.27 1.27)) (justify left) hide)
    )
    (property "Height" "1.1" (id 5) (at 217.17 97.79 0)
      (effects (font (size 1.27 1.27)) (justify left) hide)
    )
    (property "Mouser Part Number" "579-MCP9808T-E/MS" (id 6) (at 217.17 100.33 0)
      (effects (font (size 1.27 1.27)) (justify left) hide)
    )
    (property "Mouser Price/Stock" "https://www.mouser.co.uk/ProductDetail/Microchip-Technology/MCP9808T-E-MS?qs=fgHA1UgJI8BYolGts7svKQ%3D%3D" (id 7) (at 217.17 102.87 0)
      (effects (font (size 1.27 1.27)) (justify left) hide)
    )
    (property "Manufacturer_Name" "Microchip" (id 8) (at 217.17 105.41 0)
      (effects (font (size 1.27 1.27)) (justify left) hide)
    )
    (property "Manufacturer_Part_Number" "MCP9808T-E/MS" (id 9) (at 217.17 107.95 0)
      (effects (font (size 1.27 1.27)) (justify left) hide)
    )
    (pin "1" (uuid c5554df3-b6d7-4b22-b2a1-20fb1c9a0dfe))
    (pin "2" (uuid c62970bd-5dce-40d0-874c-a98c6559e043))
    (pin "3" (uuid a948768d-1148-486a-9af6-4171654dcca5))
    (pin "4" (uuid fb8c6d97-de94-40f2-93d6-ceb5a2115fb8))
    (pin "5" (uuid ea23e5cf-601f-4a22-a61b-58f1a82acabe))
    (pin "6" (uuid d755c8ea-2212-4cca-aa3b-fe40beb57065))
    (pin "7" (uuid a0dc7a22-d87d-4337-875d-38ce84bf42fa))
    (pin "8" (uuid 390f67cd-c839-4e3f-87ca-8a0d196037a0))
  )

  (symbol (lib_id "OBC_PASSIVE:GCM155R71H104KE02J") (at 204.47 92.71 90) (mirror x) (unit 1)
    (in_bom yes) (on_board yes)
    (uuid a2a76b2b-d666-409b-83bc-b88da5c2ad41)
    (property "Reference" "C20" (id 0) (at 201.2188 97.8916 90)
      (effects (font (size 1.27 1.27)) (justify left))
    )
    (property "Value" "100n" (id 1) (at 201.2188 100.203 90)
      (effects (font (size 1.27 1.27)) (justify left))
    )
    (property "Footprint" "Capacitor_SMD:C_0402_1005Metric" (id 2) (at 203.2 101.6 0)
      (effects (font (size 1.27 1.27)) (justify left) hide)
    )
    (property "Datasheet" "https://psearch.en.murata.com/capacitor/product/GCM155R71H104KE02%23.html" (id 3) (at 205.74 101.6 0)
      (effects (font (size 1.27 1.27)) (justify left) hide)
    )
    (property "Description" "Capacitor GCM15 L=1.0mm W=0.5mm T=0.5mm" (id 4) (at 208.28 101.6 0)
      (effects (font (size 1.27 1.27)) (justify left) hide)
    )
    (property "Height" "0.55" (id 5) (at 210.82 101.6 0)
      (effects (font (size 1.27 1.27)) (justify left) hide)
    )
    (property "Mouser Part Number" "81-GCM155R71H104KE2J" (id 6) (at 213.36 101.6 0)
      (effects (font (size 1.27 1.27)) (justify left) hide)
    )
    (property "Mouser Price/Stock" "https://www.mouser.co.uk/ProductDetail/Murata-Electronics/GCM155R71H104KE02J?qs=hNud%2FORuBR1wlwGPFWBVDg%3D%3D" (id 7) (at 215.9 101.6 0)
      (effects (font (size 1.27 1.27)) (justify left) hide)
    )
    (property "Manufacturer_Name" "Murata Electronics" (id 8) (at 218.44 101.6 0)
      (effects (font (size 1.27 1.27)) (justify left) hide)
    )
    (property "Manufacturer_Part_Number" "GCM155R71H104KE02J" (id 9) (at 220.98 101.6 0)
      (effects (font (size 1.27 1.27)) (justify left) hide)
    )
    (pin "1" (uuid b20276ab-e21e-4296-bf79-459720edf135))
    (pin "2" (uuid dfc2badb-d7ec-48dd-aa29-b89cf78112fa))
  )

  (symbol (lib_id "power:GND") (at 227.33 107.95 0) (mirror y) (unit 1)
    (in_bom yes) (on_board yes)
    (uuid bc408928-70d4-474c-85f6-7fc5e47f9663)
    (property "Reference" "#PWR0146" (id 0) (at 227.33 114.3 0)
      (effects (font (size 1.27 1.27)) hide)
    )
    (property "Value" "GND" (id 1) (at 227.203 112.3442 0))
    (property "Footprint" "" (id 2) (at 227.33 107.95 0)
      (effects (font (size 1.27 1.27)) hide)
    )
    (property "Datasheet" "" (id 3) (at 227.33 107.95 0)
      (effects (font (size 1.27 1.27)) hide)
    )
    (pin "1" (uuid 73e524ff-ceff-4175-b40b-f3daeb00647e))
  )

  (symbol (lib_id "Device:R") (at 106.68 88.9 0) (mirror y) (unit 1)
    (in_bom yes) (on_board yes)
    (uuid c09451f3-bee0-493a-b846-bcd8c0ab3192)
    (property "Reference" "R14" (id 0) (at 104.902 87.7316 0)
      (effects (font (size 1.27 1.27)) (justify left))
    )
    (property "Value" "1.5k" (id 1) (at 104.902 90.043 0)
      (effects (font (size 1.27 1.27)) (justify left))
    )
    (property "Footprint" "Resistor_SMD:R_0402_1005Metric" (id 2) (at 108.458 88.9 90)
      (effects (font (size 1.27 1.27)) hide)
    )
    (property "Datasheet" "~" (id 3) (at 106.68 88.9 0)
      (effects (font (size 1.27 1.27)) hide)
    )
    (pin "1" (uuid b9b4dff5-67a4-4f01-91ea-d8b0f446283b))
    (pin "2" (uuid 7924f515-a6ab-4307-934c-1c843db5d43c))
  )

  (symbol (lib_id "power:PWR_FLAG") (at 210.82 92.71 0) (unit 1)
    (in_bom yes) (on_board yes)
    (uuid d674f162-372c-4c3c-9cf7-b358245c34e9)
    (property "Reference" "#FLG0106" (id 0) (at 210.82 90.805 0)
      (effects (font (size 1.27 1.27)) hide)
    )
    (property "Value" "PWR_FLAG" (id 1) (at 210.82 88.3158 0))
    (property "Footprint" "" (id 2) (at 210.82 92.71 0)
      (effects (font (size 1.27 1.27)) hide)
    )
    (property "Datasheet" "~" (id 3) (at 210.82 92.71 0)
      (effects (font (size 1.27 1.27)) hide)
    )
    (pin "1" (uuid e29f0ddd-3bf3-424d-8a11-b18e27a7df72))
  )

  (symbol (lib_id "OBC_PASSIVE:GCM155R71H104KE02J") (at 68.58 100.33 90) (mirror x) (unit 1)
    (in_bom yes) (on_board yes)
    (uuid d746113a-3b99-417c-b2ac-b268c79f5e32)
    (property "Reference" "C19" (id 0) (at 65.3288 105.5116 90)
      (effects (font (size 1.27 1.27)) (justify left))
    )
    (property "Value" "100n" (id 1) (at 65.3288 107.823 90)
      (effects (font (size 1.27 1.27)) (justify left))
    )
    (property "Footprint" "Capacitor_SMD:C_0402_1005Metric" (id 2) (at 67.31 109.22 0)
      (effects (font (size 1.27 1.27)) (justify left) hide)
    )
    (property "Datasheet" "https://psearch.en.murata.com/capacitor/product/GCM155R71H104KE02%23.html" (id 3) (at 69.85 109.22 0)
      (effects (font (size 1.27 1.27)) (justify left) hide)
    )
    (property "Description" "Capacitor GCM15 L=1.0mm W=0.5mm T=0.5mm" (id 4) (at 72.39 109.22 0)
      (effects (font (size 1.27 1.27)) (justify left) hide)
    )
    (property "Height" "0.55" (id 5) (at 74.93 109.22 0)
      (effects (font (size 1.27 1.27)) (justify left) hide)
    )
    (property "Mouser Part Number" "81-GCM155R71H104KE2J" (id 6) (at 77.47 109.22 0)
      (effects (font (size 1.27 1.27)) (justify left) hide)
    )
    (property "Mouser Price/Stock" "https://www.mouser.co.uk/ProductDetail/Murata-Electronics/GCM155R71H104KE02J?qs=hNud%2FORuBR1wlwGPFWBVDg%3D%3D" (id 7) (at 80.01 109.22 0)
      (effects (font (size 1.27 1.27)) (justify left) hide)
    )
    (property "Manufacturer_Name" "Murata Electronics" (id 8) (at 82.55 109.22 0)
      (effects (font (size 1.27 1.27)) (justify left) hide)
    )
    (property "Manufacturer_Part_Number" "GCM155R71H104KE02J" (id 9) (at 85.09 109.22 0)
      (effects (font (size 1.27 1.27)) (justify left) hide)
    )
    (pin "1" (uuid 4e70315a-d0ae-4e42-8b4d-ed29c86eff2f))
    (pin "2" (uuid e5f2f2f8-a0e8-450a-bc7c-b8f7f7e9da2e))
  )
)
